EXC_FIN_COD;EXC_FIN_LIB
1;DECES
2;INSTALLATION HORS DEPT.
3;CESSATION ACTIVITE
4;CESSATION POUR EXE. SCP/SEL
5;RETRAIT AGREMENT
6;CESSATION ANTICIPEE ACTIVITE
7;RETRAITE
8;RAISON DE SANTE
9;MEDECINE NON PRESCRIPTIVE
10;ACTIVITE NON MEDICALE
