{
    "name": "ER_ANO_F",
    "fields": [
        {
            "name": "DCT_ORD_NUM",
            "description": "Num\u00e9ro d'ordre du d\u00e9compte dans l'organisme",
            "type": "integer",
            "length": "9",
            "format": "default",
            "nomenclature": "-",
            "dateCreated": "",
            "dateDeleted": "",
            "dateMissing": [
                "2006",
                "2007",
                "2008",
                "2009",
                "2010",
                "2011",
                "2012"
            ],
            "observation": "",
            "regle_gestion": "",
            "type_oracle": "number"
        },
        {
            "name": "FLX_DIS_DTD",
            "description": "Date de mise \u00e0 disposition des donn\u00e9es",
            "type": "date",
            "length": "20",
            "format": "default",
            "nomenclature": "IR_DTE_V",
            "dateCreated": "",
            "dateDeleted": "",
            "dateMissing": [
                "2006",
                "2007",
                "2008",
                "2009",
                "2010",
                "2011",
                "2012"
            ],
            "observation": "",
            "regle_gestion": "",
            "type_oracle": "date"
        },
        {
            "name": "FLX_EMT_NUM",
            "description": "Num\u00e9ro d'\u00e9metteur du flux",
            "type": "integer",
            "length": "4",
            "format": "default",
            "nomenclature": "IR_NEM_T",
            "dateCreated": "",
            "dateDeleted": "",
            "dateMissing": [
                "2006",
                "2007",
                "2008",
                "2009",
                "2010",
                "2011",
                "2012"
            ],
            "observation": "",
            "regle_gestion": "",
            "type_oracle": "number"
        },
        {
            "name": "FLX_EMT_ORD",
            "description": "Num\u00e9ro de s\u00e9quence du flux",
            "type": "integer",
            "length": "4",
            "format": "default",
            "nomenclature": "-",
            "dateCreated": "",
            "dateDeleted": "",
            "dateMissing": [
                "2006",
                "2007",
                "2008",
                "2009",
                "2010",
                "2011",
                "2012"
            ],
            "observation": "",
            "regle_gestion": "",
            "type_oracle": "number"
        },
        {
            "name": "FLX_EMT_TYP",
            "description": "Type d'\u00e9metteur",
            "type": "integer",
            "length": "3",
            "format": "default",
            "nomenclature": "IR_TYT_V",
            "dateCreated": "",
            "dateDeleted": "",
            "dateMissing": [
                "2006",
                "2007",
                "2008",
                "2009",
                "2010",
                "2011",
                "2012"
            ],
            "observation": "",
            "regle_gestion": "",
            "type_oracle": "number"
        },
        {
            "name": "FLX_TRT_DTD",
            "description": "Date d'entr\u00e9e des donn\u00e9es dans le syst\u00e8me d'information",
            "type": "date",
            "length": "20",
            "format": "default",
            "nomenclature": "IR_DTE_V",
            "dateCreated": "",
            "dateDeleted": "",
            "dateMissing": [
                "2006",
                "2007",
                "2008",
                "2009",
                "2010",
                "2011",
                "2012"
            ],
            "observation": "",
            "regle_gestion": "",
            "type_oracle": "date"
        },
        {
            "name": "ORG_CLE_NEW",
            "description": "Organisme de liquidation des prestations (apr\u00e8s fusion)",
            "type": "string",
            "length": "9",
            "format": "default",
            "nomenclature": "IR_ORG_V",
            "dateCreated": "",
            "dateDeleted": "",
            "dateMissing": [
                "2006",
                "2007",
                "2008",
                "2009",
                "2010",
                "2011",
                "2012"
            ],
            "observation": "",
            "regle_gestion": "",
            "type_oracle": "string"
        },
        {
            "name": "ORG_CLE_NUM",
            "description": "Ancien organisme avant fusion (jusqu\u2019au jour J de la fusion)",
            "type": "string",
            "length": "9",
            "format": "default",
            "nomenclature": "IR_ORG_V",
            "dateCreated": "",
            "dateDeleted": "",
            "dateMissing": [
                "2006",
                "2007",
                "2008",
                "2009",
                "2010",
                "2011",
                "2012"
            ],
            "observation": "",
            "regle_gestion": "",
            "type_oracle": "string"
        },
        {
            "name": "PRS_ANO_COD",
            "description": "Type d'anomalie ou code contr\u00f4le (signalement/rejet)",
            "type": "string",
            "length": "10",
            "format": "default",
            "nomenclature": "IR_TAN_V",
            "dateCreated": "",
            "dateDeleted": "",
            "dateMissing": [
                "2006",
                "2007",
                "2008",
                "2009",
                "2010",
                "2011",
                "2012"
            ],
            "observation": "",
            "regle_gestion": "",
            "type_oracle": "string"
        },
        {
            "name": "PRS_ANO_COM",
            "description": "Commentaire rejet/signalement",
            "type": "string",
            "length": "50",
            "format": "default",
            "nomenclature": "-",
            "dateCreated": "",
            "dateDeleted": "",
            "dateMissing": [
                "2006",
                "2007",
                "2008",
                "2009",
                "2010",
                "2011",
                "2012"
            ],
            "observation": "",
            "regle_gestion": "",
            "type_oracle": "string"
        },
        {
            "name": "PRS_ANO_DEF",
            "description": "Valeur de remplacement",
            "type": "string",
            "length": "50",
            "format": "default",
            "nomenclature": "-",
            "dateCreated": "",
            "dateDeleted": "",
            "dateMissing": [
                "2006",
                "2007",
                "2008",
                "2009",
                "2010",
                "2011",
                "2012"
            ],
            "observation": "",
            "regle_gestion": "",
            "type_oracle": "string"
        },
        {
            "name": "PRS_ANO_DON",
            "description": "Code donn\u00e9e impact\u00e9e",
            "type": "string",
            "length": "11",
            "format": "default",
            "nomenclature": "-",
            "dateCreated": "",
            "dateDeleted": "",
            "dateMissing": [
                "2006",
                "2007",
                "2008",
                "2009",
                "2010",
                "2011",
                "2012"
            ],
            "observation": "",
            "regle_gestion": "",
            "type_oracle": "string"
        },
        {
            "name": "PRS_ANO_ORI",
            "description": "Valeur d'origine",
            "type": "string",
            "length": "50",
            "format": "default",
            "nomenclature": "-",
            "dateCreated": "",
            "dateDeleted": "",
            "dateMissing": [
                "2006",
                "2007",
                "2008",
                "2009",
                "2010",
                "2011",
                "2012"
            ],
            "observation": "",
            "regle_gestion": "",
            "type_oracle": "string"
        },
        {
            "name": "PRS_ENT_COD",
            "description": "Code entit\u00e9",
            "type": "string",
            "length": "10",
            "format": "default",
            "nomenclature": "-",
            "dateCreated": "",
            "dateDeleted": "",
            "dateMissing": [
                "2006",
                "2007",
                "2008",
                "2009",
                "2010",
                "2011",
                "2012"
            ],
            "observation": "",
            "regle_gestion": "",
            "type_oracle": "string"
        },
        {
            "name": "PRS_ENT_NUM",
            "description": "Num\u00e9ro d'ordre de l'entit\u00e9/type du remboursement",
            "type": "integer",
            "length": "3",
            "format": "default",
            "nomenclature": "-",
            "dateCreated": "",
            "dateDeleted": "",
            "dateMissing": [
                "2006",
                "2007",
                "2008",
                "2009",
                "2010",
                "2011",
                "2012"
            ],
            "observation": "",
            "regle_gestion": "",
            "type_oracle": "number"
        },
        {
            "name": "PRS_ORD_NUM",
            "description": "Num\u00e9ro d'ordre de la prestation dans le d\u00e9compte",
            "type": "integer",
            "length": "5",
            "format": "default",
            "nomenclature": "-",
            "dateCreated": "",
            "dateDeleted": "",
            "dateMissing": [
                "2006",
                "2007",
                "2008",
                "2009",
                "2010",
                "2011",
                "2012"
            ],
            "observation": "",
            "regle_gestion": "",
            "type_oracle": "number"
        },
        {
            "name": "REM_TYP_AFF",
            "description": "Type de remboursement affin\u00e9",
            "type": "integer",
            "length": "1",
            "format": "default",
            "nomenclature": "IR_ASS_V",
            "dateCreated": "",
            "dateDeleted": "",
            "dateMissing": [
                "2006",
                "2007",
                "2008",
                "2009",
                "2010",
                "2011",
                "2012"
            ],
            "observation": "",
            "regle_gestion": "",
            "type_oracle": "number"
        }
    ],
    "title": "Table des anomalies",
    "produit": "DCIR",
    "history": {
        "dateCreated": "",
        "dateDeleted": "",
        "dateMissing": []
    },
    "champ": "",
    "observation": "",
    "foreignKeys": [
        {
            "fields": [
                "DCT_ORD_NUM",
                "FLX_DIS_DTD",
                "FLX_EMT_NUM",
                "FLX_EMT_ORD",
                "FLX_EMT_TYP",
                "FLX_TRT_DTD",
                "ORG_CLE_NUM",
                "PRS_ORD_NUM",
                "REM_TYP_AFF"
            ],
            "reference": {
                "resource": "ER_PRS_F",
                "fields": [
                    "DCT_ORD_NUM",
                    "FLX_DIS_DTD",
                    "FLX_EMT_NUM",
                    "FLX_EMT_ORD",
                    "FLX_EMT_TYP",
                    "FLX_TRT_DTD",
                    "ORG_CLE_NUM",
                    "PRS_ORD_NUM",
                    "REM_TYP_AFF"
                ]
            }
        }
    ]
}