{
    "name": "ER_BIO_F",
    "fields": [
        {
            "name": "BIO_ACT_QSN",
            "description": "Quantite affin\u00e9e sign\u00e9e de biologie",
            "type": "integer",
            "length": "4",
            "format": "default",
            "nomenclature": "-",
            "dateCreated": "2006",
            "dateDeleted": "",
            "dateMissing": [],
            "observation": "",
            "regle_gestion": "",
            "type_oracle": "number"
        },
        {
            "name": "BIO_ORD_NUM",
            "description": "Num\u00e9ro d'ordre de l'acte affin\u00e9 de biologie",
            "type": "integer",
            "length": "4",
            "format": "default",
            "nomenclature": "-",
            "dateCreated": "2006",
            "dateDeleted": "",
            "dateMissing": [],
            "observation": "",
            "regle_gestion": "",
            "type_oracle": "number"
        },
        {
            "name": "BIO_PRS_IDE",
            "description": "Code acte affin\u00e9 de biologie",
            "type": "integer",
            "length": "5",
            "format": "default",
            "nomenclature": "IR_BIO_R",
            "dateCreated": "2006",
            "dateDeleted": "",
            "dateMissing": [],
            "observation": "",
            "regle_gestion": "",
            "type_oracle": "number"
        },
        {
            "name": "DCT_ORD_NUM",
            "description": "Num\u00e9ro d'ordre du d\u00e9compte dans l'organisme",
            "type": "integer",
            "length": "9",
            "format": "default",
            "nomenclature": "-",
            "dateCreated": "2006",
            "dateDeleted": "",
            "dateMissing": [],
            "observation": "",
            "regle_gestion": "",
            "type_oracle": "number"
        },
        {
            "name": "FLX_DIS_DTD",
            "description": "Date de mise \u00e0 disposition des donn\u00e9es",
            "type": "date",
            "length": "20",
            "format": "default",
            "nomenclature": "IR_DTE_V",
            "dateCreated": "2006",
            "dateDeleted": "",
            "dateMissing": [],
            "observation": "",
            "regle_gestion": "",
            "type_oracle": "date"
        },
        {
            "name": "FLX_EMT_NUM",
            "description": "Num\u00e9ro d'\u00e9metteur du flux",
            "type": "integer",
            "length": "4",
            "format": "default",
            "nomenclature": "IR_NEM_T",
            "dateCreated": "2006",
            "dateDeleted": "",
            "dateMissing": [],
            "observation": "",
            "regle_gestion": "",
            "type_oracle": "number"
        },
        {
            "name": "FLX_EMT_ORD",
            "description": "Num\u00e9ro de s\u00e9quence du flux",
            "type": "integer",
            "length": "4",
            "format": "default",
            "nomenclature": "-",
            "dateCreated": "2006",
            "dateDeleted": "",
            "dateMissing": [],
            "observation": "",
            "regle_gestion": "",
            "type_oracle": "number"
        },
        {
            "name": "FLX_EMT_TYP",
            "description": "Type d'\u00e9metteur",
            "type": "integer",
            "length": "3",
            "format": "default",
            "nomenclature": "IR_TYT_V",
            "dateCreated": "2006",
            "dateDeleted": "",
            "dateMissing": [],
            "observation": "",
            "regle_gestion": "",
            "type_oracle": "number"
        },
        {
            "name": "FLX_TRT_DTD",
            "description": "Date d'entr\u00e9e des donn\u00e9es dans le syst\u00e8me d'information",
            "type": "date",
            "length": "20",
            "format": "default",
            "nomenclature": "IR_DTE_V",
            "dateCreated": "2006",
            "dateDeleted": "",
            "dateMissing": [],
            "observation": "",
            "regle_gestion": "",
            "type_oracle": "date"
        },
        {
            "name": "ORG_CLE_NEW",
            "description": "Organisme de liquidation des prestations (apr\u00e8s fusion)",
            "type": "string",
            "length": "9",
            "format": "default",
            "nomenclature": "IR_ORG_V",
            "dateCreated": "2008",
            "dateDeleted": "",
            "dateMissing": [
                "2006",
                "2007"
            ],
            "observation": "",
            "regle_gestion": "",
            "type_oracle": "string"
        },
        {
            "name": "ORG_CLE_NUM",
            "description": "Ancien organisme avant fusion (jusqu\u2019au jour J de la fusion)",
            "type": "string",
            "length": "9",
            "format": "default",
            "nomenclature": "IR_ORG_V",
            "dateCreated": "2006",
            "dateDeleted": "",
            "dateMissing": [],
            "observation": "",
            "regle_gestion": "",
            "type_oracle": "string"
        },
        {
            "name": "PRS_ORD_NUM",
            "description": "Num\u00e9ro d'ordre de la prestation dans le d\u00e9compte",
            "type": "integer",
            "length": "5",
            "format": "default",
            "nomenclature": "-",
            "dateCreated": "2006",
            "dateDeleted": "",
            "dateMissing": [],
            "observation": "",
            "regle_gestion": "",
            "type_oracle": "number"
        },
        {
            "name": "REM_TYP_AFF",
            "description": "Type de remboursement affin\u00e9",
            "type": "integer",
            "length": "1",
            "format": "default",
            "nomenclature": "IR_ASS_V",
            "dateCreated": "2006",
            "dateDeleted": "",
            "dateMissing": [],
            "observation": "",
            "regle_gestion": "",
            "type_oracle": "number"
        }
    ],
    "title": "Prestations affin\u00e9es BIOLOGIE",
    "produit": "DCIR",
    "history": {
        "dateCreated": "2006",
        "dateDeleted": "",
        "dateMissing": []
    },
    "champ": "",
    "observation": "",
    "foreignKeys": [
        {
            "fields": [
                "DCT_ORD_NUM",
                "FLX_DIS_DTD",
                "FLX_EMT_NUM",
                "FLX_EMT_ORD",
                "FLX_EMT_TYP",
                "FLX_TRT_DTD",
                "ORG_CLE_NUM",
                "PRS_ORD_NUM",
                "REM_TYP_AFF"
            ],
            "reference": {
                "resource": "ER_PRS_F",
                "fields": [
                    "DCT_ORD_NUM",
                    "FLX_DIS_DTD",
                    "FLX_EMT_NUM",
                    "FLX_EMT_ORD",
                    "FLX_EMT_TYP",
                    "FLX_TRT_DTD",
                    "ORG_CLE_NUM",
                    "PRS_ORD_NUM",
                    "REM_TYP_AFF"
                ]
            }
        }
    ]
}