{
    "name": "ER_TRS_F",
    "fields": [
        {
            "name": "DCT_ORD_NUM",
            "description": "Num\u00e9ro d'ordre du d\u00e9compte dans l'organisme",
            "type": "integer",
            "length": "9",
            "format": "default",
            "nomenclature": "-",
            "dateCreated": "2008",
            "dateDeleted": "",
            "dateMissing": [
                "2006",
                "2007"
            ],
            "observation": "",
            "regle_gestion": "",
            "type_oracle": "number"
        },
        {
            "name": "FLX_DIS_DTD",
            "description": "Date de mise \u00e0 disposition des donn\u00e9es",
            "type": "date",
            "length": "20",
            "format": "default",
            "nomenclature": "IR_DTE_V",
            "dateCreated": "2008",
            "dateDeleted": "",
            "dateMissing": [
                "2006",
                "2007"
            ],
            "observation": "",
            "regle_gestion": "",
            "type_oracle": "date"
        },
        {
            "name": "FLX_EMT_NUM",
            "description": "Num\u00e9ro d'\u00e9metteur du flux",
            "type": "integer",
            "length": "4",
            "format": "default",
            "nomenclature": "IR_NEM_T",
            "dateCreated": "2008",
            "dateDeleted": "",
            "dateMissing": [
                "2006",
                "2007"
            ],
            "observation": "",
            "regle_gestion": "",
            "type_oracle": "number"
        },
        {
            "name": "FLX_EMT_ORD",
            "description": "Num\u00e9ro de s\u00e9quence du flux",
            "type": "integer",
            "length": "4",
            "format": "default",
            "nomenclature": "-",
            "dateCreated": "2008",
            "dateDeleted": "",
            "dateMissing": [
                "2006",
                "2007"
            ],
            "observation": "",
            "regle_gestion": "",
            "type_oracle": "number"
        },
        {
            "name": "FLX_EMT_TYP",
            "description": "Type d'\u00e9metteur",
            "type": "integer",
            "length": "3",
            "format": "default",
            "nomenclature": "IR_TYT_V",
            "dateCreated": "2008",
            "dateDeleted": "",
            "dateMissing": [
                "2006",
                "2007"
            ],
            "observation": "",
            "regle_gestion": "",
            "type_oracle": "number"
        },
        {
            "name": "FLX_TRT_DTD",
            "description": "Date d'entr\u00e9e des donn\u00e9es dans le syst\u00e8me d'information",
            "type": "date",
            "length": "20",
            "format": "default",
            "nomenclature": "IR_DTE_V",
            "dateCreated": "2008",
            "dateDeleted": "",
            "dateMissing": [
                "2006",
                "2007"
            ],
            "observation": "",
            "regle_gestion": "",
            "type_oracle": "date"
        },
        {
            "name": "ITR_ORD_NUM",
            "description": "Num\u00e9ro d'ordre de l'information d\u00e9taill\u00e9e du transport",
            "type": "integer",
            "length": "4",
            "format": "default",
            "nomenclature": "-",
            "dateCreated": "2008",
            "dateDeleted": "",
            "dateMissing": [
                "2006",
                "2007"
            ],
            "observation": "",
            "regle_gestion": "",
            "type_oracle": "number"
        },
        {
            "name": "ORG_CLE_NEW",
            "description": "Organisme de liquidation des prestations (apr\u00e8s fusion)",
            "type": "string",
            "length": "9",
            "format": "default",
            "nomenclature": "IR_ORG_V",
            "dateCreated": "2008",
            "dateDeleted": "",
            "dateMissing": [
                "2006",
                "2007"
            ],
            "observation": "",
            "regle_gestion": "",
            "type_oracle": "string"
        },
        {
            "name": "ORG_CLE_NUM",
            "description": "Ancien organisme avant fusion (jusqu\u2019au jour J de la fusion)",
            "type": "string",
            "length": "9",
            "format": "default",
            "nomenclature": "IR_ORG_V",
            "dateCreated": "2008",
            "dateDeleted": "",
            "dateMissing": [
                "2006",
                "2007"
            ],
            "observation": "",
            "regle_gestion": "",
            "type_oracle": "string"
        },
        {
            "name": "PRS_ORD_NUM",
            "description": "Num\u00e9ro d'ordre de la prestation dans le d\u00e9compte",
            "type": "integer",
            "length": "4",
            "format": "default",
            "nomenclature": "-",
            "dateCreated": "2008",
            "dateDeleted": "",
            "dateMissing": [
                "2006",
                "2007"
            ],
            "observation": "",
            "regle_gestion": "",
            "type_oracle": "number"
        },
        {
            "name": "REM_TYP_AFF",
            "description": "Type de remboursement affin\u00e9",
            "type": "integer",
            "length": "1",
            "format": "default",
            "nomenclature": "IR_ASS_V",
            "dateCreated": "2008",
            "dateDeleted": "",
            "dateMissing": [
                "2006",
                "2007"
            ],
            "observation": "",
            "regle_gestion": "",
            "type_oracle": "number"
        },
        {
            "name": "TRS_ACP_NOM",
            "description": "Nom de l'accompagnateur dipl\u00f4m\u00e9 du v\u00e9hicule",
            "type": "string",
            "length": "11",
            "format": "default",
            "nomenclature": "-",
            "dateCreated": "2008",
            "dateDeleted": "",
            "dateMissing": [
                "2006",
                "2007"
            ],
            "observation": "",
            "regle_gestion": "",
            "type_oracle": "string"
        },
        {
            "name": "TRS_ARR_CDP",
            "description": "Code postal du lieu d'arriv\u00e9e du transport",
            "type": "string",
            "length": "5",
            "format": "default",
            "nomenclature": "IR_POS_V",
            "dateCreated": "2008",
            "dateDeleted": "",
            "dateMissing": [
                "2006",
                "2007"
            ],
            "observation": "",
            "regle_gestion": "",
            "type_oracle": "string"
        },
        {
            "name": "TRS_CDR_NOM",
            "description": "Nom du conducteur dipl\u00f4m\u00e9 du v\u00e9hicule",
            "type": "string",
            "length": "11",
            "format": "default",
            "nomenclature": "-",
            "dateCreated": "2008",
            "dateDeleted": "",
            "dateMissing": [
                "2006",
                "2007"
            ],
            "observation": "",
            "regle_gestion": "",
            "type_oracle": "string"
        },
        {
            "name": "TRS_DEP_CDP",
            "description": "Code postal du lieu de d\u00e9part du transport",
            "type": "string",
            "length": "5",
            "format": "default",
            "nomenclature": "IR_POS_V",
            "dateCreated": "2008",
            "dateDeleted": "",
            "dateMissing": [
                "2006",
                "2007"
            ],
            "observation": "",
            "regle_gestion": "",
            "type_oracle": "string"
        },
        {
            "name": "TRS_DIS_NIV",
            "description": "Niveau de certification",
            "type": "integer",
            "length": "3",
            "format": "default",
            "nomenclature": "IR_CER_V",
            "dateCreated": "",
            "dateDeleted": "",
            "dateMissing": [
                "2006",
                "2007",
                "2008",
                "2009",
                "2010",
                "2011",
                "2012"
            ],
            "observation": "",
            "regle_gestion": "",
            "type_oracle": "number"
        },
        {
            "name": "TRS_DIS_REL",
            "description": "Distance r\u00e9elle parcourue",
            "type": "integer",
            "length": "5",
            "format": "default",
            "nomenclature": "-",
            "dateCreated": "",
            "dateDeleted": "",
            "dateMissing": [
                "2006",
                "2007",
                "2008",
                "2009",
                "2010",
                "2011",
                "2012"
            ],
            "observation": "",
            "regle_gestion": "",
            "type_oracle": "number"
        },
        {
            "name": "TRS_DIS_USG",
            "description": "Top utilisation du distancier",
            "type": "string",
            "length": "2",
            "format": "default",
            "nomenclature": "IR_DIS_V",
            "dateCreated": "",
            "dateDeleted": "",
            "dateMissing": [
                "2006",
                "2007",
                "2008",
                "2009",
                "2010",
                "2011",
                "2012"
            ],
            "observation": "",
            "regle_gestion": "",
            "type_oracle": "string"
        },
        {
            "name": "TRS_DTD_AME",
            "description": "Ann\u00e9e et mois de d\u00e9part du transport (format AAAAMM)",
            "type": "string",
            "length": "6",
            "format": "default",
            "nomenclature": "IR_MOI_V",
            "dateCreated": "2010",
            "dateDeleted": "",
            "dateMissing": [
                "2006",
                "2007",
                "2008",
                "2009"
            ],
            "observation": "",
            "regle_gestion": "",
            "type_oracle": "string"
        },
        {
            "name": "TRS_DTD_DTE",
            "description": "Date de d\u00e9part du transport",
            "type": "date",
            "length": "20",
            "format": "default",
            "nomenclature": "IR_DTE_V",
            "dateCreated": "2010",
            "dateDeleted": "",
            "dateMissing": [
                "2006",
                "2007",
                "2008",
                "2009"
            ],
            "observation": "",
            "regle_gestion": "",
            "type_oracle": "date"
        },
        {
            "name": "TRS_DTF_AME",
            "description": "Ann\u00e9e et mois d'arriv\u00e9e du transport (format AAAAMM)",
            "type": "string",
            "length": "6",
            "format": "default",
            "nomenclature": "IR_MOI_V",
            "dateCreated": "2010",
            "dateDeleted": "",
            "dateMissing": [
                "2006",
                "2007",
                "2008",
                "2009"
            ],
            "observation": "",
            "regle_gestion": "",
            "type_oracle": "string"
        },
        {
            "name": "TRS_DTF_DTE",
            "description": "Date d'arriv\u00e9e du transport",
            "type": "date",
            "length": "20",
            "format": "default",
            "nomenclature": "IR_DTE_V",
            "dateCreated": "2010",
            "dateDeleted": "",
            "dateMissing": [
                "2006",
                "2007",
                "2008",
                "2009"
            ],
            "observation": "",
            "regle_gestion": "",
            "type_oracle": "date"
        },
        {
            "name": "TRS_TRP_HRA",
            "description": "Heure d'arriv\u00e9e du transport",
            "type": "integer",
            "length": "5",
            "format": "default",
            "nomenclature": "-",
            "dateCreated": "2008",
            "dateDeleted": "",
            "dateMissing": [
                "2006",
                "2007"
            ],
            "observation": "",
            "regle_gestion": "",
            "type_oracle": "number"
        },
        {
            "name": "TRS_TRP_HRD",
            "description": "Heure de d\u00e9part du transport",
            "type": "integer",
            "length": "5",
            "format": "default",
            "nomenclature": "-",
            "dateCreated": "2008",
            "dateDeleted": "",
            "dateMissing": [
                "2006",
                "2007"
            ],
            "observation": "",
            "regle_gestion": "",
            "type_oracle": "number"
        },
        {
            "name": "TRS_VEH_NUM",
            "description": "Num\u00e9ro min\u00e9ralogique du v\u00e9hicule",
            "type": "string",
            "length": "9",
            "format": "default",
            "nomenclature": "-",
            "dateCreated": "2008",
            "dateDeleted": "",
            "dateMissing": [
                "2006",
                "2007"
            ],
            "observation": "",
            "regle_gestion": "",
            "type_oracle": "string"
        }
    ],
    "title": "Table des donn\u00e9es d\u00e9taill\u00e9es de TRANSPORT",
    "produit": "DCIR",
    "history": {
        "dateCreated": "",
        "dateDeleted": "",
        "dateMissing": []
    },
    "champ": "",
    "observation": "",
    "foreignKeys": [
        {
            "fields": [
                "DCT_ORD_NUM",
                "FLX_DIS_DTD",
                "FLX_EMT_NUM",
                "FLX_EMT_ORD",
                "FLX_EMT_TYP",
                "FLX_TRT_DTD",
                "ORG_CLE_NUM",
                "PRS_ORD_NUM",
                "REM_TYP_AFF"
            ],
            "reference": {
                "resource": "ER_PRS_F",
                "fields": [
                    "DCT_ORD_NUM",
                    "FLX_DIS_DTD",
                    "FLX_EMT_NUM",
                    "FLX_EMT_ORD",
                    "FLX_EMT_TYP",
                    "FLX_TRT_DTD",
                    "ORG_CLE_NUM",
                    "PRS_ORD_NUM",
                    "REM_TYP_AFF"
                ]
            }
        }
    ]
}