{
    "name": "T_SSRaaC",
    "fields": [
        {
            "name": "ETA_NUM",
            "description": "N\u00b0 FINESS ",
            "type": "string",
            "length": "9.0",
            "format": "default",
            "nomenclature": "-",
            "dateCreated": "2005",
            "dateDeleted": "nan",
            "dateMissing": [],
            "observation": "",
            "regle_gestion": "",
            "type_oracle": "string"
        },
        {
            "name": "NIR_ANO_17",
            "description": "N\u00b0 anonyme ",
            "type": "string",
            "length": "17.0",
            "format": "default",
            "nomenclature": "-",
            "dateCreated": "2005",
            "dateDeleted": "nan",
            "dateMissing": [],
            "observation": "",
            "regle_gestion": "",
            "type_oracle": "string"
        },
        {
            "name": "SEJ_NUM",
            "description": "D\u00e9lai \u00e0 la date d'entr\u00e9e",
            "type": "string",
            "length": "5.0",
            "format": "default",
            "nomenclature": "-",
            "dateCreated": "2005",
            "dateDeleted": "nan",
            "dateMissing": [],
            "observation": "chgt de libell\u00e9 en 2019 avant \"num\u00e9ro de s\u00e9jour\" mais contenu identique",
            "regle_gestion": "",
            "type_oracle": "string"
        },
        {
            "name": "RHA_NUM",
            "description": "N\u00b0 S\u00e9quentiel du s\u00e9jour",
            "type": "string",
            "length": "7.0",
            "format": "default",
            "nomenclature": "-",
            "dateCreated": "2005",
            "dateDeleted": "nan",
            "dateMissing": [],
            "observation": "",
            "regle_gestion": "",
            "type_oracle": "string"
        },
        {
            "name": "ENT_DAT",
            "description": "Date d'entr\u00e9e",
            "type": "string",
            "length": "8.0",
            "format": "default",
            "nomenclature": "-",
            "dateCreated": "2009",
            "dateDeleted": "nan",
            "dateMissing": [],
            "observation": "",
            "regle_gestion": "",
            "type_oracle": "string"
        },
        {
            "name": "SOR_DAT",
            "description": "Date de sortie",
            "type": "string",
            "length": "8.0",
            "format": "default",
            "nomenclature": "-",
            "dateCreated": "2009",
            "dateDeleted": "nan",
            "dateMissing": [],
            "observation": "",
            "regle_gestion": "",
            "type_oracle": "string"
        },
        {
            "name": "EXE_SOI_AMD",
            "description": "Date d'entr\u00e9e au format ann\u00e9e + mois",
            "type": "string",
            "length": "6.0",
            "format": "default",
            "nomenclature": "-",
            "dateCreated": "2009",
            "dateDeleted": "nan",
            "dateMissing": [],
            "observation": "Variable cr\u00e9\u00e9e par CNAMTS",
            "regle_gestion": "",
            "type_oracle": "string"
        },
        {
            "name": "ART_51_RET",
            "description": "Code retour contr\u00f4le Article 51",
            "type": "string",
            "length": "1.0",
            "format": "default",
            "nomenclature": "-",
            "dateCreated": "2022",
            "dateDeleted": "1.0",
            "dateMissing": [],
            "observation": "",
            "regle_gestion": "",
            "type_oracle": "string"
        },
        {
            "name": "ART_51",
            "description": "ART51",
            "type": "string",
            "length": "1.0",
            "format": "default",
            "nomenclature": "-",
            "dateCreated": "2022",
            "dateDeleted": "1.0",
            "dateMissing": [],
            "observation": "",
            "regle_gestion": "",
            "type_oracle": "string"
        },
        {
            "name": "EXE_SOI_AMF",
            "description": "Date de sortie au format ann\u00e9e + mois",
            "type": "string",
            "length": "6.0",
            "format": "default",
            "nomenclature": "-",
            "dateCreated": "2009",
            "dateDeleted": "nan",
            "dateMissing": [],
            "observation": "Variable cr\u00e9\u00e9e par CNAMTS",
            "regle_gestion": "",
            "type_oracle": "string"
        },
        {
            "name": "EXE_SOI_DTD",
            "description": "date d'entr\u00e9e",
            "type": "date",
            "length": "nan",
            "format": "default",
            "nomenclature": "-",
            "dateCreated": "2009",
            "dateDeleted": "nan",
            "dateMissing": [],
            "observation": "",
            "regle_gestion": "",
            "type_oracle": "date"
        },
        {
            "name": "EXE_SOI_DTF",
            "description": "date de sortie",
            "type": "date",
            "length": "nan",
            "format": "default",
            "nomenclature": "-",
            "dateCreated": "2009",
            "dateDeleted": "nan",
            "dateMissing": [],
            "observation": "",
            "regle_gestion": "",
            "type_oracle": "date"
        },
        {
            "name": "NUM_DAT_AT_RET",
            "description": "Code retour contr\u00f4le \"\u00a0Num\u00e9ro accident du travail ou date d\u2019accident de droit commun\"",
            "type": "string",
            "length": "1.0",
            "format": "default",
            "nomenclature": "-",
            "dateCreated": "2015",
            "dateDeleted": "nan",
            "dateMissing": [],
            "observation": "",
            "regle_gestion": "",
            "type_oracle": "string"
        },
        {
            "name": "ORG_CPL_NUM_RET",
            "description": "Code retour contr\u00f4le \"\u00a0N\u00b0 d\u2019organisme compl\u00e9mentaire\"",
            "type": "string",
            "length": "1.0",
            "format": "default",
            "nomenclature": "-",
            "dateCreated": "2015",
            "dateDeleted": "nan",
            "dateMissing": [],
            "observation": "",
            "regle_gestion": "",
            "type_oracle": "string"
        },
        {
            "name": "NUM_DAT_AT",
            "description": "Num\u00e9ro accident du travail ou date d\u2019accident de droit commun",
            "type": "string",
            "length": "9.0",
            "format": "default",
            "nomenclature": "-",
            "dateCreated": "2015",
            "dateDeleted": "nan",
            "dateMissing": [],
            "observation": "",
            "regle_gestion": "",
            "type_oracle": "string"
        },
        {
            "name": "ORG_CPL_NUM",
            "description": "N\u00b0 d\u2019organisme compl\u00e9mentaire",
            "type": "string",
            "length": "10.0",
            "format": "default",
            "nomenclature": "-",
            "dateCreated": "2015",
            "dateDeleted": "nan",
            "dateMissing": [],
            "observation": "",
            "regle_gestion": "",
            "type_oracle": "string"
        },
        {
            "name": "ETA_NUM_RET",
            "description": "Code retour contr\u00f4le \"N\u00b0 FINESS d\u2019inscription e-PMSI\"",
            "type": "string",
            "length": "1.0",
            "format": "default",
            "nomenclature": "-",
            "dateCreated": "2017",
            "dateDeleted": "nan",
            "dateMissing": [],
            "observation": "",
            "regle_gestion": "",
            "type_oracle": "string"
        },
        {
            "name": "ENT_AM",
            "description": "Date d'entr\u00e9e au format ann\u00e9e + mois",
            "type": "string",
            "length": "6.0",
            "format": "default",
            "nomenclature": "-",
            "dateCreated": "2009",
            "dateDeleted": "2010.0",
            "dateMissing": [],
            "observation": "",
            "regle_gestion": "",
            "type_oracle": "string"
        },
        {
            "name": "SOR_AM",
            "description": "Date de sortie au format ann\u00e9e + mois",
            "type": "string",
            "length": "6.0",
            "format": "default",
            "nomenclature": "-",
            "dateCreated": "2009",
            "dateDeleted": "2010.0",
            "dateMissing": [],
            "observation": "",
            "regle_gestion": "",
            "type_oracle": "string"
        },
        {
            "name": "SOR_ANN",
            "description": "Ann\u00e9e de sortie",
            "type": "string",
            "length": "4.0",
            "format": "default",
            "nomenclature": "-",
            "dateCreated": "2005",
            "dateDeleted": "2008.0",
            "dateMissing": [],
            "observation": "",
            "regle_gestion": "",
            "type_oracle": "string"
        },
        {
            "name": "SOR_MOI",
            "description": "Mois de sortie",
            "type": "date",
            "length": "2.0",
            "format": "default",
            "nomenclature": "-",
            "dateCreated": "2005",
            "dateDeleted": "2008.0",
            "dateMissing": [],
            "observation": "",
            "regle_gestion": "",
            "type_oracle": "string"
        },
        {
            "name": "IPP_BEN_ANO_RET",
            "description": "Code retour contr\u00f4le \" N\u00b0 d'identification permanent du patient\"",
            "type": "string",
            "length": "1.0",
            "format": "default",
            "nomenclature": "-",
            "dateCreated": "2019",
            "dateDeleted": "2022.0",
            "dateMissing": [],
            "observation": "",
            "regle_gestion": "",
            "type_oracle": "string"
        },
        {
            "name": "IPP_BEN_ANO",
            "description": "N\u00b0 d'identification permanent du patient anonymis\u00e9",
            "type": "string",
            "length": "44.0",
            "format": "default",
            "nomenclature": "-",
            "dateCreated": "2019",
            "dateDeleted": "2022.0",
            "dateMissing": [],
            "observation": "",
            "regle_gestion": "",
            "type_oracle": "string"
        }
    ],
    "title": "NIR patient et Dates de soin",
    "produit": "PMSI SSR",
    "history": {
        "dateCreated": "2005",
        "dateDeleted": "",
        "dateMissing": []
    },
    "champ": "Public et Priv\u00e9",
    "observation": "",
    "foreignKeys": [
        {
            "fields": [
                "NIR_ANO_17"
            ],
            "reference": {
                "resource": "IR_BEN_R",
                "fields": [
                    "BEN_NIR_PSA"
                ]
            }
        }
    ]
}