{
    "name": "T_RIPaaR3A",
    "fields": [
        {
            "name": "ETA_NUM_EPMSI",
            "description": "N\u00b0 FINESS e-PMSI",
            "type": "string",
            "length": "9",
            "format": "default",
            "nomenclature": "-",
            "dateCreated": "2007",
            "dateDeleted": "nan",
            "dateMissing": [],
            "observation": "",
            "regle_gestion": "",
            "type_oracle": "string"
        },
        {
            "name": "FOR_NUM",
            "description": "N\u00b0 format",
            "type": "string",
            "length": "3",
            "format": "default",
            "nomenclature": "-",
            "dateCreated": "2007",
            "dateDeleted": "nan",
            "dateMissing": [],
            "observation": "",
            "regle_gestion": "",
            "type_oracle": "string"
        },
        {
            "name": "FOR_NUM_ORI",
            "description": "N\u00b0 format RIM d'orgine",
            "type": "string",
            "length": "3",
            "format": "default",
            "nomenclature": "-",
            "dateCreated": "2007",
            "dateDeleted": "nan",
            "dateMissing": [],
            "observation": "",
            "regle_gestion": "",
            "type_oracle": "string"
        },
        {
            "name": "ETA_NUM_TWO",
            "description": "Second n\u00b0 FINESS",
            "type": "string",
            "length": "9",
            "format": "default",
            "nomenclature": "-",
            "dateCreated": "2007",
            "dateDeleted": "nan",
            "dateMissing": [],
            "observation": "",
            "regle_gestion": "",
            "type_oracle": "string"
        },
        {
            "name": "ACT_MOD",
            "description": "Modalit\u00e9 de r\u00e9alisation de l'acte",
            "type": "string",
            "length": "1",
            "format": "default",
            "nomenclature": "-",
            "dateCreated": "2021",
            "dateDeleted": "nan",
            "dateMissing": [],
            "observation": "",
            "regle_gestion": "",
            "type_oracle": "string"
        },
        {
            "name": "IPP_IRR_CRY",
            "description": "Cryptage irreversible de l'IPP",
            "type": "string",
            "length": "16",
            "format": "default",
            "nomenclature": "-",
            "dateCreated": "2007",
            "dateDeleted": "nan",
            "dateMissing": [],
            "observation": "",
            "regle_gestion": "",
            "type_oracle": "string"
        },
        {
            "name": "SEJ_IDT",
            "description": "Identifiant de s\u00e9jour",
            "type": "string",
            "length": "5",
            "format": "default",
            "nomenclature": "-",
            "dateCreated": "2007",
            "dateDeleted": "nan",
            "dateMissing": [],
            "observation": "",
            "regle_gestion": "",
            "type_oracle": "string"
        },
        {
            "name": "AGE_ANN",
            "description": "Age du patient en ann\u00e9es \u00e0 la date de r\u00e9alisation de l'acte",
            "type": "integer",
            "length": "3",
            "format": "default",
            "nomenclature": "-",
            "dateCreated": "2007",
            "dateDeleted": "nan",
            "dateMissing": [],
            "observation": "",
            "regle_gestion": "",
            "type_oracle": "number"
        },
        {
            "name": "COD_POST",
            "description": "Code postal",
            "type": "string",
            "length": "5",
            "format": "default",
            "nomenclature": "-",
            "dateCreated": "2020",
            "dateDeleted": "nan",
            "dateMissing": [],
            "observation": "",
            "regle_gestion": "",
            "type_oracle": "string"
        },
        {
            "name": "EXE_SOI_DTD",
            "description": "Date l'acte",
            "type": "date",
            "length": "8",
            "format": "default",
            "nomenclature": "-",
            "dateCreated": "2020",
            "dateDeleted": "nan",
            "dateMissing": [],
            "observation": "",
            "regle_gestion": "",
            "type_oracle": "date"
        },
        {
            "name": "AGE_JOU",
            "description": "Age du patient en jours pour les enfants de moins d'un an",
            "type": "integer",
            "length": "3",
            "format": "default",
            "nomenclature": "-",
            "dateCreated": "2007",
            "dateDeleted": "nan",
            "dateMissing": [],
            "observation": "",
            "regle_gestion": "",
            "type_oracle": "number"
        },
        {
            "name": "COD_SEX",
            "description": "Sexe du patient",
            "type": "string",
            "length": "1",
            "format": "default",
            "nomenclature": "-",
            "dateCreated": "2007",
            "dateDeleted": "nan",
            "dateMissing": [],
            "observation": "",
            "regle_gestion": "",
            "type_oracle": "string"
        },
        {
            "name": "BDI_COD",
            "description": "Code g\u00e9ographique de r\u00e9sidence",
            "type": "string",
            "length": "5",
            "format": "default",
            "nomenclature": "-",
            "dateCreated": "2007",
            "dateDeleted": "nan",
            "dateMissing": [],
            "observation": "",
            "regle_gestion": "",
            "type_oracle": "string"
        },
        {
            "name": "BDI_DEP",
            "description": "Code d\u00e9partement de r\u00e9sidence",
            "type": "string",
            "length": "2",
            "format": "default",
            "nomenclature": "-",
            "dateCreated": "2007",
            "dateDeleted": "nan",
            "dateMissing": [],
            "observation": "Variable cr\u00e9\u00e9e par CNAMTS",
            "regle_gestion": "",
            "type_oracle": "string"
        },
        {
            "name": "FOR_ACT",
            "description": "Forme d'activit\u00e9",
            "type": "string",
            "length": "2",
            "format": "default",
            "nomenclature": "-",
            "dateCreated": "2012",
            "dateDeleted": "nan",
            "dateMissing": [],
            "observation": "",
            "regle_gestion": "",
            "type_oracle": "string"
        },
        {
            "name": "SEC_NUM",
            "description": "N\u00b0de secteur ou de dispositif intersectoriel",
            "type": "string",
            "length": "5",
            "format": "default",
            "nomenclature": "-",
            "dateCreated": "2007",
            "dateDeleted": "nan",
            "dateMissing": [],
            "observation": "",
            "regle_gestion": "",
            "type_oracle": "string"
        },
        {
            "name": "MOD_SOI",
            "description": "Mode l\u00e9gal de soins",
            "type": "string",
            "length": "1",
            "format": "default",
            "nomenclature": "-",
            "dateCreated": "2012",
            "dateDeleted": "nan",
            "dateMissing": [],
            "observation": "",
            "regle_gestion": "",
            "type_oracle": "string"
        },
        {
            "name": "ORD_NUM",
            "description": "N\u00b0 d'ordre",
            "type": "string",
            "length": "8",
            "format": "default",
            "nomenclature": "-",
            "dateCreated": "2007",
            "dateDeleted": "nan",
            "dateMissing": [],
            "observation": "",
            "regle_gestion": "",
            "type_oracle": "string"
        },
        {
            "name": "ACT_NAT",
            "description": "Nature de l\u2019acte",
            "type": "string",
            "length": "1",
            "format": "default",
            "nomenclature": "-",
            "dateCreated": "2007",
            "dateDeleted": "nan",
            "dateMissing": [],
            "observation": "",
            "regle_gestion": "",
            "type_oracle": "string"
        },
        {
            "name": "ACT_LIEU",
            "description": "Lieu de l\u2019acte",
            "type": "string",
            "length": "3",
            "format": "default",
            "nomenclature": "-",
            "dateCreated": "2007",
            "dateDeleted": "nan",
            "dateMissing": [],
            "observation": "",
            "regle_gestion": "",
            "type_oracle": "string"
        },
        {
            "name": "PRO_CAT",
            "description": "Cat\u00e9gorie professionnelle de l\u2019intervenant",
            "type": "string",
            "length": "1",
            "format": "default",
            "nomenclature": "-",
            "dateCreated": "2007",
            "dateDeleted": "nan",
            "dateMissing": [],
            "observation": "",
            "regle_gestion": "",
            "type_oracle": "string"
        },
        {
            "name": "INT_NBR",
            "description": "Nombre d\u2019intervenants",
            "type": "integer",
            "length": "1",
            "format": "default",
            "nomenclature": "-",
            "dateCreated": "2007",
            "dateDeleted": "nan",
            "dateMissing": [],
            "observation": "",
            "regle_gestion": "",
            "type_oracle": "number"
        },
        {
            "name": "ANO_IND",
            "description": "Indicateur d'anomalie",
            "type": "string",
            "length": "1",
            "format": "default",
            "nomenclature": "-",
            "dateCreated": "2012",
            "dateDeleted": "nan",
            "dateMissing": [],
            "observation": "",
            "regle_gestion": "",
            "type_oracle": "string"
        },
        {
            "name": "ACT_LIB_IND",
            "description": "Indicateur d\u2019activit\u00e9 lib\u00e9rale",
            "type": "string",
            "length": "1",
            "format": "default",
            "nomenclature": "-",
            "dateCreated": "2007",
            "dateDeleted": "nan",
            "dateMissing": [],
            "observation": "",
            "regle_gestion": "",
            "type_oracle": "string"
        },
        {
            "name": "ETB_SAN_AUTOR",
            "description": "Indicateur FINESS g\u00e9ographique sans autorisation",
            "type": "string",
            "length": "1",
            "format": "default",
            "nomenclature": "-",
            "dateCreated": "2017",
            "dateDeleted": "nan",
            "dateMissing": [],
            "observation": "",
            "regle_gestion": "",
            "type_oracle": "string"
        },
        {
            "name": "DGN_PAL",
            "description": "Diagnostic principal ou motif de prise en charge principale",
            "type": "string",
            "length": "6",
            "format": "default",
            "nomenclature": "MS_CIM_V",
            "dateCreated": "2007",
            "dateDeleted": "nan",
            "dateMissing": [],
            "observation": "",
            "regle_gestion": "",
            "type_oracle": "string"
        },
        {
            "name": "NBR_DGN",
            "description": "Nombre de diagnostics et facteurs associ\u00e9s",
            "type": "integer",
            "length": "2",
            "format": "default",
            "nomenclature": "-",
            "dateCreated": "2007",
            "dateDeleted": "nan",
            "dateMissing": [],
            "observation": "",
            "regle_gestion": "",
            "type_oracle": "number"
        },
        {
            "name": "NUM_UM",
            "description": "N\u00b0 s\u00e9quentiel UM",
            "type": "integer",
            "length": "4",
            "format": "default",
            "nomenclature": "-",
            "dateCreated": "2023",
            "dateDeleted": "nan",
            "dateMissing": [],
            "observation": "",
            "regle_gestion": "",
            "type_oracle": "number"
        },
        {
            "name": "NAT_PEC",
            "description": "Nature de prise en charge",
            "type": "string",
            "length": "2",
            "format": "default",
            "nomenclature": "-",
            "dateCreated": "2007",
            "dateDeleted": "2011.0",
            "dateMissing": [],
            "observation": "",
            "regle_gestion": "",
            "type_oracle": "string"
        },
        {
            "name": "RAL_ACT_MOI",
            "description": "Mois de la date de r\u00e9alisation de l'acte",
            "type": "date",
            "length": "2",
            "format": "default",
            "nomenclature": "-",
            "dateCreated": "2007",
            "dateDeleted": "2020.0",
            "dateMissing": [],
            "observation": "",
            "regle_gestion": "",
            "type_oracle": "string"
        },
        {
            "name": "RAL_ACT_ANN",
            "description": "Ann\u00e9e de la date de r\u00e9alisation de l'acte",
            "type": "string",
            "length": "4",
            "format": "default",
            "nomenclature": "-",
            "dateCreated": "2007",
            "dateDeleted": "2020.0",
            "dateMissing": [],
            "observation": "",
            "regle_gestion": "",
            "type_oracle": "string"
        }
    ],
    "title": "R\u00e9sum\u00e9 par acte ambulatoire anonymis\u00e9",
    "produit": "PMSI RIP",
    "history": {
        "dateCreated": "2007",
        "dateDeleted": "",
        "dateMissing": []
    },
    "champ": "Public (et qq priv\u00e9)",
    "observation": "",
    "foreignKeys": [
        {
            "fields": [
                "ETA_NUM_EPMSI"
            ],
            "reference": {
                "resource": "T_RIPaaE",
                "fields": [
                    "ETA_NUM"
                ]
            }
        }
    ]
}