{
    "name": "T_RIPaaTP_CTL",
    "fields": [
        {
            "name": "ETA_NUM_EPMSI",
            "description": "Num\u00e9ro FINESS e-PMSI",
            "type": "string",
            "length": "9",
            "format": "default",
            "nomenclature": "-",
            "dateCreated": "2020",
            "dateDeleted": "nan",
            "dateMissing": [],
            "observation": "",
            "regle_gestion": "",
            "type_oracle": "string"
        },
        {
            "name": "ETA_NUM_TWO",
            "description": "Num\u00e9ro FINESS g\u00e9ographique",
            "type": "string",
            "length": "9",
            "format": "default",
            "nomenclature": "-",
            "dateCreated": "2020",
            "dateDeleted": "nan",
            "dateMissing": [],
            "observation": "",
            "regle_gestion": "",
            "type_oracle": "string"
        },
        {
            "name": "MOI",
            "description": "Mois p\u00e9riode transmission",
            "type": "date",
            "length": "2",
            "format": "default",
            "nomenclature": "-",
            "dateCreated": "2020",
            "dateDeleted": "nan",
            "dateMissing": [],
            "observation": "",
            "regle_gestion": "",
            "type_oracle": "string"
        },
        {
            "name": "ANN",
            "description": "Ann\u00e9e p\u00e9riode transmission",
            "type": "string",
            "length": "4",
            "format": "default",
            "nomenclature": "-",
            "dateCreated": "2020",
            "dateDeleted": "nan",
            "dateMissing": [],
            "observation": "",
            "regle_gestion": "",
            "type_oracle": "string"
        },
        {
            "name": "RIP_NUM",
            "description": "Num\u00e9ro s\u00e9quentiel s\u00e9jour",
            "type": "string",
            "length": "6",
            "format": "default",
            "nomenclature": "-",
            "dateCreated": "2020",
            "dateDeleted": "nan",
            "dateMissing": [],
            "observation": "",
            "regle_gestion": "",
            "type_oracle": "string"
        },
        {
            "name": "SEQ_SEQ_NUM",
            "description": "Num\u00e9ro s\u00e9quentiel s\u00e9quence au sein s\u00e9jour",
            "type": "string",
            "length": "3",
            "format": "default",
            "nomenclature": "-",
            "dateCreated": "2020",
            "dateDeleted": "nan",
            "dateMissing": [],
            "observation": "",
            "regle_gestion": "",
            "type_oracle": "string"
        },
        {
            "name": "SEQ_VEN_NUM",
            "description": "Num\u00e9ro s\u00e9quentiel venue",
            "type": "string",
            "length": "3",
            "format": "default",
            "nomenclature": "-",
            "dateCreated": "2020",
            "dateDeleted": "nan",
            "dateMissing": [],
            "observation": "",
            "regle_gestion": "",
            "type_oracle": "string"
        },
        {
            "name": "COD_ERR",
            "description": "Code erreur",
            "type": "string",
            "length": "5",
            "format": "default",
            "nomenclature": "-",
            "dateCreated": "2020",
            "dateDeleted": "nan",
            "dateMissing": [],
            "observation": "",
            "regle_gestion": "",
            "type_oracle": "string"
        }
    ],
    "title": "Fich de contr\u00f4le - S\u00e9jours \u00e0 Temps Partiel",
    "produit": "PMSI RIP",
    "history": {
        "dateCreated": "2020",
        "dateDeleted": "",
        "dateMissing": []
    },
    "champ": "Public et Priv\u00e9",
    "observation": "",
    "foreignKeys": [
        {
            "fields": [
                "ETA_NUM_EPMSI",
                "RIP_NUM",
                "SEQ_SEQ_NUM"
            ],
            "reference": {
                "resource": "T_RIPaaRSA",
                "fields": [
                    "ETA_NUM_EPMSI",
                    "RIP_NUM",
                    "SEQ_SEQ_NUM"
                ]
            }
        }
    ]
}