{
    "name": "T_RIPaaSTC",
    "fields": [
        {
            "name": "ETA_NUM_EPMSI",
            "description": "N\u00b0 FINESS de l'\u00e9tablisement",
            "type": "string",
            "length": "9",
            "format": "default",
            "nomenclature": "-",
            "dateCreated": "2011",
            "dateDeleted": "nan",
            "dateMissing": [],
            "observation": "",
            "regle_gestion": "",
            "type_oracle": "string"
        },
        {
            "name": "RIP_NUM",
            "description": "N\u00b0 s\u00e9quentiel dans fichier PMSI ",
            "type": "string",
            "length": "6",
            "format": "default",
            "nomenclature": "-",
            "dateCreated": "2011",
            "dateDeleted": "nan",
            "dateMissing": [],
            "observation": "",
            "regle_gestion": "",
            "type_oracle": "string"
        },
        {
            "name": "NOE_RGM_CTL",
            "description": "Code retour contr\u00f4le \u00ab\u00a0code grand r\u00e9gime\u00a0\u00bb",
            "type": "string",
            "length": "1",
            "format": "default",
            "nomenclature": "-",
            "dateCreated": "2011",
            "dateDeleted": "nan",
            "dateMissing": [],
            "observation": "",
            "regle_gestion": "",
            "type_oracle": "string"
        },
        {
            "name": "EXO_TM_CTL",
            "description": "Code retour contr\u00f4le \u00ab\u00a0code justification d\u2019exon\u00e9ration du ticket mod\u00e9rateur\u00a0\u00bb\u00a0",
            "type": "string",
            "length": "1",
            "format": "default",
            "nomenclature": "-",
            "dateCreated": "2011",
            "dateDeleted": "nan",
            "dateMissing": [],
            "observation": "",
            "regle_gestion": "",
            "type_oracle": "string"
        },
        {
            "name": "COD_PEC_CTL",
            "description": "Code retour contr\u00f4le \u00ab\u00a0code de prise en charge du forfait journalier\u00a0\u00bb",
            "type": "string",
            "length": "1",
            "format": "default",
            "nomenclature": "-",
            "dateCreated": "2011",
            "dateDeleted": "nan",
            "dateMissing": [],
            "observation": "",
            "regle_gestion": "",
            "type_oracle": "string"
        },
        {
            "name": "NAT_ASS_CTL",
            "description": "Code retour contr\u00f4le \u00ab\u00a0nature d\u2019assurance\u00a0\u00bb",
            "type": "string",
            "length": "1",
            "format": "default",
            "nomenclature": "-",
            "dateCreated": "2011",
            "dateDeleted": "nan",
            "dateMissing": [],
            "observation": "",
            "regle_gestion": "",
            "type_oracle": "string"
        },
        {
            "name": "CTR_TYP_CTL",
            "description": "Code retour contr\u00f4le \u00ab\u00a0type de contrat souscrit aupr\u00e8s d'un organisme compl\u00e9mentaire\u00a0\u00bb",
            "type": "string",
            "length": "1",
            "format": "default",
            "nomenclature": "-",
            "dateCreated": "2011",
            "dateDeleted": "nan",
            "dateMissing": [],
            "observation": "",
            "regle_gestion": "",
            "type_oracle": "string"
        },
        {
            "name": "SEJ_FAC_CTL",
            "description": "Code retour contr\u00f4le \u00ab\u00a0s\u00e9jour facturable \u00e0 l\u2019assurance maladie\u00a0\u00bb",
            "type": "string",
            "length": "1",
            "format": "default",
            "nomenclature": "-",
            "dateCreated": "2011",
            "dateDeleted": "nan",
            "dateMissing": [],
            "observation": "",
            "regle_gestion": "",
            "type_oracle": "string"
        },
        {
            "name": "NON_FAC_AM_CTL",
            "description": "Code retour contr\u00f4le \u00ab\u00a0motif de la non facturation \u00e0 l'assurance maladie\u00a0\u00bb",
            "type": "string",
            "length": "1",
            "format": "default",
            "nomenclature": "-",
            "dateCreated": "2011",
            "dateDeleted": "nan",
            "dateMissing": [],
            "observation": "",
            "regle_gestion": "",
            "type_oracle": "string"
        },
        {
            "name": "FAC_18E_CTL",
            "description": "Code retour contr\u00f4le \u00ab\u00a0facturation du 18 euro\u00a0\u00bb",
            "type": "string",
            "length": "1",
            "format": "default",
            "nomenclature": "-",
            "dateCreated": "2011",
            "dateDeleted": "nan",
            "dateMissing": [],
            "observation": "",
            "regle_gestion": "",
            "type_oracle": "string"
        },
        {
            "name": "NBR_VEN_CTL",
            "description": "Code retour contr\u00f4le \u00ab\u00a0nombre de venues de la facture\u00a0\u00bb",
            "type": "string",
            "length": "1",
            "format": "default",
            "nomenclature": "-",
            "dateCreated": "2011",
            "dateDeleted": "nan",
            "dateMissing": [],
            "observation": "",
            "regle_gestion": "",
            "type_oracle": "string"
        },
        {
            "name": "FAC_MNT_TM_CTL",
            "description": "Code retour contr\u00f4le \u00ab\u00a0montant \u00e0 facturer au titre du ticket mod\u00e9rateur\u00bb",
            "type": "string",
            "length": "1",
            "format": "default",
            "nomenclature": "-",
            "dateCreated": "2011",
            "dateDeleted": "nan",
            "dateMissing": [],
            "observation": "",
            "regle_gestion": "",
            "type_oracle": "string"
        },
        {
            "name": "FAC_MNT_FJ_CTL",
            "description": "Code retour contr\u00f4le \u00ab\u00a0montant \u00e0 facturer au titre du forfait journalier\u00a0\u00bb",
            "type": "string",
            "length": "1",
            "format": "default",
            "nomenclature": "-",
            "dateCreated": "2011",
            "dateDeleted": "nan",
            "dateMissing": [],
            "observation": "",
            "regle_gestion": "",
            "type_oracle": "string"
        },
        {
            "name": "TOT_MNT_AM_CTL",
            "description": "Code retour contr\u00f4le \u00ab\u00a0montant total du s\u00e9jour rembours\u00e9 par l\u2019assurance maladie (i.e. hors prestations annexes \u00bb)",
            "type": "string",
            "length": "1",
            "format": "default",
            "nomenclature": "-",
            "dateCreated": "2011",
            "dateDeleted": "nan",
            "dateMissing": [],
            "observation": "",
            "regle_gestion": "",
            "type_oracle": "string"
        },
        {
            "name": "MAJ_MNT_CTL",
            "description": "Code retour contr\u00f4le \u00ab\u00a0montant li\u00e9 \u00e0 la majoration au parcours de soin \u00bb",
            "type": "string",
            "length": "1",
            "format": "default",
            "nomenclature": "-",
            "dateCreated": "2011",
            "dateDeleted": "nan",
            "dateMissing": [],
            "observation": "",
            "regle_gestion": "",
            "type_oracle": "string"
        },
        {
            "name": "REM_BAS_CTL",
            "description": "Code retour contr\u00f4le \u00ab\u00a0montant base remboursement \u00bb",
            "type": "string",
            "length": "1",
            "format": "default",
            "nomenclature": "-",
            "dateCreated": "2011",
            "dateDeleted": "nan",
            "dateMissing": [],
            "observation": "",
            "regle_gestion": "",
            "type_oracle": "string"
        },
        {
            "name": "REM_TAU_CTL",
            "description": "Code retour contr\u00f4le \u00ab\u00a0taux de remboursement \u00bb",
            "type": "string",
            "length": "1",
            "format": "default",
            "nomenclature": "-",
            "dateCreated": "2011",
            "dateDeleted": "nan",
            "dateMissing": [],
            "observation": "",
            "regle_gestion": "",
            "type_oracle": "string"
        },
        {
            "name": "BEN_CMU_CTL",
            "description": "Code retour contr\u00f4le \u00ab Patient b\u00e9n\u00e9ficiaire de la CMU \u00bb",
            "type": "string",
            "length": "1",
            "format": "default",
            "nomenclature": "-",
            "dateCreated": "2011",
            "dateDeleted": "nan",
            "dateMissing": [],
            "observation": "",
            "regle_gestion": "",
            "type_oracle": "string"
        },
        {
            "name": "DAT_HOS_CTL",
            "description": "Code retour contr\u00f4le \u00ab Identifiant anonyme d'hospitalisation \u00bb",
            "type": "string",
            "length": "1",
            "format": "default",
            "nomenclature": "-",
            "dateCreated": "2013",
            "dateDeleted": "nan",
            "dateMissing": [],
            "observation": "",
            "regle_gestion": "",
            "type_oracle": "string"
        },
        {
            "name": "TOT_MNT_AMC_CTL",
            "description": "Code retour contr\u00f4le \u00ab Montant total du s\u00e9jour remboursable pour l'AMC \u00bb",
            "type": "string",
            "length": "1",
            "format": "default",
            "nomenclature": "-",
            "dateCreated": "2012",
            "dateDeleted": "nan",
            "dateMissing": [],
            "observation": "",
            "regle_gestion": "",
            "type_oracle": "string"
        },
        {
            "name": "NOE_RGM",
            "description": "Code grand r\u00e9gime",
            "type": "string",
            "length": "2",
            "format": "default",
            "nomenclature": "-",
            "dateCreated": "2011",
            "dateDeleted": "nan",
            "dateMissing": [],
            "observation": "",
            "regle_gestion": "",
            "type_oracle": "string"
        },
        {
            "name": "EXO_TM",
            "description": "Code justification d\u2019exon\u00e9ration du ticket mod\u00e9rateur",
            "type": "string",
            "length": "1",
            "format": "default",
            "nomenclature": "-",
            "dateCreated": "2011",
            "dateDeleted": "nan",
            "dateMissing": [],
            "observation": "",
            "regle_gestion": "",
            "type_oracle": "string"
        },
        {
            "name": "FJ_COD_PEC",
            "description": "Code de prise en charge du forfait journalier\u00a0",
            "type": "string",
            "length": "1",
            "format": "default",
            "nomenclature": "-",
            "dateCreated": "2011",
            "dateDeleted": "nan",
            "dateMissing": [],
            "observation": "",
            "regle_gestion": "",
            "type_oracle": "string"
        },
        {
            "name": "NAT_ASS",
            "description": "Nature d'assurance",
            "type": "string",
            "length": "2",
            "format": "default",
            "nomenclature": "-",
            "dateCreated": "2011",
            "dateDeleted": "nan",
            "dateMissing": [],
            "observation": "",
            "regle_gestion": "",
            "type_oracle": "string"
        },
        {
            "name": "CTR_TYP",
            "description": "Type de contrat souscrit aupr\u00e8s d'un organisme compl\u00e9mentaire",
            "type": "string",
            "length": "2",
            "format": "default",
            "nomenclature": "-",
            "dateCreated": "2011",
            "dateDeleted": "nan",
            "dateMissing": [],
            "observation": "",
            "regle_gestion": "",
            "type_oracle": "string"
        },
        {
            "name": "SEJ_FAC_AM",
            "description": "S\u00e9jour facturable \u00e0 l\u2019assurance maladie",
            "type": "string",
            "length": "1",
            "format": "default",
            "nomenclature": "-",
            "dateCreated": "2011",
            "dateDeleted": "nan",
            "dateMissing": [],
            "observation": "",
            "regle_gestion": "",
            "type_oracle": "string"
        },
        {
            "name": "NON_FAC_AM",
            "description": "Motif de la non facturation \u00e0 l'assurance maladie",
            "type": "string",
            "length": "1",
            "format": "default",
            "nomenclature": "-",
            "dateCreated": "2011",
            "dateDeleted": "nan",
            "dateMissing": [],
            "observation": "",
            "regle_gestion": "",
            "type_oracle": "string"
        },
        {
            "name": "FAC_18E",
            "description": "Facturation du 18 euro",
            "type": "string",
            "length": "1",
            "format": "default",
            "nomenclature": "-",
            "dateCreated": "2011",
            "dateDeleted": "nan",
            "dateMissing": [],
            "observation": "",
            "regle_gestion": "",
            "type_oracle": "string"
        },
        {
            "name": "FAC_NBR_VEN",
            "description": "Nombre de venues de la facture",
            "type": "integer",
            "length": "4",
            "format": "default",
            "nomenclature": "-",
            "dateCreated": "2011",
            "dateDeleted": "nan",
            "dateMissing": [],
            "observation": "",
            "regle_gestion": "",
            "type_oracle": "number"
        },
        {
            "name": "FAC_MNT_TM",
            "description": "Montant \u00e0 facturer au titre du ticket mod\u00e9rateur",
            "type": "number",
            "length": "10,2",
            "format": "default",
            "nomenclature": "-",
            "dateCreated": "2011",
            "dateDeleted": "nan",
            "dateMissing": [],
            "observation": "",
            "regle_gestion": "",
            "type_oracle": "number"
        },
        {
            "name": "FAC_MNT_FJ",
            "description": "Montant \u00e0 facturer au titre du forfait journalier\u00a0",
            "type": "number",
            "length": "10,2",
            "format": "default",
            "nomenclature": "-",
            "dateCreated": "2011",
            "dateDeleted": "nan",
            "dateMissing": [],
            "observation": "",
            "regle_gestion": "",
            "type_oracle": "number"
        },
        {
            "name": "TOT_MNT_AM",
            "description": "Montant total du s\u00e9jour rembours\u00e9 par l\u2019assurance maladie (i.e. hors prestations annexes)",
            "type": "number",
            "length": "10,2",
            "format": "default",
            "nomenclature": "-",
            "dateCreated": "2011",
            "dateDeleted": "nan",
            "dateMissing": [],
            "observation": "",
            "regle_gestion": "",
            "type_oracle": "number"
        },
        {
            "name": "MAJ_MNT_PS",
            "description": "Montant li\u00e9 \u00e0 la majoration au parcours de soins",
            "type": "number",
            "length": "4,2",
            "format": "default",
            "nomenclature": "-",
            "dateCreated": "2011",
            "dateDeleted": "nan",
            "dateMissing": [],
            "observation": "",
            "regle_gestion": "",
            "type_oracle": "number"
        },
        {
            "name": "REM_BAS_MNT",
            "description": "Montant base remboursement",
            "type": "number",
            "length": "10,2",
            "format": "default",
            "nomenclature": "-",
            "dateCreated": "2011",
            "dateDeleted": "nan",
            "dateMissing": [],
            "observation": "",
            "regle_gestion": "",
            "type_oracle": "number"
        },
        {
            "name": "REM_TAU",
            "description": "Taux de remboursement",
            "type": "number",
            "length": "5,2",
            "format": "default",
            "nomenclature": "-",
            "dateCreated": "2011",
            "dateDeleted": "nan",
            "dateMissing": [],
            "observation": "",
            "regle_gestion": "",
            "type_oracle": "number"
        },
        {
            "name": "BEN_CMU",
            "description": "Patient b\u00e9n\u00e9ficiaire de la CMU",
            "type": "string",
            "length": "1",
            "format": "default",
            "nomenclature": "-",
            "dateCreated": "2011",
            "dateDeleted": "nan",
            "dateMissing": [],
            "observation": "",
            "regle_gestion": "",
            "type_oracle": "string"
        },
        {
            "name": "DAT_HOS",
            "description": "Identifiant anonyme d'hospitalisation",
            "type": "string",
            "length": "8",
            "format": "default",
            "nomenclature": "-",
            "dateCreated": "2013",
            "dateDeleted": "nan",
            "dateMissing": [],
            "observation": "",
            "regle_gestion": "",
            "type_oracle": "string"
        },
        {
            "name": "TOT_MNT_AMC",
            "description": "Montant total du s\u00e9jour remboursable pour l'AMC",
            "type": "number",
            "length": "10,2",
            "format": "default",
            "nomenclature": "-",
            "dateCreated": "2012",
            "dateDeleted": "nan",
            "dateMissing": [],
            "observation": "Attention les montants sont des montants rembours\u00e9s",
            "regle_gestion": "",
            "type_oracle": "number"
        },
        {
            "name": "GES_COD_CTL",
            "description": "Code retour contr\u00f4le \u00ab\u00a0code gestion\u00a0\u00bb",
            "type": "string",
            "length": "1",
            "format": "default",
            "nomenclature": "-",
            "dateCreated": "2014",
            "dateDeleted": "nan",
            "dateMissing": [],
            "observation": "",
            "regle_gestion": "",
            "type_oracle": "string"
        },
        {
            "name": "PA_COD_CTL",
            "description": "Code retour contr\u00f4le \u00ab Code participation assur\u00e9 \u00bb",
            "type": "string",
            "length": "1",
            "format": "default",
            "nomenclature": "-",
            "dateCreated": "2014",
            "dateDeleted": "nan",
            "dateMissing": [],
            "observation": "",
            "regle_gestion": "",
            "type_oracle": "string"
        },
        {
            "name": "ENT_NUM_CTL",
            "description": "Code retour contr\u00f4le \u00ab N\u00b0 d\u2019entr\u00e9e \u00bb",
            "type": "string",
            "length": "1",
            "format": "default",
            "nomenclature": "-",
            "dateCreated": "2014",
            "dateDeleted": "nan",
            "dateMissing": [],
            "observation": "",
            "regle_gestion": "",
            "type_oracle": "string"
        },
        {
            "name": "CAI_GES_CTL",
            "description": "Code retour contr\u00f4le \u00ab N\u00b0 caisse gestionnaire \u00bb ",
            "type": "string",
            "length": "1",
            "format": "default",
            "nomenclature": "-",
            "dateCreated": "2014",
            "dateDeleted": "nan",
            "dateMissing": [],
            "observation": "",
            "regle_gestion": "",
            "type_oracle": "string"
        },
        {
            "name": "CENT_GES_CTL",
            "description": "Code retour contr\u00f4le \u00ab N\u00b0 centre gestionnaire \u00bb ",
            "type": "string",
            "length": "1",
            "format": "default",
            "nomenclature": "-",
            "dateCreated": "2014",
            "dateDeleted": "nan",
            "dateMissing": [],
            "observation": "",
            "regle_gestion": "",
            "type_oracle": "string"
        },
        {
            "name": "GES_COD",
            "description": "code gestion\u00a0",
            "type": "string",
            "length": "2",
            "format": "default",
            "nomenclature": "-",
            "dateCreated": "2014",
            "dateDeleted": "nan",
            "dateMissing": [],
            "observation": "",
            "regle_gestion": "",
            "type_oracle": "string"
        },
        {
            "name": "PA_COD",
            "description": "Code participation assur\u00e9 ",
            "type": "string",
            "length": "1",
            "format": "default",
            "nomenclature": "-",
            "dateCreated": "2014",
            "dateDeleted": "nan",
            "dateMissing": [],
            "observation": "",
            "regle_gestion": "",
            "type_oracle": "string"
        },
        {
            "name": "ENT_NUM",
            "description": "N\u00b0 d\u2019entr\u00e9e ",
            "type": "string",
            "length": "9",
            "format": "default",
            "nomenclature": "-",
            "dateCreated": "2014",
            "dateDeleted": "nan",
            "dateMissing": [],
            "observation": "",
            "regle_gestion": "",
            "type_oracle": "string"
        },
        {
            "name": "CAI_GES",
            "description": "N\u00b0 caisse gestionnaire ",
            "type": "string",
            "length": "3",
            "format": "default",
            "nomenclature": "-",
            "dateCreated": "2014",
            "dateDeleted": "nan",
            "dateMissing": [],
            "observation": "",
            "regle_gestion": "",
            "type_oracle": "string"
        },
        {
            "name": "CENT_GES",
            "description": "N\u00b0 centre gestionnaire ",
            "type": "string",
            "length": "4",
            "format": "default",
            "nomenclature": "-",
            "dateCreated": "2014",
            "dateDeleted": "nan",
            "dateMissing": [],
            "observation": "",
            "regle_gestion": "",
            "type_oracle": "string"
        },
        {
            "name": "RNG_NAI_CTL",
            "description": "Code retour contr\u00f4le \u00ab Rang de naissance \u00bb",
            "type": "string",
            "length": "1",
            "format": "default",
            "nomenclature": "-",
            "dateCreated": "2014",
            "dateDeleted": "nan",
            "dateMissing": [],
            "observation": "",
            "regle_gestion": "",
            "type_oracle": "string"
        },
        {
            "name": "RNG_BEN_CTL",
            "description": "Code retour contr\u00f4le \u00ab Rang du b\u00e9n\u00e9ficiaire \u00bb",
            "type": "string",
            "length": "1",
            "format": "default",
            "nomenclature": "-",
            "dateCreated": "2014",
            "dateDeleted": "nan",
            "dateMissing": [],
            "observation": "",
            "regle_gestion": "",
            "type_oracle": "string"
        },
        {
            "name": "RNG_NAI",
            "description": "Rang de naissance ",
            "type": "string",
            "length": "1",
            "format": "default",
            "nomenclature": "-",
            "dateCreated": "2014",
            "dateDeleted": "nan",
            "dateMissing": [],
            "observation": "",
            "regle_gestion": "",
            "type_oracle": "string"
        },
        {
            "name": "RNG_BEN",
            "description": "Rang du b\u00e9n\u00e9ficiaire ",
            "type": "string",
            "length": "3",
            "format": "default",
            "nomenclature": "-",
            "dateCreated": "2014",
            "dateDeleted": "nan",
            "dateMissing": [],
            "observation": "",
            "regle_gestion": "",
            "type_oracle": "string"
        },
        {
            "name": "PEC_SOI_URG_CTL",
            "description": "Code retour contr\u00f4le \"Confirmation de la prise en charge dans le cadre du dispositif des soins urgents\" ",
            "type": "string",
            "length": "1",
            "format": "default",
            "nomenclature": "-",
            "dateCreated": "2015",
            "dateDeleted": "nan",
            "dateMissing": [],
            "observation": "",
            "regle_gestion": "",
            "type_oracle": "string"
        },
        {
            "name": "PEC_SOI_URG",
            "description": "Confirmation de la prise en charge dans le cadre du dispositif des soins urgents ",
            "type": "string",
            "length": "1",
            "format": "default",
            "nomenclature": "-",
            "dateCreated": "2015",
            "dateDeleted": "nan",
            "dateMissing": [],
            "observation": "",
            "regle_gestion": "",
            "type_oracle": "string"
        },
        {
            "name": "ART_51_RET",
            "description": "Code retour contr\u00f4le Article 51",
            "type": "string",
            "length": "1",
            "format": "default",
            "nomenclature": "-",
            "dateCreated": "2022",
            "dateDeleted": "nan",
            "dateMissing": [],
            "observation": "",
            "regle_gestion": "",
            "type_oracle": "string"
        },
        {
            "name": "ART_51",
            "description": "ART51",
            "type": "string",
            "length": "1",
            "format": "default",
            "nomenclature": "-",
            "dateCreated": "2022",
            "dateDeleted": "nan",
            "dateMissing": [],
            "observation": "",
            "regle_gestion": "",
            "type_oracle": "string"
        },
        {
            "name": "NAT_PJ_DT_CTL",
            "description": "Code retour contr\u00f4le \"Nature de la pi\u00e8ce justificative des droits\"",
            "type": "string",
            "length": "1",
            "format": "default",
            "nomenclature": "-",
            "dateCreated": "2017",
            "dateDeleted": "nan",
            "dateMissing": [],
            "observation": "",
            "regle_gestion": "",
            "type_oracle": "string"
        },
        {
            "name": "DAT_PEC_CTL",
            "description": "Code retour contr\u00f4le \"Prise en charge \u00e9tablie le\"",
            "type": "string",
            "length": "1",
            "format": "default",
            "nomenclature": "-",
            "dateCreated": "2017",
            "dateDeleted": "nan",
            "dateMissing": [],
            "observation": "",
            "regle_gestion": "",
            "type_oracle": "string"
        },
        {
            "name": "CAI_NUM_CTL",
            "description": "Code retour contr\u00f4le \"D\u00e9livr\u00e9e par\"",
            "type": "string",
            "length": "1",
            "format": "default",
            "nomenclature": "-",
            "dateCreated": "2017",
            "dateDeleted": "nan",
            "dateMissing": [],
            "observation": "",
            "regle_gestion": "",
            "type_oracle": "string"
        },
        {
            "name": "REG_PEC_ASS_CTL",
            "description": "Code retour contr\u00f4le \"R\u00e9gime de prestation de l\u2019assur\u00e9\"",
            "type": "string",
            "length": "1",
            "format": "default",
            "nomenclature": "-",
            "dateCreated": "2017",
            "dateDeleted": "nan",
            "dateMissing": [],
            "observation": "",
            "regle_gestion": "",
            "type_oracle": "string"
        },
        {
            "name": "TOP_ECL_FLX_CTL",
            "description": "Code retour contr\u00f4le \"Top \u00e9clatement des flux par l\u2019\u00e9tablissement\"",
            "type": "string",
            "length": "1",
            "format": "default",
            "nomenclature": "-",
            "dateCreated": "2017",
            "dateDeleted": "nan",
            "dateMissing": [],
            "observation": "",
            "regle_gestion": "",
            "type_oracle": "string"
        },
        {
            "name": "DAT_DEB_FAC_CTL",
            "description": "Code retour contr\u00f4le \"Date d\u2019entr\u00e9e\"",
            "type": "string",
            "length": "1",
            "format": "default",
            "nomenclature": "-",
            "dateCreated": "2017",
            "dateDeleted": "nan",
            "dateMissing": [],
            "observation": "",
            "regle_gestion": "",
            "type_oracle": "string"
        },
        {
            "name": "DAT_FIN_FAC_CTL",
            "description": "Code retour contr\u00f4le \"Date de sortie\"",
            "type": "string",
            "length": "1",
            "format": "default",
            "nomenclature": "-",
            "dateCreated": "2017",
            "dateDeleted": "nan",
            "dateMissing": [],
            "observation": "",
            "regle_gestion": "",
            "type_oracle": "string"
        },
        {
            "name": "NAT_PJ_DT",
            "description": "Nature de la pi\u00e8ce justificative des droits",
            "type": "string",
            "length": "1",
            "format": "default",
            "nomenclature": "-",
            "dateCreated": "2017",
            "dateDeleted": "nan",
            "dateMissing": [],
            "observation": "",
            "regle_gestion": "",
            "type_oracle": "string"
        },
        {
            "name": "DAT_PEC",
            "description": "Prise en charge \u00e9tablie le",
            "type": "string",
            "length": "8",
            "format": "default",
            "nomenclature": "-",
            "dateCreated": "2017",
            "dateDeleted": "nan",
            "dateMissing": [],
            "observation": "",
            "regle_gestion": "",
            "type_oracle": "string"
        },
        {
            "name": "CAI_NUM",
            "description": "D\u00e9livr\u00e9e par",
            "type": "string",
            "length": "3",
            "format": "default",
            "nomenclature": "-",
            "dateCreated": "2017",
            "dateDeleted": "nan",
            "dateMissing": [],
            "observation": "",
            "regle_gestion": "",
            "type_oracle": "string"
        },
        {
            "name": "REG_PEC_ASS",
            "description": "R\u00e9gime de prestation de l\u2019assur\u00e9",
            "type": "string",
            "length": "3",
            "format": "default",
            "nomenclature": "-",
            "dateCreated": "2017",
            "dateDeleted": "nan",
            "dateMissing": [],
            "observation": "",
            "regle_gestion": "",
            "type_oracle": "string"
        },
        {
            "name": "TOP_ECL_FLX",
            "description": "Top \u00e9clatement des flux par l\u2019\u00e9tablissement",
            "type": "string",
            "length": "1",
            "format": "default",
            "nomenclature": "-",
            "dateCreated": "2017",
            "dateDeleted": "nan",
            "dateMissing": [],
            "observation": "",
            "regle_gestion": "",
            "type_oracle": "string"
        },
        {
            "name": "DAT_DEB_FAC",
            "description": "Date d\u2019entr\u00e9e",
            "type": "string",
            "length": "8",
            "format": "default",
            "nomenclature": "-",
            "dateCreated": "2017",
            "dateDeleted": "nan",
            "dateMissing": [],
            "observation": "",
            "regle_gestion": "",
            "type_oracle": "string"
        },
        {
            "name": "DAT_FIN_FAC",
            "description": "Date de sortie",
            "type": "string",
            "length": "8",
            "format": "default",
            "nomenclature": "-",
            "dateCreated": "2017",
            "dateDeleted": "nan",
            "dateMissing": [],
            "observation": "",
            "regle_gestion": "",
            "type_oracle": "string"
        },
        {
            "name": "RAC_MNT_PAT_CTL",
            "description": "Code retour contr\u00f4le \" Montant total du s\u00e9jour factur\u00e9 au patient \"",
            "type": "string",
            "length": "1",
            "format": "default",
            "nomenclature": "-",
            "dateCreated": "2018",
            "dateDeleted": "nan",
            "dateMissing": [],
            "observation": "",
            "regle_gestion": "",
            "type_oracle": "string"
        },
        {
            "name": "NBR_REJET_AMO_CTL",
            "description": "Code retour contr\u00f4le \" Rejet AMO \"",
            "type": "string",
            "length": "1",
            "format": "default",
            "nomenclature": "-",
            "dateCreated": "2018",
            "dateDeleted": "nan",
            "dateMissing": [],
            "observation": "",
            "regle_gestion": "",
            "type_oracle": "string"
        },
        {
            "name": "FAC_AMO_DT_CTL",
            "description": "Code retour contr\u00f4le \" Date de facturation AMO \"",
            "type": "string",
            "length": "1",
            "format": "default",
            "nomenclature": "-",
            "dateCreated": "2018",
            "dateDeleted": "nan",
            "dateMissing": [],
            "observation": "",
            "regle_gestion": "",
            "type_oracle": "string"
        },
        {
            "name": "FAC_AMC_DT_CTL",
            "description": "Code retour contr\u00f4le \" Date de facturation AMC \"",
            "type": "string",
            "length": "1",
            "format": "default",
            "nomenclature": "-",
            "dateCreated": "2018",
            "dateDeleted": "nan",
            "dateMissing": [],
            "observation": "",
            "regle_gestion": "",
            "type_oracle": "string"
        },
        {
            "name": "FAC_RAC_DT_CTL",
            "description": "Code retour contr\u00f4le \" Date de facturation patient \"",
            "type": "string",
            "length": "1",
            "format": "default",
            "nomenclature": "-",
            "dateCreated": "2018",
            "dateDeleted": "nan",
            "dateMissing": [],
            "observation": "",
            "regle_gestion": "",
            "type_oracle": "string"
        },
        {
            "name": "PAI_AMO_DT_CTL",
            "description": "Code retour contr\u00f4le \" Date de paiement AMO \"",
            "type": "string",
            "length": "1",
            "format": "default",
            "nomenclature": "-",
            "dateCreated": "2018",
            "dateDeleted": "nan",
            "dateMissing": [],
            "observation": "",
            "regle_gestion": "",
            "type_oracle": "string"
        },
        {
            "name": "PAI_AMC_DT_CTL",
            "description": "Code retour contr\u00f4le \" Date de paiement AMC \"",
            "type": "string",
            "length": "1",
            "format": "default",
            "nomenclature": "-",
            "dateCreated": "2018",
            "dateDeleted": "nan",
            "dateMissing": [],
            "observation": "",
            "regle_gestion": "",
            "type_oracle": "string"
        },
        {
            "name": "PAI_RAC_DT_CTL",
            "description": "Code retour contr\u00f4le \" Date de paiement patient \"",
            "type": "string",
            "length": "1",
            "format": "default",
            "nomenclature": "-",
            "dateCreated": "2018",
            "dateDeleted": "nan",
            "dateMissing": [],
            "observation": "",
            "regle_gestion": "",
            "type_oracle": "string"
        },
        {
            "name": "VALID_FAC_AMO_CTL",
            "description": "Code retour contr\u00f4le \" Statut FT AMO \"",
            "type": "string",
            "length": "1",
            "format": "default",
            "nomenclature": "-",
            "dateCreated": "2018",
            "dateDeleted": "nan",
            "dateMissing": [],
            "observation": "",
            "regle_gestion": "",
            "type_oracle": "string"
        },
        {
            "name": "VALID_FAC_AMC_CTL",
            "description": "Code retour contr\u00f4le \" Statut FT AMC \"",
            "type": "string",
            "length": "1",
            "format": "default",
            "nomenclature": "-",
            "dateCreated": "2018",
            "dateDeleted": "nan",
            "dateMissing": [],
            "observation": "",
            "regle_gestion": "",
            "type_oracle": "string"
        },
        {
            "name": "VALID_FAC_RAC_CTL",
            "description": "Code retour contr\u00f4le \" Statut FT patient \"",
            "type": "string",
            "length": "1",
            "format": "default",
            "nomenclature": "-",
            "dateCreated": "2018",
            "dateDeleted": "nan",
            "dateMissing": [],
            "observation": "",
            "regle_gestion": "",
            "type_oracle": "string"
        },
        {
            "name": "PAYS_ASS_PAT_CTL",
            "description": "Code retour contr\u00f4le \" Pays d\u2019assurance social \"",
            "type": "string",
            "length": "1",
            "format": "default",
            "nomenclature": "-",
            "dateCreated": "2018",
            "dateDeleted": "nan",
            "dateMissing": [],
            "observation": "",
            "regle_gestion": "",
            "type_oracle": "string"
        },
        {
            "name": "RAC_MNT_PAT",
            "description": "Montant total du s\u00e9jour factur\u00e9 au patient",
            "type": "number",
            "length": "8,2",
            "format": "default",
            "nomenclature": "-",
            "dateCreated": "2018",
            "dateDeleted": "nan",
            "dateMissing": [],
            "observation": "",
            "regle_gestion": "",
            "type_oracle": "number"
        },
        {
            "name": "NBR_REJET_AMO",
            "description": "Rejet AMO",
            "type": "string",
            "length": "1",
            "format": "default",
            "nomenclature": "-",
            "dateCreated": "2018",
            "dateDeleted": "nan",
            "dateMissing": [],
            "observation": "",
            "regle_gestion": "",
            "type_oracle": "string"
        },
        {
            "name": "FAC_AMO_DT",
            "description": "Date de facturation AMO",
            "type": "string",
            "length": "8",
            "format": "default",
            "nomenclature": "-",
            "dateCreated": "2018",
            "dateDeleted": "nan",
            "dateMissing": [],
            "observation": "",
            "regle_gestion": "",
            "type_oracle": "string"
        },
        {
            "name": "FAC_AMC_DT",
            "description": "Date de facturation AMC",
            "type": "string",
            "length": "8",
            "format": "default",
            "nomenclature": "-",
            "dateCreated": "2018",
            "dateDeleted": "nan",
            "dateMissing": [],
            "observation": "",
            "regle_gestion": "",
            "type_oracle": "string"
        },
        {
            "name": "FAC_RAC_DT",
            "description": "Date de facturation patient",
            "type": "string",
            "length": "8",
            "format": "default",
            "nomenclature": "-",
            "dateCreated": "2018",
            "dateDeleted": "nan",
            "dateMissing": [],
            "observation": "",
            "regle_gestion": "",
            "type_oracle": "string"
        },
        {
            "name": "PAI_AMO_DT",
            "description": "Date de paiement AMO",
            "type": "string",
            "length": "8",
            "format": "default",
            "nomenclature": "-",
            "dateCreated": "2018",
            "dateDeleted": "nan",
            "dateMissing": [],
            "observation": "",
            "regle_gestion": "",
            "type_oracle": "string"
        },
        {
            "name": "PAI_AMC_DT",
            "description": "Date de paiement AMC",
            "type": "string",
            "length": "8",
            "format": "default",
            "nomenclature": "-",
            "dateCreated": "2018",
            "dateDeleted": "nan",
            "dateMissing": [],
            "observation": "",
            "regle_gestion": "",
            "type_oracle": "string"
        },
        {
            "name": "PAI_RAC_DT",
            "description": "Date de paiement patient",
            "type": "string",
            "length": "8",
            "format": "default",
            "nomenclature": "-",
            "dateCreated": "2018",
            "dateDeleted": "nan",
            "dateMissing": [],
            "observation": "",
            "regle_gestion": "",
            "type_oracle": "string"
        },
        {
            "name": "VALID_FAC_AMO",
            "description": "Statut FT AMO",
            "type": "string",
            "length": "1",
            "format": "default",
            "nomenclature": "-",
            "dateCreated": "2018",
            "dateDeleted": "nan",
            "dateMissing": [],
            "observation": "",
            "regle_gestion": "",
            "type_oracle": "string"
        },
        {
            "name": "VALID_FAC_AMC",
            "description": "Statut FT AMC",
            "type": "string",
            "length": "1",
            "format": "default",
            "nomenclature": "-",
            "dateCreated": "2018",
            "dateDeleted": "nan",
            "dateMissing": [],
            "observation": "",
            "regle_gestion": "",
            "type_oracle": "string"
        },
        {
            "name": "VALID_FAC_RAC",
            "description": "Statut FT patient",
            "type": "string",
            "length": "1",
            "format": "default",
            "nomenclature": "-",
            "dateCreated": "2018",
            "dateDeleted": "nan",
            "dateMissing": [],
            "observation": "",
            "regle_gestion": "",
            "type_oracle": "string"
        },
        {
            "name": "PAYS_ASS_PAT",
            "description": "Pays d\u2019assurance social",
            "type": "string",
            "length": "3",
            "format": "default",
            "nomenclature": "-",
            "dateCreated": "2018",
            "dateDeleted": "nan",
            "dateMissing": [],
            "observation": "variable sensible",
            "regle_gestion": "",
            "type_oracle": "string"
        },
        {
            "name": "ETA_NUM_TWO",
            "description": "Num\u00e9ro FINESS de l\u2019\u00e9tablissement (site g\u00e9ographique)",
            "type": "string",
            "length": "9",
            "format": "default",
            "nomenclature": "-",
            "dateCreated": "2011",
            "dateDeleted": "2012.0",
            "dateMissing": [],
            "observation": "",
            "regle_gestion": "",
            "type_oracle": "string"
        },
        {
            "name": "RAC_MNT_PAT",
            "description": "Montant total du s\u00e9jour factur\u00e9 au patient",
            "type": "integer",
            "length": "8",
            "format": "default",
            "nomenclature": "-",
            "dateCreated": "2018",
            "dateDeleted": "2022.0",
            "dateMissing": [],
            "observation": "",
            "regle_gestion": "",
            "type_oracle": "number"
        },
        {
            "name": "NBR_REJET_AMO",
            "description": "Rejet AMO",
            "type": "string",
            "length": "1",
            "format": "default",
            "nomenclature": "-",
            "dateCreated": "2018",
            "dateDeleted": "2022.0",
            "dateMissing": [],
            "observation": "",
            "regle_gestion": "",
            "type_oracle": "string"
        },
        {
            "name": "FAC_AMO_DT",
            "description": "Date de facturation AMO",
            "type": "string",
            "length": "8",
            "format": "default",
            "nomenclature": "-",
            "dateCreated": "2018",
            "dateDeleted": "2022.0",
            "dateMissing": [],
            "observation": "",
            "regle_gestion": "",
            "type_oracle": "string"
        },
        {
            "name": "FAC_AMC_DT",
            "description": "Date de facturation AMC",
            "type": "string",
            "length": "8",
            "format": "default",
            "nomenclature": "-",
            "dateCreated": "2018",
            "dateDeleted": "2022.0",
            "dateMissing": [],
            "observation": "",
            "regle_gestion": "",
            "type_oracle": "string"
        },
        {
            "name": "FAC_RAC_DT",
            "description": "Date de facturation patient",
            "type": "string",
            "length": "8",
            "format": "default",
            "nomenclature": "-",
            "dateCreated": "2018",
            "dateDeleted": "2022.0",
            "dateMissing": [],
            "observation": "",
            "regle_gestion": "",
            "type_oracle": "string"
        },
        {
            "name": "PAI_AMO_DT",
            "description": "Date de paiement AMO",
            "type": "string",
            "length": "8",
            "format": "default",
            "nomenclature": "-",
            "dateCreated": "2018",
            "dateDeleted": "2022.0",
            "dateMissing": [],
            "observation": "",
            "regle_gestion": "",
            "type_oracle": "string"
        },
        {
            "name": "PAI_AMC_DT",
            "description": "Date de paiement AMC",
            "type": "string",
            "length": "8",
            "format": "default",
            "nomenclature": "-",
            "dateCreated": "2018",
            "dateDeleted": "2022.0",
            "dateMissing": [],
            "observation": "",
            "regle_gestion": "",
            "type_oracle": "string"
        },
        {
            "name": "PAI_RAC_DT",
            "description": "Date de paiement patient",
            "type": "string",
            "length": "8",
            "format": "default",
            "nomenclature": "-",
            "dateCreated": "2018",
            "dateDeleted": "2022.0",
            "dateMissing": [],
            "observation": "",
            "regle_gestion": "",
            "type_oracle": "string"
        },
        {
            "name": "VALID_FAC_AMO",
            "description": "Statut FT AMO",
            "type": "string",
            "length": "1",
            "format": "default",
            "nomenclature": "-",
            "dateCreated": "2018",
            "dateDeleted": "2022.0",
            "dateMissing": [],
            "observation": "",
            "regle_gestion": "",
            "type_oracle": "string"
        },
        {
            "name": "VALID_FAC_AMC",
            "description": "Statut FT AMC",
            "type": "string",
            "length": "1",
            "format": "default",
            "nomenclature": "-",
            "dateCreated": "2018",
            "dateDeleted": "2022.0",
            "dateMissing": [],
            "observation": "",
            "regle_gestion": "",
            "type_oracle": "string"
        },
        {
            "name": "VALID_FAC_RAC",
            "description": "Statut FT patient",
            "type": "string",
            "length": "1",
            "format": "default",
            "nomenclature": "-",
            "dateCreated": "2018",
            "dateDeleted": "2022.0",
            "dateMissing": [],
            "observation": "",
            "regle_gestion": "",
            "type_oracle": "string"
        },
        {
            "name": "VALID_FAC_AMO_CTL",
            "description": "Code retour contr\u00f4le \" Statut FT AMO \"",
            "type": "string",
            "length": "1",
            "format": "default",
            "nomenclature": "-",
            "dateCreated": "2018",
            "dateDeleted": "2022.0",
            "dateMissing": [],
            "observation": "",
            "regle_gestion": "",
            "type_oracle": "string"
        },
        {
            "name": "VALID_FAC_AMC_CTL",
            "description": "Code retour contr\u00f4le \" Statut FT AMC \"",
            "type": "string",
            "length": "1",
            "format": "default",
            "nomenclature": "-",
            "dateCreated": "2018",
            "dateDeleted": "2022.0",
            "dateMissing": [],
            "observation": "",
            "regle_gestion": "",
            "type_oracle": "string"
        },
        {
            "name": "VALID_FAC_RAC_CTL",
            "description": "Code retour contr\u00f4le \" Statut FT patient \"",
            "type": "string",
            "length": "1",
            "format": "default",
            "nomenclature": "-",
            "dateCreated": "2018",
            "dateDeleted": "2022.0",
            "dateMissing": [],
            "observation": "",
            "regle_gestion": "",
            "type_oracle": "string"
        }
    ],
    "title": "Prise en charge patient pour etb DG",
    "produit": "PMSI RIP",
    "history": {
        "dateCreated": "2011",
        "dateDeleted": "",
        "dateMissing": []
    },
    "champ": "Public",
    "observation": "",
    "foreignKeys": [
        {
            "fields": [
                "ETA_NUM_EPMSI",
                "RIP_NUM"
            ],
            "reference": {
                "resource": "T_RIPaaFB",
                "fields": [
                    "ETA_NUM_EPMSI",
                    "RIP_NUM"
                ]
            }
        }
    ]
}