{
    "name": "KI_ECD_R",
    "fields": [
        {
            "name": "BEN_DCD_AME",
            "description": "Ann\u00e9e et mois du d\u00e9c\u00e8s",
            "type": "string",
            "length": "6",
            "format": "default",
            "nomenclature": "-",
            "dateCreated": "2006",
            "dateDeleted": "",
            "dateMissing": [],
            "observation": "",
            "regle_gestion": "",
            "type_oracle": "string"
        },
        {
            "name": "BEN_DCD_DTE",
            "description": "Date du d\u00e9c\u00e8s",
            "type": "date",
            "length": "20",
            "format": "default",
            "nomenclature": "-",
            "dateCreated": "2006",
            "dateDeleted": "",
            "dateMissing": [],
            "observation": "",
            "regle_gestion": "",
            "type_oracle": "date"
        },
        {
            "name": "BEN_IDT_ANO",
            "description": "Identifiant synth\u00e9tique SNDS",
            "type": "string",
            "length": "18",
            "format": "default",
            "nomenclature": "-",
            "dateCreated": "2006",
            "dateDeleted": "",
            "dateMissing": [],
            "observation": "",
            "regle_gestion": "",
            "type_oracle": "string"
        },
        {
            "name": "BEN_IDT_TOP",
            "description": "Top identifiant synth\u00e9tique SNDS",
            "type": "integer",
            "length": "2",
            "format": "default",
            "nomenclature": "-",
            "dateCreated": "2006",
            "dateDeleted": "",
            "dateMissing": [],
            "observation": "",
            "regle_gestion": "",
            "type_oracle": "number"
        },
        {
            "name": "BEN_NIR_ANO",
            "description": "NIR pseudonymis\u00e9 du b\u00e9n\u00e9ficiaire",
            "type": "string",
            "length": "17",
            "format": "default",
            "nomenclature": "-",
            "dateCreated": "2006",
            "dateDeleted": "",
            "dateMissing": [],
            "observation": "",
            "regle_gestion": "",
            "type_oracle": "string"
        },
        {
            "name": "CER_LIG_NUM",
            "description": "Num\u00e9ro de ligne du certificat de d\u00e9c\u00e8s",
            "type": "integer",
            "length": "2",
            "format": "default",
            "nomenclature": "-",
            "dateCreated": "2006",
            "dateDeleted": "",
            "dateMissing": [],
            "observation": "",
            "regle_gestion": "",
            "type_oracle": "number"
        },
        {
            "name": "DCD_IDT_ENC",
            "description": "Identifiant d\u00e9c\u00e8s encod\u00e9",
            "type": "string",
            "length": "64",
            "format": "default",
            "nomenclature": "-",
            "dateCreated": "2006",
            "dateDeleted": "",
            "dateMissing": [],
            "observation": "",
            "regle_gestion": "",
            "type_oracle": "string"
        },
        {
            "name": "DCD_IDT_TOP",
            "description": "Top appari\u00e9 avec IR_BEN_R",
            "type": "integer",
            "length": "2",
            "format": "default",
            "nomenclature": "-",
            "dateCreated": "2006",
            "dateDeleted": "",
            "dateMissing": [],
            "observation": "",
            "regle_gestion": "",
            "type_oracle": "number"
        },
        {
            "name": "ECD_CAU_LIB",
            "description": "Libell\u00e9 de la cause",
            "type": "string",
            "length": "100",
            "format": "default",
            "nomenclature": "-",
            "dateCreated": "2006",
            "dateDeleted": "",
            "dateMissing": [],
            "observation": "",
            "regle_gestion": "",
            "type_oracle": "string"
        },
        {
            "name": "ECD_CAU_RNG",
            "description": "Rang de la cause",
            "type": "integer",
            "length": "4",
            "format": "default",
            "nomenclature": "-",
            "dateCreated": "2006",
            "dateDeleted": "",
            "dateMissing": [],
            "observation": "",
            "regle_gestion": "",
            "type_oracle": "number"
        },
        {
            "name": "ECD_CIM_COD",
            "description": "Code de la cause",
            "type": "string",
            "length": "4",
            "format": "default",
            "nomenclature": "-",
            "dateCreated": "2006",
            "dateDeleted": "",
            "dateMissing": [],
            "observation": "",
            "regle_gestion": "",
            "type_oracle": "string"
        },
        {
            "name": "FLX_PER_ANN",
            "description": "Ann\u00e9e du d\u00e9c\u00e8s",
            "type": "string",
            "length": "4",
            "format": "default",
            "nomenclature": "-",
            "dateCreated": "2006",
            "dateDeleted": "",
            "dateMissing": [],
            "observation": "",
            "regle_gestion": "",
            "type_oracle": "string"
        }
    ],
    "title": "Table de l\u2019ensemble des causes de d\u00e9c\u00e8s",
    "produit": "Causes de d\u00e9c\u00e8s",
    "history": {
        "dateCreated": "2006",
        "dateDeleted": "",
        "dateMissing": []
    },
    "champ": "",
    "observation": "",
    "foreignKeys": [
        {
            "fields": [
                "BEN_IDT_ANO"
            ],
            "reference": {
                "resource": "IR_BEN_R",
                "fields": [
                    "BEN_IDT_ANO"
                ]
            }
        }
    ]
}