{
    "name": "T_HADaaFL",
    "fields": [
        {
            "name": "ACT_NBR",
            "description": "Quantit\u00e9 acte",
            "type": "integer",
            "length": "nan",
            "format": "default",
            "nomenclature": "-",
            "dateCreated": "2012",
            "dateDeleted": "",
            "dateMissing": [],
            "observation": "",
            "regle_gestion": "",
            "type_oracle": "number"
        },
        {
            "name": "ANN_MOI",
            "description": "Mois et ann\u00e9e de l'acte",
            "type": "date",
            "length": "6.0",
            "format": "default",
            "nomenclature": "-",
            "dateCreated": "2012",
            "dateDeleted": "",
            "dateMissing": [],
            "observation": "",
            "regle_gestion": "",
            "type_oracle": "string"
        },
        {
            "name": "DEL_DAT_ENT",
            "description": "Delai par rapport \u00e0 la date d'entr\u00e9e rsfa",
            "type": "integer",
            "length": "nan",
            "format": "default",
            "nomenclature": "-",
            "dateCreated": "2012",
            "dateDeleted": "",
            "dateMissing": [],
            "observation": "",
            "regle_gestion": "",
            "type_oracle": "number"
        },
        {
            "name": "ETA_NUM_EPMSI",
            "description": "N\u00b0 FINESS e-PMSI",
            "type": "string",
            "length": "9.0",
            "format": "default",
            "nomenclature": "-",
            "dateCreated": "2012",
            "dateDeleted": "",
            "dateMissing": [],
            "observation": "",
            "regle_gestion": "",
            "type_oracle": "string"
        },
        {
            "name": "ETA_NUM_GEO",
            "description": "Num\u00e9ro FINESS  g\u00e9ographique",
            "type": "string",
            "length": "9.0",
            "format": "default",
            "nomenclature": "-",
            "dateCreated": "2017",
            "dateDeleted": "",
            "dateMissing": [],
            "observation": "remplace la variable ETA_NUM_TWO",
            "regle_gestion": "",
            "type_oracle": "string"
        },
        {
            "name": "EXE_SOI_DTD",
            "description": "Date de l'acte 1 \u00e0 5",
            "type": "date",
            "length": "6.0",
            "format": "default",
            "nomenclature": "-",
            "dateCreated": "2020",
            "dateDeleted": "",
            "dateMissing": [],
            "observation": "",
            "regle_gestion": "",
            "type_oracle": "date"
        },
        {
            "name": "FAC_NUM",
            "description": "N\u00b0 Facture s\u00e9quentiel",
            "type": "string",
            "length": "5.0",
            "format": "default",
            "nomenclature": "-",
            "dateCreated": "2012",
            "dateDeleted": "",
            "dateMissing": [],
            "observation": "",
            "regle_gestion": "",
            "type_oracle": "string"
        },
        {
            "name": "NABM_COD",
            "description": "Code acte NABM",
            "type": "string",
            "length": "8.0",
            "format": "default",
            "nomenclature": "IR_BIO_R",
            "dateCreated": "2012",
            "dateDeleted": "",
            "dateMissing": [],
            "observation": "",
            "regle_gestion": "",
            "type_oracle": "string"
        },
        {
            "name": "PSH_DMT",
            "description": "Discipline de prestation (ex DMT)",
            "type": "string",
            "length": "3.0",
            "format": "default",
            "nomenclature": "-",
            "dateCreated": "2012",
            "dateDeleted": "",
            "dateMissing": [],
            "observation": "",
            "regle_gestion": "",
            "type_oracle": "string"
        },
        {
            "name": "PSH_MDT",
            "description": "Mode de traitement",
            "type": "string",
            "length": "2.0",
            "format": "default",
            "nomenclature": "-",
            "dateCreated": "2012",
            "dateDeleted": "",
            "dateMissing": [],
            "observation": "",
            "regle_gestion": "",
            "type_oracle": "string"
        },
        {
            "name": "RHAD_NUM",
            "description": "N\u00b0 s\u00e9quentiel",
            "type": "string",
            "length": "5.0",
            "format": "default",
            "nomenclature": "-",
            "dateCreated": "2012",
            "dateDeleted": "",
            "dateMissing": [],
            "observation": "",
            "regle_gestion": "",
            "type_oracle": "string"
        },
        {
            "name": "TYP_ART",
            "description": "Type d'enregistrement",
            "type": "string",
            "length": "1.0",
            "format": "default",
            "nomenclature": "MS_ENR_V",
            "dateCreated": "2012",
            "dateDeleted": "",
            "dateMissing": [],
            "observation": "",
            "regle_gestion": "",
            "type_oracle": "string"
        },
        {
            "name": "EXE_SOI_AMD",
            "description": "Date de l'acte",
            "type": "string",
            "length": "6.0",
            "format": "default",
            "nomenclature": "-",
            "dateCreated": "2020",
            "dateDeleted": "",
            "dateMissing": [],
            "observation": "G\u00e9n\u00e9r\u00e9e par ADGP",
            "regle_gestion": "",
            "type_oracle": "string"
        },
        {
            "name": "ETA_NUM_TWO",
            "description": "Num\u00e9ro FINESS de l\u2019\u00e9tablissement (site g\u00e9ographique)",
            "type": "string",
            "length": "9.0",
            "format": "default",
            "nomenclature": "-",
            "dateCreated": "2012",
            "dateDeleted": "",
            "dateMissing": [],
            "observation": "",
            "regle_gestion": "",
            "type_oracle": "string"
        },
        {
            "name": "ANN_MOI",
            "description": "Mois et ann\u00e9e de l'acte",
            "type": "date",
            "length": "6.0",
            "format": "default",
            "nomenclature": "-",
            "dateCreated": "2012",
            "dateDeleted": "",
            "dateMissing": [],
            "observation": "",
            "regle_gestion": "",
            "type_oracle": "string"
        }
    ],
    "title": "Table FL : Table des actes de biologie (issus de la NABM) des \u00e9tablissements ex-OQN",
    "produit": "PMSI HAD",
    "history": {
        "dateCreated": "2012",
        "dateDeleted": "",
        "dateMissing": []
    },
    "champ": "Priv\u00e9",
    "observation": "",
    "foreignKeys": [
        {
            "fields": [
                "ETA_NUM_EPMSI",
                "RHAD_NUM"
            ],
            "reference": {
                "resource": "T_HADaaB",
                "fields": [
                    "ETA_NUM_EPMSI",
                    "RHAD_NUM"
                ]
            }
        }
    ]
}