{
    "name": "T_HADaaMEDAPAC",
    "fields": [
        {
            "name": "ACH_PRI_ADM",
            "description": "Prix d'achat multipli\u00e9 par le nombre administr\u00e9",
            "type": "integer",
            "length": "nan",
            "format": "default",
            "nomenclature": "-",
            "dateCreated": "2012",
            "dateDeleted": "",
            "dateMissing": [],
            "observation": "",
            "regle_gestion": "",
            "type_oracle": "number"
        },
        {
            "name": "ADM_ANN",
            "description": "Ann\u00e9e de la date d'administration",
            "type": "string",
            "length": "4.0",
            "format": "default",
            "nomenclature": "-",
            "dateCreated": "2012",
            "dateDeleted": "",
            "dateMissing": [],
            "observation": "",
            "regle_gestion": "",
            "type_oracle": "string"
        },
        {
            "name": "ADM_MOIS",
            "description": "Mois de la date d'administration",
            "type": "date",
            "length": "2.0",
            "format": "default",
            "nomenclature": "-",
            "dateCreated": "2012",
            "dateDeleted": "",
            "dateMissing": [],
            "observation": "",
            "regle_gestion": "",
            "type_oracle": "string"
        },
        {
            "name": "ADM_NBR",
            "description": "Nombre administr\u00e9 \u00e9ventuellement fractionnaire",
            "type": "integer",
            "length": "nan",
            "format": "default",
            "nomenclature": "-",
            "dateCreated": "2012",
            "dateDeleted": "",
            "dateMissing": [],
            "observation": "",
            "regle_gestion": "",
            "type_oracle": "number"
        },
        {
            "name": "ANN",
            "description": "Ann\u00e9e p\u00e9riode",
            "type": "string",
            "length": "4.0",
            "format": "default",
            "nomenclature": "-",
            "dateCreated": "2012",
            "dateDeleted": "",
            "dateMissing": [],
            "observation": "",
            "regle_gestion": "",
            "type_oracle": "string"
        },
        {
            "name": "DAT_DELAI",
            "description": "D\u00e9lai entre la date d\u2019entr\u00e9e du s\u00e9jour et la date de dispensation",
            "type": "integer",
            "length": "nan",
            "format": "default",
            "nomenclature": "-",
            "dateCreated": "2012",
            "dateDeleted": "",
            "dateMissing": [],
            "observation": "",
            "regle_gestion": "",
            "type_oracle": "number"
        },
        {
            "name": "ETA_NUM_EPMSI",
            "description": "N\u00b0 FINESS e-PMSI",
            "type": "string",
            "length": "9.0",
            "format": "default",
            "nomenclature": "-",
            "dateCreated": "2012",
            "dateDeleted": "",
            "dateMissing": [],
            "observation": "",
            "regle_gestion": "",
            "type_oracle": "string"
        },
        {
            "name": "FAC_NUM",
            "description": "N\u00b0 s\u00e9quentiel de facture",
            "type": "string",
            "length": "5.0",
            "format": "default",
            "nomenclature": "-",
            "dateCreated": "2014",
            "dateDeleted": "",
            "dateMissing": [],
            "observation": "",
            "regle_gestion": "",
            "type_oracle": "string"
        },
        {
            "name": "INI_VAL_PRS",
            "description": "Validation initiale de la prescription par un centre de r\u00e9f\u00e9rence ou de comp\u00e9tence",
            "type": "string",
            "length": "1.0",
            "format": "default",
            "nomenclature": "-",
            "dateCreated": "2012",
            "dateDeleted": "",
            "dateMissing": [],
            "observation": "",
            "regle_gestion": "",
            "type_oracle": "string"
        },
        {
            "name": "MOIS",
            "description": "N\u00b0 p\u00e9riode (mois)",
            "type": "date",
            "length": "2.0",
            "format": "default",
            "nomenclature": "-",
            "dateCreated": "2012",
            "dateDeleted": "",
            "dateMissing": [],
            "observation": "",
            "regle_gestion": "",
            "type_oracle": "string"
        },
        {
            "name": "PRS_TYP",
            "description": "Type de prestation",
            "type": "string",
            "length": "2.0",
            "format": "default",
            "nomenclature": "-",
            "dateCreated": "2012",
            "dateDeleted": "",
            "dateMissing": [],
            "observation": "",
            "regle_gestion": "",
            "type_oracle": "string"
        },
        {
            "name": "RHAD_NUM",
            "description": "N\u00b0 s\u00e9quentiel de s\u00e9jour d'HAD",
            "type": "string",
            "length": "5.0",
            "format": "default",
            "nomenclature": "-",
            "dateCreated": "2012",
            "dateDeleted": "",
            "dateMissing": [],
            "observation": "",
            "regle_gestion": "",
            "type_oracle": "string"
        },
        {
            "name": "SEJ_NBR",
            "description": "Nombre de s\u00e9jours impliqu\u00e9s",
            "type": "integer",
            "length": "nan",
            "format": "default",
            "nomenclature": "-",
            "dateCreated": "2012",
            "dateDeleted": "",
            "dateMissing": [],
            "observation": "",
            "regle_gestion": "",
            "type_oracle": "number"
        },
        {
            "name": "SEQ_SEJ",
            "description": "Num\u00e9ro de la s\u00e9quence dans le s\u00e9jour",
            "type": "string",
            "length": "4.0",
            "format": "default",
            "nomenclature": "-",
            "dateCreated": "2012",
            "dateDeleted": "",
            "dateMissing": [],
            "observation": "",
            "regle_gestion": "",
            "type_oracle": "string"
        },
        {
            "name": "SSEQ_NUM",
            "description": "Num\u00e9ro de sous-s\u00e9quence",
            "type": "string",
            "length": "4.0",
            "format": "default",
            "nomenclature": "-",
            "dateCreated": "2012",
            "dateDeleted": "",
            "dateMissing": [],
            "observation": "",
            "regle_gestion": "",
            "type_oracle": "string"
        },
        {
            "name": "TOP_UCD_AUTO",
            "description": "Top transcodage UCD13 auto",
            "type": "string",
            "length": "1.0",
            "format": "default",
            "nomenclature": "-",
            "dateCreated": "2015",
            "dateDeleted": "",
            "dateMissing": [],
            "observation": "",
            "regle_gestion": "",
            "type_oracle": "string"
        },
        {
            "name": "UCD_UCD_COD",
            "description": "Code UCD",
            "type": "string",
            "length": "13.0",
            "format": "default",
            "nomenclature": "-",
            "dateCreated": "2012",
            "dateDeleted": "",
            "dateMissing": [],
            "observation": "Transmise par ATIH sur 13 caract\u00e8res \u00e0 partir de 2015 (cr\u00e9\u00e9e par CNAM avt)",
            "regle_gestion": "",
            "type_oracle": "string"
        },
        {
            "name": "COD_LES",
            "description": "Code indication des sp\u00e9cialit\u00e9s pharmaceutiques inscrites sur la liste en sus",
            "type": "string",
            "length": "7.0",
            "format": "default",
            "nomenclature": "-",
            "dateCreated": "2019",
            "dateDeleted": "",
            "dateMissing": [],
            "observation": "",
            "regle_gestion": "",
            "type_oracle": "string"
        }
    ],
    "title": "M\u00e9dicaments sous AAP/AAC",
    "produit": "PMSI HAD",
    "history": {
        "dateCreated": "2022",
        "dateDeleted": "",
        "dateMissing": []
    },
    "champ": "Public et Priv\u00e9",
    "observation": "",
    "foreignKeys": [
        {
            "fields": [
                "ETA_NUM_EPMSI",
                "RHAD_NUM"
            ],
            "reference": {
                "resource": "T_HADaaB",
                "fields": [
                    "ETA_NUM_EPMSI",
                    "RHAD_NUM"
                ]
            }
        }
    ]
}