{
    "name": "T_HADaaGRP",
    "fields": [
        {
            "name": "ETA_NUM_EPMSI",
            "description": "N\u00b0 FINESS e-PMSI",
            "type": "string",
            "length": "9.0",
            "format": "default",
            "nomenclature": "-",
            "dateCreated": "2007",
            "dateDeleted": "",
            "dateMissing": [],
            "observation": "",
            "regle_gestion": "",
            "type_oracle": "string"
        },
        {
            "name": "ETA_NUM_GEO",
            "description": "Num\u00e9ro FINESS de l\u2019\u00e9tablissement (code g\u00e9ographique)",
            "type": "string",
            "length": "9.0",
            "format": "default",
            "nomenclature": "-",
            "dateCreated": "2017",
            "dateDeleted": "",
            "dateMissing": [],
            "observation": "remplace la variable ETA_NUM_TWO",
            "regle_gestion": "",
            "type_oracle": "string"
        },
        {
            "name": "ETE_GHS_NUM",
            "description": "GHT_NUM en num\u00e9rique",
            "type": "integer",
            "length": "nan",
            "format": "default",
            "nomenclature": "-",
            "dateCreated": "2005",
            "dateDeleted": "",
            "dateMissing": [],
            "observation": "Variable cr\u00e9\u00e9e par CNAMTS",
            "regle_gestion": "",
            "type_oracle": "number"
        },
        {
            "name": "GHT_NBJ",
            "description": "Groupage\u00a0PAPRICA : nombre de jours",
            "type": "integer",
            "length": "nan",
            "format": "default",
            "nomenclature": "-",
            "dateCreated": "2005",
            "dateDeleted": "",
            "dateMissing": [],
            "observation": "",
            "regle_gestion": "",
            "type_oracle": "number"
        },
        {
            "name": "GHT_NUM",
            "description": "Groupage\u00a0PAPRICA : n\u00b0 du GHT",
            "type": "string",
            "length": "2.0",
            "format": "default",
            "nomenclature": "-",
            "dateCreated": "2005",
            "dateDeleted": "",
            "dateMissing": [],
            "observation": "",
            "regle_gestion": "",
            "type_oracle": "string"
        },
        {
            "name": "PAP_GRP_GHPC",
            "description": "Groupage\u00a0PAPRICA : n\u00b0 du GHPC",
            "type": "string",
            "length": "4.0",
            "format": "default",
            "nomenclature": "-",
            "dateCreated": "2005",
            "dateDeleted": "",
            "dateMissing": [],
            "observation": "",
            "regle_gestion": "",
            "type_oracle": "string"
        },
        {
            "name": "PAP_GRP_RET",
            "description": "Groupage\u00a0PAPRICA : code retour",
            "type": "string",
            "length": "3.0",
            "format": "default",
            "nomenclature": "-",
            "dateCreated": "2005",
            "dateDeleted": "",
            "dateMissing": [],
            "observation": "",
            "regle_gestion": "",
            "type_oracle": "string"
        },
        {
            "name": "PAP_GRP_VER",
            "description": "Groupage\u00a0\u00e9tablissement : version de la classification",
            "type": "string",
            "length": "2.0",
            "format": "default",
            "nomenclature": "-",
            "dateCreated": "2005",
            "dateDeleted": "",
            "dateMissing": [],
            "observation": "",
            "regle_gestion": "",
            "type_oracle": "string"
        },
        {
            "name": "RHAD_NUM",
            "description": "N\u00b0 s\u00e9quentiel de s\u00e9jour d'HAD",
            "type": "string",
            "length": "5.0",
            "format": "default",
            "nomenclature": "-",
            "dateCreated": "2005",
            "dateDeleted": "",
            "dateMissing": [],
            "observation": "",
            "regle_gestion": "",
            "type_oracle": "string"
        },
        {
            "name": "SEQ_NUM",
            "description": "N\u00b0 de la s\u00e9quence dans le s\u00e9jour",
            "type": "string",
            "length": "4.0",
            "format": "default",
            "nomenclature": "-",
            "dateCreated": "2010",
            "dateDeleted": "",
            "dateMissing": [],
            "observation": "",
            "regle_gestion": "",
            "type_oracle": "string"
        },
        {
            "name": "SSEQ_NUM",
            "description": "N\u00b0 de la sous-s\u00e9quence",
            "type": "string",
            "length": "4.0",
            "format": "default",
            "nomenclature": "-",
            "dateCreated": "2005",
            "dateDeleted": "",
            "dateMissing": [],
            "observation": "",
            "regle_gestion": "",
            "type_oracle": "string"
        },
        {
            "name": "FAC_NUM",
            "description": "Num\u00e9ro de facture",
            "type": "string",
            "length": "5.0",
            "format": "default",
            "nomenclature": "-",
            "dateCreated": "2020",
            "dateDeleted": "",
            "dateMissing": [],
            "observation": "",
            "regle_gestion": "",
            "type_oracle": "string"
        },
        {
            "name": "ETA_NUM_GEO",
            "description": "N\u00b0 FINESS de l\u2019entit\u00e9 juridique",
            "type": "string",
            "length": "nan",
            "format": "default",
            "nomenclature": "-",
            "dateCreated": "2005",
            "dateDeleted": "",
            "dateMissing": [],
            "observation": "",
            "regle_gestion": "",
            "type_oracle": "string"
        },
        {
            "name": "ETA_NUM_JUR",
            "description": "N\u00b0 FINESS de l\u2019\u00e9tablissement (code g\u00e9ographique)",
            "type": "string",
            "length": "nan",
            "format": "default",
            "nomenclature": "-",
            "dateCreated": "2005",
            "dateDeleted": "",
            "dateMissing": [],
            "observation": "",
            "regle_gestion": "",
            "type_oracle": "string"
        },
        {
            "name": "SEQ_SEJ",
            "description": "Num\u00e9ro de la s\u00e9quence dans le s\u00e9jour",
            "type": "string",
            "length": "nan",
            "format": "default",
            "nomenclature": "-",
            "dateCreated": "2005",
            "dateDeleted": "",
            "dateMissing": [],
            "observation": "",
            "regle_gestion": "",
            "type_oracle": "string"
        },
        {
            "name": "ETA_NUM_TWO",
            "description": "Num\u00e9ro FINESS de l\u2019\u00e9tablissement (code g\u00e9ographique)",
            "type": "string",
            "length": "9.0",
            "format": "default",
            "nomenclature": "-",
            "dateCreated": "2007",
            "dateDeleted": "",
            "dateMissing": [],
            "observation": "",
            "regle_gestion": "",
            "type_oracle": "string"
        }
    ],
    "title": "Table des GHT et des GHPC (groupage paprica)",
    "produit": "PMSI HAD",
    "history": {
        "dateCreated": "2005",
        "dateDeleted": "",
        "dateMissing": []
    },
    "champ": "Public et Priv\u00e9",
    "observation": "",
    "foreignKeys": [
        {
            "fields": [
                "ETA_NUM_EPMSI",
                "RHAD_NUM"
            ],
            "reference": {
                "resource": "T_HADaaB",
                "fields": [
                    "ETA_NUM_EPMSI",
                    "RHAD_NUM"
                ]
            }
        }
    ]
}