{
    "name": "T_HADaaFB",
    "fields": [
        {
            "name": "ACT_COD",
            "description": "Code acte",
            "type": "string",
            "length": "5.0",
            "format": "default",
            "nomenclature": "IR_ACT_COD",
            "dateCreated": "2010",
            "dateDeleted": "",
            "dateMissing": [],
            "observation": "",
            "regle_gestion": "",
            "type_oracle": "string"
        },
        {
            "name": "ACT_COE",
            "description": "C\u0153fficient",
            "type": "integer",
            "length": "nan",
            "format": "default",
            "nomenclature": "-",
            "dateCreated": "2010",
            "dateDeleted": "",
            "dateMissing": [],
            "observation": "",
            "regle_gestion": "",
            "type_oracle": "number"
        },
        {
            "name": "ACT_NBR",
            "description": "Quantit\u00e9",
            "type": "integer",
            "length": "nan",
            "format": "default",
            "nomenclature": "-",
            "dateCreated": "2010",
            "dateDeleted": "",
            "dateMissing": [],
            "observation": "",
            "regle_gestion": "",
            "type_oracle": "number"
        },
        {
            "name": "AMC_MNR",
            "description": "Montant remboursable par l'organisme compl\u00e9mentaire (AMC)",
            "type": "integer",
            "length": "nan",
            "format": "default",
            "nomenclature": "-",
            "dateCreated": "2010",
            "dateDeleted": "",
            "dateMissing": [],
            "observation": "Attention les montants sont des montants rembours\u00e9s",
            "regle_gestion": "",
            "type_oracle": "number"
        },
        {
            "name": "AMO_MNR",
            "description": "Montant Remboursable par la caisse (AMO)",
            "type": "integer",
            "length": "nan",
            "format": "default",
            "nomenclature": "-",
            "dateCreated": "2010",
            "dateDeleted": "",
            "dateMissing": [],
            "observation": "Attention les montants sont des montants rembours\u00e9s",
            "regle_gestion": "",
            "type_oracle": "number"
        },
        {
            "name": "DEL_DAT_ENT",
            "description": "delai par rapport \u00e0 la date d'entr\u00e9e",
            "type": "integer",
            "length": "nan",
            "format": "default",
            "nomenclature": "-",
            "dateCreated": "2013",
            "dateDeleted": "",
            "dateMissing": [],
            "observation": "",
            "regle_gestion": "",
            "type_oracle": "number"
        },
        {
            "name": "ETA_NUM_EPMSI",
            "description": "N\u00b0 FINESS e-PMSI",
            "type": "string",
            "length": "9.0",
            "format": "default",
            "nomenclature": "-",
            "dateCreated": "2010",
            "dateDeleted": "",
            "dateMissing": [],
            "observation": "",
            "regle_gestion": "",
            "type_oracle": "string"
        },
        {
            "name": "ETA_NUM_GEO",
            "description": "Num\u00e9ro FINESS  g\u00e9ographique",
            "type": "string",
            "length": "9.0",
            "format": "default",
            "nomenclature": "-",
            "dateCreated": "2017",
            "dateDeleted": "",
            "dateMissing": [],
            "observation": "remplace la variable ETA_NUM_TWO",
            "regle_gestion": "",
            "type_oracle": "string"
        },
        {
            "name": "ETE_GHS_NUM",
            "description": "N\u00b0 GHS",
            "type": "integer",
            "length": "nan",
            "format": "default",
            "nomenclature": "-",
            "dateCreated": "2010",
            "dateDeleted": "",
            "dateMissing": [],
            "observation": "Variable cr\u00e9\u00e9e par CNAMTS",
            "regle_gestion": "",
            "type_oracle": "number"
        },
        {
            "name": "EXO_TM",
            "description": "Justification exon\u00e9ration TM",
            "type": "string",
            "length": "1.0",
            "format": "default",
            "nomenclature": "-",
            "dateCreated": "2010",
            "dateDeleted": "",
            "dateMissing": [],
            "observation": "",
            "regle_gestion": "",
            "type_oracle": "string"
        },
        {
            "name": "FAC_MNT",
            "description": "Montant total de la d\u00e9pense",
            "type": "integer",
            "length": "nan",
            "format": "default",
            "nomenclature": "-",
            "dateCreated": "2010",
            "dateDeleted": "",
            "dateMissing": [],
            "observation": "",
            "regle_gestion": "",
            "type_oracle": "number"
        },
        {
            "name": "FAC_NUM",
            "description": "N\u00b0 s\u00e9quentiel de facture (idem RAPSS)",
            "type": "string",
            "length": "5.0",
            "format": "default",
            "nomenclature": "-",
            "dateCreated": "2010",
            "dateDeleted": "",
            "dateMissing": [],
            "observation": "",
            "regle_gestion": "",
            "type_oracle": "string"
        },
        {
            "name": "FJ_COD_PEC",
            "description": "Code prise en charge FJ",
            "type": "string",
            "length": "1.0",
            "format": "default",
            "nomenclature": "-",
            "dateCreated": "2010",
            "dateDeleted": "",
            "dateMissing": [],
            "observation": "",
            "regle_gestion": "",
            "type_oracle": "string"
        },
        {
            "name": "GHT_NUM",
            "description": "N\u00b0 de GHT",
            "type": "string",
            "length": "4.0",
            "format": "default",
            "nomenclature": "-",
            "dateCreated": "2010",
            "dateDeleted": "",
            "dateMissing": [],
            "observation": "",
            "regle_gestion": "",
            "type_oracle": "string"
        },
        {
            "name": "HAD_COE",
            "description": "C\u0153fficient HAD",
            "type": "integer",
            "length": "nan",
            "format": "default",
            "nomenclature": "-",
            "dateCreated": "2010",
            "dateDeleted": "",
            "dateMissing": [],
            "observation": "",
            "regle_gestion": "",
            "type_oracle": "number"
        },
        {
            "name": "NOE_MNR",
            "description": "Montant rembours\u00e9 NOEMIE Retour",
            "type": "integer",
            "length": "nan",
            "format": "default",
            "nomenclature": "-",
            "dateCreated": "2010",
            "dateDeleted": "",
            "dateMissing": [],
            "observation": "",
            "regle_gestion": "",
            "type_oracle": "number"
        },
        {
            "name": "NOE_OPE",
            "description": "Nature op\u00e9ration r\u00e9cup\u00e9ration NOEMIE Retour",
            "type": "string",
            "length": "3.0",
            "format": "default",
            "nomenclature": "-",
            "dateCreated": "2010",
            "dateDeleted": "",
            "dateMissing": [],
            "observation": "",
            "regle_gestion": "",
            "type_oracle": "string"
        },
        {
            "name": "PRI_UNI",
            "description": "Prix Unitaire",
            "type": "integer",
            "length": "nan",
            "format": "default",
            "nomenclature": "-",
            "dateCreated": "2010",
            "dateDeleted": "",
            "dateMissing": [],
            "observation": "",
            "regle_gestion": "",
            "type_oracle": "number"
        },
        {
            "name": "PSH_DMT",
            "description": "Discipline de prestation (ex DMT)",
            "type": "string",
            "length": "3.0",
            "format": "default",
            "nomenclature": "-",
            "dateCreated": "2010",
            "dateDeleted": "",
            "dateMissing": [],
            "observation": "",
            "regle_gestion": "",
            "type_oracle": "string"
        },
        {
            "name": "PSH_MDT",
            "description": "Mode de traitement",
            "type": "string",
            "length": "2.0",
            "format": "default",
            "nomenclature": "-",
            "dateCreated": "2010",
            "dateDeleted": "",
            "dateMissing": [],
            "observation": "",
            "regle_gestion": "",
            "type_oracle": "string"
        },
        {
            "name": "REM_BAS",
            "description": "Montant Base remboursement",
            "type": "integer",
            "length": "nan",
            "format": "default",
            "nomenclature": "-",
            "dateCreated": "2010",
            "dateDeleted": "",
            "dateMissing": [],
            "observation": "",
            "regle_gestion": "",
            "type_oracle": "number"
        },
        {
            "name": "REM_TAU",
            "description": "Taux applicable \u00e0 la prestation",
            "type": "integer",
            "length": "nan",
            "format": "default",
            "nomenclature": "-",
            "dateCreated": "2010",
            "dateDeleted": "",
            "dateMissing": [],
            "observation": "",
            "regle_gestion": "",
            "type_oracle": "number"
        },
        {
            "name": "EXE_SOI_DTD",
            "description": "Date d'entr\u00e9e du s\u00e9jour",
            "type": "date",
            "length": "6.0",
            "format": "default",
            "nomenclature": "-",
            "dateCreated": "2020",
            "dateDeleted": "",
            "dateMissing": [],
            "observation": "",
            "regle_gestion": "",
            "type_oracle": "date"
        },
        {
            "name": "EXE_SOI_DTF",
            "description": "Date de sortie du s\u00e9jour",
            "type": "date",
            "length": "6.0",
            "format": "default",
            "nomenclature": "-",
            "dateCreated": "2020",
            "dateDeleted": "",
            "dateMissing": [],
            "observation": "",
            "regle_gestion": "",
            "type_oracle": "date"
        },
        {
            "name": "RHAD_NUM",
            "description": "Num\u00e9ro s\u00e9quentiel d'entr\u00e9e (idem RAPSS)",
            "type": "string",
            "length": "5.0",
            "format": "default",
            "nomenclature": "-",
            "dateCreated": "2010",
            "dateDeleted": "",
            "dateMissing": [],
            "observation": "",
            "regle_gestion": "",
            "type_oracle": "string"
        },
        {
            "name": "TYP_ART",
            "description": "Type d'enregistrement",
            "type": "string",
            "length": "1.0",
            "format": "default",
            "nomenclature": "MS_ENR_V",
            "dateCreated": "2010",
            "dateDeleted": "",
            "dateMissing": [],
            "observation": "",
            "regle_gestion": "",
            "type_oracle": "string"
        },
        {
            "name": "EXE_SOI_AMD",
            "description": "Date d'entr\u00e9e du s\u00e9jour",
            "type": "string",
            "length": "6.0",
            "format": "default",
            "nomenclature": "-",
            "dateCreated": "2020",
            "dateDeleted": "",
            "dateMissing": [],
            "observation": "G\u00e9n\u00e9r\u00e9e par ADGP",
            "regle_gestion": "",
            "type_oracle": "string"
        },
        {
            "name": "EXE_SOI_AMF",
            "description": "Date de sortie du s\u00e9jour",
            "type": "string",
            "length": "6.0",
            "format": "default",
            "nomenclature": "-",
            "dateCreated": "2020",
            "dateDeleted": "",
            "dateMissing": [],
            "observation": "G\u00e9n\u00e9r\u00e9e par ADGP",
            "regle_gestion": "",
            "type_oracle": "string"
        },
        {
            "name": "ETA_NUM_TWO",
            "description": "Num\u00e9ro FINESS de l\u2019\u00e9tablissement (site g\u00e9ographique)",
            "type": "string",
            "length": "9.0",
            "format": "default",
            "nomenclature": "-",
            "dateCreated": "2010",
            "dateDeleted": "",
            "dateMissing": [],
            "observation": "",
            "regle_gestion": "",
            "type_oracle": "string"
        },
        {
            "name": "SOR_ANN",
            "description": "Ann\u00e9e de la date de fin de s\u00e9jour",
            "type": "string",
            "length": "4.0",
            "format": "default",
            "nomenclature": "-",
            "dateCreated": "2010",
            "dateDeleted": "",
            "dateMissing": [],
            "observation": "",
            "regle_gestion": "",
            "type_oracle": "string"
        },
        {
            "name": "SOR_MOI",
            "description": "Mois de la date de fin de s\u00e9jour",
            "type": "date",
            "length": "2.0",
            "format": "default",
            "nomenclature": "-",
            "dateCreated": "2010",
            "dateDeleted": "",
            "dateMissing": [],
            "observation": "",
            "regle_gestion": "",
            "type_oracle": "string"
        },
        {
            "name": "ENT_ANN",
            "description": "Ann\u00e9e de la date de d\u00e9but de s\u00e9jour",
            "type": "string",
            "length": "4.0",
            "format": "default",
            "nomenclature": "-",
            "dateCreated": "2010",
            "dateDeleted": "",
            "dateMissing": [],
            "observation": "",
            "regle_gestion": "",
            "type_oracle": "string"
        },
        {
            "name": "ENT_MOI",
            "description": "Mois de la date de d\u00e9but de s\u00e9jour",
            "type": "date",
            "length": "2.0",
            "format": "default",
            "nomenclature": "-",
            "dateCreated": "2010",
            "dateDeleted": "",
            "dateMissing": [],
            "observation": "",
            "regle_gestion": "",
            "type_oracle": "string"
        }
    ],
    "title": "Table FB : Table des RSFA facture des \u00e9tablissements ex-OQN",
    "produit": "PMSI HAD",
    "history": {
        "dateCreated": "2010",
        "dateDeleted": "",
        "dateMissing": []
    },
    "champ": "Priv\u00e9",
    "observation": "",
    "foreignKeys": [
        {
            "fields": [
                "ETA_NUM_EPMSI",
                "RHAD_NUM"
            ],
            "reference": {
                "resource": "T_HADaaB",
                "fields": [
                    "ETA_NUM_EPMSI",
                    "RHAD_NUM"
                ]
            }
        }
    ]
}