{
    "fields": [
        {
            "name": "ATC1",
            "type": "string",
            "format": "default",
            "role": "code"
        },
        {
            "name": "Libellé ATC1",
            "type": "string",
            "format": "default",
            "role": "label"
        }
    ],
    "missingValues": [
        ""
    ],
    "name": "openmedic_ATC1",
    "title": "Libellé ATC1",
    "primaryKey": "ATC1"
}