{
    "name": "IR_ORC_R",
    "fields": [
        {
            "name": "BEN_CMU_ORG",
            "description": "Code de l'organisme compl\u00e9mentaire",
            "type": "string",
            "length": "9.0",
            "format": "default",
            "nomenclature": "-",
            "dateCreated": "",
            "dateDeleted": "",
            "dateMissing": [],
            "observation": "",
            "regle_gestion": "",
            "type_oracle": "string"
        },
        {
            "name": "BEN_CTA_TYP",
            "description": "Type de contrat compl\u00e9mentaire",
            "type": "integer",
            "length": "3.0",
            "format": "default",
            "nomenclature": "IR_CTA_V",
            "dateCreated": "",
            "dateDeleted": "",
            "dateMissing": [],
            "observation": "",
            "regle_gestion": "",
            "type_oracle": "number"
        },
        {
            "name": "BEN_IDT_ANO",
            "description": "Identifiant b\u00e9n\u00e9ficiaire anonymis\u00e9",
            "type": "string",
            "length": "18.0",
            "format": "default",
            "nomenclature": "-",
            "dateCreated": "",
            "dateDeleted": "",
            "dateMissing": [],
            "observation": "",
            "regle_gestion": "",
            "type_oracle": "string"
        },
        {
            "name": "BEN_NIR_ANO",
            "description": "NIR pseudonymis\u00e9 du b\u00e9n\u00e9ficiaire",
            "type": "string",
            "length": "17.0",
            "format": "default",
            "nomenclature": "-",
            "dateCreated": "",
            "dateDeleted": "",
            "dateMissing": [],
            "observation": "",
            "regle_gestion": "",
            "type_oracle": "string"
        },
        {
            "name": "BEN_NIR_PSA",
            "description": "Identifiant anonyme du patient dans le SNIIRAM",
            "type": "string",
            "length": "17.0",
            "format": "default",
            "nomenclature": "-",
            "dateCreated": "",
            "dateDeleted": "",
            "dateMissing": [],
            "observation": "",
            "regle_gestion": "",
            "type_oracle": "string"
        },
        {
            "name": "BEN_RNG_GEM",
            "description": "Rang de naissance du b\u00e9n\u00e9ficiaire",
            "type": "integer",
            "length": "2.0",
            "format": "default",
            "nomenclature": "IR_BER_V",
            "dateCreated": "",
            "dateDeleted": "",
            "dateMissing": [],
            "observation": "",
            "regle_gestion": "",
            "type_oracle": "number"
        },
        {
            "name": "CTO_IDT_ANO",
            "description": "Identifiant Cartographie",
            "type": "string",
            "length": "18.0",
            "format": "default",
            "nomenclature": "-",
            "dateCreated": "",
            "dateDeleted": "",
            "dateMissing": [],
            "observation": "",
            "regle_gestion": "",
            "type_oracle": "string"
        },
        {
            "name": "IND_RNM_BEN",
            "description": "Top RNIAM",
            "type": "string",
            "length": "1.0",
            "format": "default",
            "nomenclature": "IR_RNM_V",
            "dateCreated": "",
            "dateDeleted": "",
            "dateMissing": [],
            "observation": "",
            "regle_gestion": "",
            "type_oracle": "string"
        },
        {
            "name": "MLL_CTA_DSD",
            "description": "Date de d\u00e9but du contrat compl\u00e9mentaire",
            "type": "date",
            "length": "nan",
            "format": "default",
            "nomenclature": "IR_DTE_V",
            "dateCreated": "",
            "dateDeleted": "",
            "dateMissing": [],
            "observation": "",
            "regle_gestion": "",
            "type_oracle": "date"
        },
        {
            "name": "MLL_CTA_DSF",
            "description": "Date de fin du contrat compl\u00e9mentaire",
            "type": "date",
            "length": "nan",
            "format": "default",
            "nomenclature": "IR_DTE_V",
            "dateCreated": "",
            "dateDeleted": "",
            "dateMissing": [],
            "observation": "",
            "regle_gestion": "",
            "type_oracle": "date"
        },
        {
            "name": "REF_C2S_COD",
            "description": "Code compl\u00e9mentaire sant\u00e9 solidaire",
            "type": "string",
            "length": "1.0",
            "format": "default",
            "nomenclature": "IR_CSS_V",
            "dateCreated": "",
            "dateDeleted": "",
            "dateMissing": [],
            "observation": "",
            "regle_gestion": "",
            "type_oracle": "string"
        }
    ],
    "title": "Table historique des affiliations \u00e0 un organisme compl\u00e9mentaire",
    "produit": "REFERENTIELS",
    "history": {
        "dateCreated": "",
        "dateDeleted": "",
        "dateMissing": []
    },
    "champ": "",
    "observation": "",
    "foreignKeys": [
        {
            "fields": [
                "BEN_NIR_PSA",
                "BEN_RNG_GEM"
            ],
            "reference": {
                "resource": "IR_BEN_R",
                "fields": [
                    "BEN_NIR_PSA",
                    "BEN_RNG_GEM"
                ]
            }
        }
    ]
}