{
    "name": "T_MCOaaSUP_BPHNC",
    "fields": [
        {
            "name": "MNT_BHN_LAB_PRI",
            "description": "Montant total de BHN pay\u00e9s \u00e0 un laboratoire priv\u00e9 ou un cabinet (en centimes d'euro)",
            "type": "number",
            "length": "10,2",
            "format": "default",
            "nomenclature": "-",
            "dateCreated": "2010",
            "dateDeleted": "2015",
            "dateMissing": [],
            "observation": "remplac\u00e9e par MNT_RIHN_LAB_PRI",
            "regle_gestion": "",
            "type_oracle": "number"
        },
        {
            "name": "MNT_BHN_ETB_EXDG",
            "description": "Montant total de BHN pay\u00e9s \u00e0 un \u00e9tablissement de sant\u00e9 - ex-DG ou ex-OQN - (en centimes d'euro)",
            "type": "number",
            "length": "10,2",
            "format": "default",
            "nomenclature": "-",
            "dateCreated": "2010",
            "dateDeleted": "2015",
            "dateMissing": [],
            "observation": "remplac\u00e9e par MNT_RIHN_ETB_EXDG",
            "regle_gestion": "",
            "type_oracle": "number"
        },
        {
            "name": "MNT_PHN_LAB_PRI",
            "description": "Montant total de PHN pay\u00e9s \u00e0 un laboratoire priv\u00e9 ou un cabinet (en centimes d'euro)",
            "type": "number",
            "length": "10,2",
            "format": "default",
            "nomenclature": "-",
            "dateCreated": "2010",
            "dateDeleted": "2015",
            "dateMissing": [],
            "observation": "remplac\u00e9e par MNT_LC_LAB_PRI",
            "regle_gestion": "",
            "type_oracle": "number"
        },
        {
            "name": "MNT_PHN_ETB_EXDG",
            "description": "Montant total de PHN pay\u00e9s \u00e0 un \u00e9tablissement de sant\u00e9 - ex-DG ou ex-OQN - (en centimes d'euro)",
            "type": "number",
            "length": "10,2",
            "format": "default",
            "nomenclature": "-",
            "dateCreated": "2010",
            "dateDeleted": "2015",
            "dateMissing": [],
            "observation": "remplac\u00e9e par MNT_LC_ETB_EXDG",
            "regle_gestion": "",
            "type_oracle": "number"
        },
        {
            "name": "ANN_MOI",
            "description": "Ann\u00e9e+Mois",
            "type": "date",
            "length": "6",
            "format": "default",
            "nomenclature": "-",
            "dateCreated": "2010",
            "dateDeleted": "2017",
            "dateMissing": [],
            "observation": "",
            "regle_gestion": "",
            "type_oracle": "string"
        },
        {
            "name": "ETA_NUM",
            "description": "N\u00b0 FINESS",
            "type": "string",
            "length": "9",
            "format": "default",
            "nomenclature": "-",
            "dateCreated": "2010",
            "dateDeleted": "2017",
            "dateMissing": [],
            "observation": "",
            "regle_gestion": "",
            "type_oracle": "string"
        },
        {
            "name": "FIC_TYP",
            "description": "Type de fichier",
            "type": "string",
            "length": "3",
            "format": "default",
            "nomenclature": "-",
            "dateCreated": "2010",
            "dateDeleted": "2017",
            "dateMissing": [],
            "observation": "",
            "regle_gestion": "",
            "type_oracle": "string"
        },
        {
            "name": "MNT_LC_ETB_EXDG",
            "description": "Montant total d\u2019actes de la LC dont la facture a \u00e9t\u00e9 re\u00e7ue\u00a0 \u00e0 un \u00e9tablissement de sant\u00e9 - ex-DG ou ex-OQN - (en centimes d'euro)",
            "type": "number",
            "length": "10,2",
            "format": "default",
            "nomenclature": "-",
            "dateCreated": "2016",
            "dateDeleted": "2017",
            "dateMissing": [],
            "observation": "remplace MNT_PHN_ETB_EXDG",
            "regle_gestion": "",
            "type_oracle": "number"
        },
        {
            "name": "MNT_LC_LAB_PRI",
            "description": "Montant total d\u2019actes de la LC dont la facture a \u00e9t\u00e9 re\u00e7ue\u00a0 \u00e0 un laboratoire priv\u00e9 ou un cabinet (en centimes d'euro)",
            "type": "number",
            "length": "10,2",
            "format": "default",
            "nomenclature": "-",
            "dateCreated": "2016",
            "dateDeleted": "2017",
            "dateMissing": [],
            "observation": "remplace MNT_PHN_LAB_PRI",
            "regle_gestion": "",
            "type_oracle": "number"
        },
        {
            "name": "MNT_RIHN_ETB_EXDG",
            "description": "Montant total d\u2019actes du RIHN dont la facture a \u00e9t\u00e9 re\u00e7ue \u00e0 un \u00e9tablissement de sant\u00e9 - ex-DG ou ex-OQN - (en centimes d'euro)",
            "type": "number",
            "length": "10,2",
            "format": "default",
            "nomenclature": "-",
            "dateCreated": "2016",
            "dateDeleted": "2017",
            "dateMissing": [],
            "observation": "remplace MNT_BHN_ETB_EXDG",
            "regle_gestion": "",
            "type_oracle": "number"
        },
        {
            "name": "MNT_RIHN_LAB_PRI",
            "description": "Montant total d\u2019actes du RIHN dont la facture a \u00e9t\u00e9 re\u00e7ue \u00e0 un laboratoire priv\u00e9 ou un cabinet (en centimes d'euro)",
            "type": "number",
            "length": "10,2",
            "format": "default",
            "nomenclature": "-",
            "dateCreated": "2016",
            "dateDeleted": "2017",
            "dateMissing": [],
            "observation": "remplace MNT_BHN_LAB_PRI",
            "regle_gestion": "",
            "type_oracle": "number"
        }
    ],
    "title": "Fich sup BP HN etb demandeur",
    "produit": "PMSI MCO",
    "history": {
        "dateCreated": "2010",
        "dateDeleted": 2017.0,
        "dateMissing": []
    },
    "champ": "Public",
    "observation": "Chgt de nom en 2015 ajout du pr\u00e9fixe SUP_",
    "foreignKeys": [
        {
            "fields": [
                "ETA_NUM"
            ],
            "reference": {
                "resource": "T_MCOaaE",
                "fields": [
                    "ETA_NUM"
                ]
            }
        }
    ]
}