{
    "name": "T_MCOaaFLSTC",
    "fields": [
        {
            "name": "ACT_NBR",
            "description": "Quantit\u00e9 acte",
            "type": "integer",
            "length": "2.0",
            "format": "default",
            "nomenclature": "-",
            "dateCreated": "2012",
            "dateDeleted": "nan",
            "dateMissing": [],
            "observation": "",
            "regle_gestion": "",
            "type_oracle": "number"
        },
        {
            "name": "DEL_DAT_ENT",
            "description": "d\u00e9lai par rapport \u00e0 la date d'entr\u00e9e",
            "type": "integer",
            "length": "5.0",
            "format": "default",
            "nomenclature": "-",
            "dateCreated": "2012",
            "dateDeleted": "nan",
            "dateMissing": [],
            "observation": "",
            "regle_gestion": "",
            "type_oracle": "number"
        },
        {
            "name": "ETA_NUM",
            "description": "Num\u00e9ro FINESS e-PMSI",
            "type": "string",
            "length": "9.0",
            "format": "default",
            "nomenclature": "-",
            "dateCreated": "2012",
            "dateDeleted": "nan",
            "dateMissing": [],
            "observation": "",
            "regle_gestion": "",
            "type_oracle": "string"
        },
        {
            "name": "ETA_NUM_GEO",
            "description": "Num\u00e9ro FINESS g\u00e9ographique",
            "type": "string",
            "length": "9.0",
            "format": "default",
            "nomenclature": "-",
            "dateCreated": "2016",
            "dateDeleted": "nan",
            "dateMissing": [],
            "observation": "",
            "regle_gestion": "",
            "type_oracle": "string"
        },
        {
            "name": "NABM_COD",
            "description": "Code acte",
            "type": "string",
            "length": "8.0",
            "format": "default",
            "nomenclature": "IR_BIO_R",
            "dateCreated": "2012",
            "dateDeleted": "nan",
            "dateMissing": [],
            "observation": "Variable recod\u00e9e en 2014",
            "regle_gestion": "",
            "type_oracle": "string"
        },
        {
            "name": "PSH_DMT",
            "description": "Discipline de prestation (ex DMT)",
            "type": "string",
            "length": "3.0",
            "format": "default",
            "nomenclature": "-",
            "dateCreated": "2012",
            "dateDeleted": "nan",
            "dateMissing": [],
            "observation": "",
            "regle_gestion": "",
            "type_oracle": "string"
        },
        {
            "name": "PSH_MDT",
            "description": "Mode de traitement",
            "type": "string",
            "length": "2.0",
            "format": "default",
            "nomenclature": "-",
            "dateCreated": "2012",
            "dateDeleted": "nan",
            "dateMissing": [],
            "observation": "",
            "regle_gestion": "",
            "type_oracle": "string"
        },
        {
            "name": "SEQ_NUM",
            "description": "N\u00b0 s\u00e9quentiel",
            "type": "string",
            "length": "8.0",
            "format": "default",
            "nomenclature": "-",
            "dateCreated": "2012",
            "dateDeleted": "nan",
            "dateMissing": [],
            "observation": "",
            "regle_gestion": "",
            "type_oracle": "string"
        },
        {
            "name": "TYP_ART",
            "description": "Type d'enregistrement",
            "type": "string",
            "length": "1.0",
            "format": "default",
            "nomenclature": "MS_ENR_V",
            "dateCreated": "2012",
            "dateDeleted": "nan",
            "dateMissing": [],
            "observation": "",
            "regle_gestion": "",
            "type_oracle": "string"
        },
        {
            "name": "EXE_SOI_DTD",
            "description": "Date de l'acte 1 \u00e0 5",
            "type": "date",
            "length": "nan",
            "format": "default",
            "nomenclature": "-",
            "dateCreated": "2020",
            "dateDeleted": "nan",
            "dateMissing": [],
            "observation": "",
            "regle_gestion": "",
            "type_oracle": "date"
        },
        {
            "name": "EXE_SOI_AMD",
            "description": "Date d'entr\u00e9e du s\u00e9jour",
            "type": "string",
            "length": "6.0",
            "format": "default",
            "nomenclature": "-",
            "dateCreated": "2020",
            "dateDeleted": "nan",
            "dateMissing": [],
            "observation": "Variable cr\u00e9\u00e9e par CNAM",
            "regle_gestion": "",
            "type_oracle": "string"
        },
        {
            "name": "ANN_MOI",
            "description": "Mois et ann\u00e9e",
            "type": "date",
            "length": "6.0",
            "format": "default",
            "nomenclature": "-",
            "dateCreated": "2012",
            "dateDeleted": "2020.0",
            "dateMissing": [],
            "observation": "",
            "regle_gestion": "",
            "type_oracle": "string"
        },
        {
            "name": "RSF_TYP",
            "description": "Type de format RSF (1 : ancien, 2 : nouveau)",
            "type": "string",
            "length": "1.0",
            "format": "default",
            "nomenclature": "-",
            "dateCreated": "2012",
            "dateDeleted": "2020.0",
            "dateMissing": [],
            "observation": "",
            "regle_gestion": "",
            "type_oracle": "string"
        },
        {
            "name": "NUM_FAC",
            "description": "N\u00b0 Facture s\u00e9quentiel",
            "type": "string",
            "length": "3.0",
            "format": "default",
            "nomenclature": "-",
            "dateCreated": "2012",
            "dateDeleted": "2020.0",
            "dateMissing": [],
            "observation": "",
            "regle_gestion": "",
            "type_oracle": "string"
        }
    ],
    "title": "ACE biologie NABM",
    "produit": "PMSI MCO",
    "history": {
        "dateCreated": "2012",
        "dateDeleted": "",
        "dateMissing": []
    },
    "champ": "Public",
    "observation": "",
    "foreignKeys": [
        {
            "fields": [
                "ETA_NUM",
                "SEQ_NUM"
            ],
            "reference": {
                "resource": "T_MCOaaFASTC",
                "fields": [
                    "ETA_NUM",
                    "SEQ_NUM"
                ]
            }
        }
    ]
}