{
    "name": "T_MCOaaSUP_IUM",
    "fields": [
        {
            "name": "ETA_NUM",
            "description": "N\u00b0 FINESS e-PMSI",
            "type": "string",
            "length": "9",
            "format": "default",
            "nomenclature": "-",
            "dateCreated": "2018",
            "dateDeleted": "nan",
            "dateMissing": [],
            "observation": "",
            "regle_gestion": "",
            "type_oracle": "string"
        },
        {
            "name": "FIC_TYP",
            "description": "N\u00b0 format",
            "type": "string",
            "length": "2",
            "format": "default",
            "nomenclature": "-",
            "dateCreated": "2018",
            "dateDeleted": "nan",
            "dateMissing": [],
            "observation": "",
            "regle_gestion": "",
            "type_oracle": "string"
        },
        {
            "name": "ANN_MOI",
            "description": "Ann\u00e9e+Mois",
            "type": "date",
            "length": "6",
            "format": "default",
            "nomenclature": "-",
            "dateCreated": "2018",
            "dateDeleted": "nan",
            "dateMissing": [],
            "observation": "",
            "regle_gestion": "",
            "type_oracle": "string"
        },
        {
            "name": "ETA_NUM_GEO",
            "description": "N\u00b0 FINESS g\u00e9ographque",
            "type": "string",
            "length": "9",
            "format": "default",
            "nomenclature": "-",
            "dateCreated": "2018",
            "dateDeleted": "nan",
            "dateMissing": [],
            "observation": "",
            "regle_gestion": "",
            "type_oracle": "string"
        },
        {
            "name": "AUT_TYP_UM",
            "description": "Type d'autorisation",
            "type": "string",
            "length": "3",
            "format": "default",
            "nomenclature": "-",
            "dateCreated": "2018",
            "dateDeleted": "nan",
            "dateMissing": [],
            "observation": "",
            "regle_gestion": "",
            "type_oracle": "string"
        },
        {
            "name": "HOS_TYP",
            "description": "Mode d'hospitalisation",
            "type": "string",
            "length": "1",
            "format": "default",
            "nomenclature": "-",
            "dateCreated": "2018",
            "dateDeleted": "nan",
            "dateMissing": [],
            "observation": "",
            "regle_gestion": "",
            "type_oracle": "string"
        },
        {
            "name": "DAT_DEB_AUT",
            "description": "Date de d\u00e9but d\u2019effet",
            "type": "string",
            "length": "8",
            "format": "default",
            "nomenclature": "-",
            "dateCreated": "2018",
            "dateDeleted": "nan",
            "dateMissing": [],
            "observation": "",
            "regle_gestion": "",
            "type_oracle": "string"
        },
        {
            "name": "NBR_LIT_UM",
            "description": "Nombre de lits",
            "type": "integer",
            "length": "3",
            "format": "default",
            "nomenclature": "-",
            "dateCreated": "2018",
            "dateDeleted": "nan",
            "dateMissing": [],
            "observation": "",
            "regle_gestion": "",
            "type_oracle": "number"
        },
        {
            "name": "NUM_ANO_UM",
            "description": "Num\u00e9ro s\u00e9quentiel de l'UM",
            "type": "integer",
            "length": "4",
            "format": "default",
            "nomenclature": "-",
            "dateCreated": "2020",
            "dateDeleted": "nan",
            "dateMissing": [],
            "observation": "",
            "regle_gestion": "",
            "type_oracle": "number"
        },
        {
            "name": "UM_NUM_ETB",
            "description": "N\u00b0 UM",
            "type": "string",
            "length": "4",
            "format": "default",
            "nomenclature": "-",
            "dateCreated": "2018",
            "dateDeleted": "2020.0",
            "dateMissing": [],
            "observation": "",
            "regle_gestion": "",
            "type_oracle": "string"
        }
    ],
    "title": "Fichier d\u2019information des UM",
    "produit": "PMSI MCO",
    "history": {
        "dateCreated": "2018",
        "dateDeleted": "",
        "dateMissing": []
    },
    "champ": "Public et Priv\u00e9",
    "observation": "",
    "foreignKeys": [
        {
            "fields": [
                "ETA_NUM"
            ],
            "reference": {
                "resource": "T_MCOaaE",
                "fields": [
                    "ETA_NUM"
                ]
            }
        }
    ]
}