{
    "name": "T_MCOaaLEG",
    "fields": [
        {
            "name": "ANN",
            "description": "Ann\u00e9e p\u00e9riode",
            "type": "string",
            "length": "4",
            "format": "default",
            "nomenclature": "-",
            "dateCreated": "2014",
            "dateDeleted": "nan",
            "dateMissing": [],
            "observation": "",
            "regle_gestion": "",
            "type_oracle": "string"
        },
        {
            "name": "COD_ERR",
            "description": "Code retour",
            "type": "string",
            "length": "4",
            "format": "default",
            "nomenclature": "-",
            "dateCreated": "2014",
            "dateDeleted": "nan",
            "dateMissing": [],
            "observation": "",
            "regle_gestion": "",
            "type_oracle": "string"
        },
        {
            "name": "ETA_NUM",
            "description": "N\u00b0 FINESS e-PMSI",
            "type": "string",
            "length": "9",
            "format": "default",
            "nomenclature": "-",
            "dateCreated": "2014",
            "dateDeleted": "nan",
            "dateMissing": [],
            "observation": "",
            "regle_gestion": "",
            "type_oracle": "string"
        },
        {
            "name": "MOI",
            "description": "Mois p\u00e9riode",
            "type": "date",
            "length": "2",
            "format": "default",
            "nomenclature": "-",
            "dateCreated": "2014",
            "dateDeleted": "nan",
            "dateMissing": [],
            "observation": "",
            "regle_gestion": "",
            "type_oracle": "string"
        },
        {
            "name": "RSA_NUM",
            "description": "N\u00b0 d'index du RSA",
            "type": "string",
            "length": "10",
            "format": "default",
            "nomenclature": "-",
            "dateCreated": "2014",
            "dateDeleted": "nan",
            "dateMissing": [],
            "observation": "",
            "regle_gestion": "",
            "type_oracle": "string"
        }
    ],
    "title": "Fichier donnant toutes les erreurs d\u00e9tect\u00e9es par la fonction groupage",
    "produit": "PMSI MCO",
    "history": {
        "dateCreated": "2014",
        "dateDeleted": "",
        "dateMissing": []
    },
    "champ": "Public et Priv\u00e9",
    "observation": "",
    "foreignKeys": [
        {
            "fields": [
                "ETA_NUM",
                "RSA_NUM"
            ],
            "reference": {
                "resource": "T_MCOaaB",
                "fields": [
                    "ETA_NUM",
                    "RSA_NUM"
                ]
            }
        }
    ]
}