{
    "name": "T_MCOaaFASTC",
    "fields": [
        {
            "name": "AGE_ANN",
            "description": "Age (en ann\u00e9es)",
            "type": "integer",
            "length": "3",
            "format": "default",
            "nomenclature": "-",
            "dateCreated": "2014",
            "dateDeleted": "nan",
            "dateMissing": [],
            "observation": "",
            "regle_gestion": "",
            "type_oracle": "number"
        },
        {
            "name": "BDI_COD",
            "description": "Code g\u00e9ographique de r\u00e9sidence",
            "type": "string",
            "length": "5",
            "format": "default",
            "nomenclature": "-",
            "dateCreated": "2009",
            "dateDeleted": "nan",
            "dateMissing": [],
            "observation": "",
            "regle_gestion": "",
            "type_oracle": "string"
        },
        {
            "name": "BDI_DEP",
            "description": "Code d\u00e9partement de r\u00e9sidence",
            "type": "string",
            "length": "2",
            "format": "default",
            "nomenclature": "-",
            "dateCreated": "2009",
            "dateDeleted": "nan",
            "dateMissing": [],
            "observation": "Variable cr\u00e9\u00e9e par CNAMTS",
            "regle_gestion": "",
            "type_oracle": "string"
        },
        {
            "name": "COD_CIV",
            "description": "Code civilit\u00e9 ",
            "type": "string",
            "length": "1",
            "format": "default",
            "nomenclature": "-",
            "dateCreated": "2007",
            "dateDeleted": "nan",
            "dateMissing": [],
            "observation": "",
            "regle_gestion": "",
            "type_oracle": "string"
        },
        {
            "name": "COD_SEX",
            "description": "Sexe ",
            "type": "string",
            "length": "1",
            "format": "default",
            "nomenclature": "-",
            "dateCreated": "2007",
            "dateDeleted": "nan",
            "dateMissing": [],
            "observation": "",
            "regle_gestion": "",
            "type_oracle": "string"
        },
        {
            "name": "CTR_TYP",
            "description": "Type de contrat souscrit aupr\u00e8s d'un organisme compl\u00e9mentaire",
            "type": "string",
            "length": "2",
            "format": "default",
            "nomenclature": "-",
            "dateCreated": "2017",
            "dateDeleted": "nan",
            "dateMissing": [],
            "observation": "",
            "regle_gestion": "",
            "type_oracle": "string"
        },
        {
            "name": "ETA_NUM",
            "description": "Num\u00e9ro FINESS e-PMSI",
            "type": "string",
            "length": "9",
            "format": "default",
            "nomenclature": "-",
            "dateCreated": "2007",
            "dateDeleted": "nan",
            "dateMissing": [],
            "observation": "",
            "regle_gestion": "",
            "type_oracle": "string"
        },
        {
            "name": "ETA_NUM_GEO",
            "description": "Num\u00e9ro FINESS g\u00e9ographique",
            "type": "string",
            "length": "9",
            "format": "default",
            "nomenclature": "-",
            "dateCreated": "2016",
            "dateDeleted": "nan",
            "dateMissing": [],
            "observation": "",
            "regle_gestion": "",
            "type_oracle": "string"
        },
        {
            "name": "EXO_TM",
            "description": "Justification d'exon\u00e9ration du TM ",
            "type": "string",
            "length": "1",
            "format": "default",
            "nomenclature": "-",
            "dateCreated": "2007",
            "dateDeleted": "nan",
            "dateMissing": [],
            "observation": "",
            "regle_gestion": "",
            "type_oracle": "string"
        },
        {
            "name": "FIDES_TOP",
            "description": "Valoris\u00e9 par FIDES",
            "type": "string",
            "length": "1",
            "format": "default",
            "nomenclature": "-",
            "dateCreated": "2012",
            "dateDeleted": "nan",
            "dateMissing": [],
            "observation": "",
            "regle_gestion": "",
            "type_oracle": "string"
        },
        {
            "name": "GES_COD",
            "description": "Code gestion",
            "type": "string",
            "length": "2",
            "format": "default",
            "nomenclature": "-",
            "dateCreated": "2014",
            "dateDeleted": "nan",
            "dateMissing": [],
            "observation": "",
            "regle_gestion": "",
            "type_oracle": "string"
        },
        {
            "name": "HON_AM_MNR",
            "description": "Total honoraire remboursable AM ",
            "type": "number",
            "length": "8,2",
            "format": "default",
            "nomenclature": "-",
            "dateCreated": "2007",
            "dateDeleted": "nan",
            "dateMissing": [],
            "observation": "Attention les montants sont des montants rembours\u00e9s",
            "regle_gestion": "",
            "type_oracle": "number"
        },
        {
            "name": "HON_MNT",
            "description": "Total honoraire Factur\u00e9 ",
            "type": "number",
            "length": "8,2",
            "format": "default",
            "nomenclature": "-",
            "dateCreated": "2007",
            "dateDeleted": "nan",
            "dateMissing": [],
            "observation": "",
            "regle_gestion": "",
            "type_oracle": "number"
        },
        {
            "name": "HON_OC_MNR",
            "description": "Total remboursable OC pour les honoraires ",
            "type": "number",
            "length": "8,2",
            "format": "default",
            "nomenclature": "-",
            "dateCreated": "2007",
            "dateDeleted": "nan",
            "dateMissing": [],
            "observation": "Attention les montants sont des montants rembours\u00e9s",
            "regle_gestion": "",
            "type_oracle": "number"
        },
        {
            "name": "NAT_ASS",
            "description": "Nature assurance ",
            "type": "string",
            "length": "2",
            "format": "default",
            "nomenclature": "-",
            "dateCreated": "2007",
            "dateDeleted": "nan",
            "dateMissing": [],
            "observation": "",
            "regle_gestion": "",
            "type_oracle": "string"
        },
        {
            "name": "NOE_RGM",
            "description": "Code Gd r\u00e9gime ",
            "type": "string",
            "length": "2",
            "format": "default",
            "nomenclature": "-",
            "dateCreated": "2007",
            "dateDeleted": "nan",
            "dateMissing": [],
            "observation": "",
            "regle_gestion": "",
            "type_oracle": "string"
        },
        {
            "name": "NON_SEJ_FAC_AM",
            "description": "Motif de la non facturation \u00e0 l'assurance maladie",
            "type": "string",
            "length": "1",
            "format": "default",
            "nomenclature": "-",
            "dateCreated": "2009",
            "dateDeleted": "nan",
            "dateMissing": [],
            "observation": "",
            "regle_gestion": "",
            "type_oracle": "string"
        },
        {
            "name": "NUM_DAT_AT",
            "description": "Num\u00e9ro accident du travail ou date d\u2019accident de droit commun",
            "type": "string",
            "length": "9",
            "format": "default",
            "nomenclature": "-",
            "dateCreated": "2015",
            "dateDeleted": "nan",
            "dateMissing": [],
            "observation": "",
            "regle_gestion": "",
            "type_oracle": "string"
        },
        {
            "name": "OPE_NAT",
            "description": "Nature op\u00e9ration ",
            "type": "string",
            "length": "1",
            "format": "default",
            "nomenclature": "-",
            "dateCreated": "2007",
            "dateDeleted": "nan",
            "dateMissing": [],
            "observation": "",
            "regle_gestion": "",
            "type_oracle": "string"
        },
        {
            "name": "ORG_CPL_NUM",
            "description": "N\u00b0 d\u2019organisme compl\u00e9mentaire",
            "type": "string",
            "length": "10",
            "format": "default",
            "nomenclature": "-",
            "dateCreated": "2015",
            "dateDeleted": "nan",
            "dateMissing": [],
            "observation": "",
            "regle_gestion": "",
            "type_oracle": "string"
        },
        {
            "name": "PAS_OC_MNT",
            "description": "Total participation assur\u00e9 avant OC ",
            "type": "number",
            "length": "8,2",
            "format": "default",
            "nomenclature": "-",
            "dateCreated": "2007",
            "dateDeleted": "nan",
            "dateMissing": [],
            "observation": "",
            "regle_gestion": "",
            "type_oracle": "number"
        },
        {
            "name": "PAT_CMU",
            "description": "Patient b\u00e9n\u00e9ficiaire de la CMU",
            "type": "string",
            "length": "1",
            "format": "default",
            "nomenclature": "-",
            "dateCreated": "2012",
            "dateDeleted": "nan",
            "dateMissing": [],
            "observation": "",
            "regle_gestion": "",
            "type_oracle": "string"
        },
        {
            "name": "PH_AMO_MNR",
            "description": "Total remboursable AMO Prestation hospitali\u00e8res ",
            "type": "number",
            "length": "8,2",
            "format": "default",
            "nomenclature": "-",
            "dateCreated": "2007",
            "dateDeleted": "nan",
            "dateMissing": [],
            "observation": "Attention les montants sont des montants rembours\u00e9s",
            "regle_gestion": "",
            "type_oracle": "number"
        },
        {
            "name": "PH_BRM",
            "description": "Total Base Remboursement Prestation hospitali\u00e8re ",
            "type": "number",
            "length": "8,2",
            "format": "default",
            "nomenclature": "-",
            "dateCreated": "2007",
            "dateDeleted": "nan",
            "dateMissing": [],
            "observation": "",
            "regle_gestion": "",
            "type_oracle": "number"
        },
        {
            "name": "PH_MNT",
            "description": "Montant total factur\u00e9 pour PH ",
            "type": "number",
            "length": "8,2",
            "format": "default",
            "nomenclature": "-",
            "dateCreated": "2007",
            "dateDeleted": "nan",
            "dateMissing": [],
            "observation": "",
            "regle_gestion": "",
            "type_oracle": "number"
        },
        {
            "name": "PH_OC_MNR",
            "description": "Total remboursable OC pour les PH ",
            "type": "number",
            "length": "8,2",
            "format": "default",
            "nomenclature": "-",
            "dateCreated": "2007",
            "dateDeleted": "nan",
            "dateMissing": [],
            "observation": "Attention les montants sont des montants rembours\u00e9s",
            "regle_gestion": "",
            "type_oracle": "number"
        },
        {
            "name": "PS_IND",
            "description": "Indicateur du parcours de soins",
            "type": "string",
            "length": "1",
            "format": "default",
            "nomenclature": "-",
            "dateCreated": "2008",
            "dateDeleted": "nan",
            "dateMissing": [],
            "observation": "",
            "regle_gestion": "",
            "type_oracle": "string"
        },
        {
            "name": "RNG_BEN",
            "description": "Rang de b\u00e9n\u00e9ficiaire",
            "type": "string",
            "length": "3",
            "format": "default",
            "nomenclature": "-",
            "dateCreated": "2016",
            "dateDeleted": "nan",
            "dateMissing": [],
            "observation": "",
            "regle_gestion": "",
            "type_oracle": "string"
        },
        {
            "name": "RNG_NAI",
            "description": "Rang de naissance",
            "type": "string",
            "length": "1",
            "format": "default",
            "nomenclature": "-",
            "dateCreated": "2016",
            "dateDeleted": "nan",
            "dateMissing": [],
            "observation": "",
            "regle_gestion": "",
            "type_oracle": "string"
        },
        {
            "name": "SEJ_FAC_AM",
            "description": "S\u00e9jour facturable \u00e0 l\u2019assurance maladie",
            "type": "string",
            "length": "1",
            "format": "default",
            "nomenclature": "-",
            "dateCreated": "2008",
            "dateDeleted": "nan",
            "dateMissing": [],
            "observation": "",
            "regle_gestion": "",
            "type_oracle": "string"
        },
        {
            "name": "SEQ_NUM",
            "description": "N\u00b0 s\u00e9quentiel",
            "type": "string",
            "length": "8",
            "format": "default",
            "nomenclature": "-",
            "dateCreated": "2008",
            "dateDeleted": "nan",
            "dateMissing": [],
            "observation": "",
            "regle_gestion": "",
            "type_oracle": "string"
        },
        {
            "name": "TYP_ART",
            "description": "Type d'enregistrement",
            "type": "string",
            "length": "1",
            "format": "default",
            "nomenclature": "MS_ENR_V",
            "dateCreated": "2007",
            "dateDeleted": "nan",
            "dateMissing": [],
            "observation": "",
            "regle_gestion": "",
            "type_oracle": "string"
        },
        {
            "name": "EXE_SOI_DTD",
            "description": "Date de d\u00e9but de la p\u00e9riode de facturation",
            "type": "date",
            "length": "nan",
            "format": "default",
            "nomenclature": "-",
            "dateCreated": "2020",
            "dateDeleted": "nan",
            "dateMissing": [],
            "observation": "",
            "regle_gestion": "",
            "type_oracle": "date"
        },
        {
            "name": "EXE_SOI_DTF",
            "description": "Date de fin de la p\u00e9riode de facturation",
            "type": "date",
            "length": "nan",
            "format": "default",
            "nomenclature": "-",
            "dateCreated": "2020",
            "dateDeleted": "nan",
            "dateMissing": [],
            "observation": "",
            "regle_gestion": "",
            "type_oracle": "date"
        },
        {
            "name": "AGE_JOU",
            "description": "Age en jours",
            "type": "integer",
            "length": "5",
            "format": "default",
            "nomenclature": "-",
            "dateCreated": "2020",
            "dateDeleted": "nan",
            "dateMissing": [],
            "observation": "",
            "regle_gestion": "",
            "type_oracle": "number"
        },
        {
            "name": "COD_POST",
            "description": "Code postal",
            "type": "string",
            "length": "5",
            "format": "default",
            "nomenclature": "-",
            "dateCreated": "2020",
            "dateDeleted": "nan",
            "dateMissing": [],
            "observation": "",
            "regle_gestion": "",
            "type_oracle": "string"
        },
        {
            "name": "EXE_SOI_AMD",
            "description": "Date d'entr\u00e9e du s\u00e9jour",
            "type": "string",
            "length": "6",
            "format": "default",
            "nomenclature": "-",
            "dateCreated": "2020",
            "dateDeleted": "nan",
            "dateMissing": [],
            "observation": "Variable cr\u00e9\u00e9e par CNAM",
            "regle_gestion": "",
            "type_oracle": "string"
        },
        {
            "name": "EXE_SOI_AMF",
            "description": "Date de sortie du s\u00e9jour",
            "type": "string",
            "length": "6",
            "format": "default",
            "nomenclature": "-",
            "dateCreated": "2020",
            "dateDeleted": "nan",
            "dateMissing": [],
            "observation": "Variable cr\u00e9\u00e9e par CNAM",
            "regle_gestion": "",
            "type_oracle": "string"
        },
        {
            "name": "POST_DEP",
            "description": "d\u00e9partement postal du b\u00e9n\u00e9ficiaire\u00a0",
            "type": "string",
            "length": "nan",
            "format": "default",
            "nomenclature": "-",
            "dateCreated": "2020",
            "dateDeleted": "nan",
            "dateMissing": [],
            "observation": "Variable cr\u00e9\u00e9e par CNAM",
            "regle_gestion": "",
            "type_oracle": "string"
        },
        {
            "name": "COD_PEC",
            "description": "Code de prise en charge",
            "type": "string",
            "length": "nan",
            "format": "default",
            "nomenclature": "-",
            "dateCreated": "2007",
            "dateDeleted": "2007.0",
            "dateMissing": [],
            "observation": "",
            "regle_gestion": "",
            "type_oracle": "string"
        },
        {
            "name": "DAT_RET",
            "description": "Code retour contr\u00f4le \u00ab\u00a0date de r\u00e9f\u00e9rence\u00bb (date d'entr\u00e9e)",
            "type": "string",
            "length": "nan",
            "format": "default",
            "nomenclature": "-",
            "dateCreated": "2007",
            "dateDeleted": "2007.0",
            "dateMissing": [],
            "observation": "",
            "regle_gestion": "",
            "type_oracle": "string"
        },
        {
            "name": "NIAS_RET",
            "description": "Code retour contr\u00f4le \u00ab\u00a0n\u00b0 d\u2019identification administratif de s\u00e9jour \u00bb",
            "type": "string",
            "length": "nan",
            "format": "default",
            "nomenclature": "-",
            "dateCreated": "2007",
            "dateDeleted": "2007.0",
            "dateMissing": [],
            "observation": "",
            "regle_gestion": "",
            "type_oracle": "string"
        },
        {
            "name": "NIR_ANO_17",
            "description": "N\u00b0 anonyme",
            "type": "string",
            "length": "nan",
            "format": "default",
            "nomenclature": "-",
            "dateCreated": "2007",
            "dateDeleted": "2007.0",
            "dateMissing": [],
            "observation": "",
            "regle_gestion": "",
            "type_oracle": "string"
        },
        {
            "name": "NIR_RET",
            "description": "Code retour contr\u00f4le \u00ab\u00a0n\u00b0 s\u00e9curit\u00e9 sociale\u00a0\u00bb",
            "type": "string",
            "length": "nan",
            "format": "default",
            "nomenclature": "-",
            "dateCreated": "2007",
            "dateDeleted": "2007.0",
            "dateMissing": [],
            "observation": "",
            "regle_gestion": "",
            "type_oracle": "string"
        },
        {
            "name": "SEX_RET",
            "description": "Code retour contr\u00f4le \u00ab\u00a0sexe\u00a0\u00bb",
            "type": "string",
            "length": "nan",
            "format": "default",
            "nomenclature": "-",
            "dateCreated": "2007",
            "dateDeleted": "2007.0",
            "dateMissing": [],
            "observation": "",
            "regle_gestion": "",
            "type_oracle": "string"
        },
        {
            "name": "NUM_FAC",
            "description": "N\u00b0 Facture s\u00e9quentiel",
            "type": "string",
            "length": "3",
            "format": "default",
            "nomenclature": "-",
            "dateCreated": "2007",
            "dateDeleted": "2020.0",
            "dateMissing": [],
            "observation": "",
            "regle_gestion": "",
            "type_oracle": "string"
        },
        {
            "name": "RSF_TYP",
            "description": "Type de format RSF (1 : ancien, 2 : nouveau)",
            "type": "string",
            "length": "1",
            "format": "default",
            "nomenclature": "-",
            "dateCreated": "2007",
            "dateDeleted": "2020.0",
            "dateMissing": [],
            "observation": "",
            "regle_gestion": "",
            "type_oracle": "string"
        },
        {
            "name": "SOR_ANN",
            "description": "Ann\u00e9e de sortie",
            "type": "string",
            "length": "4",
            "format": "default",
            "nomenclature": "-",
            "dateCreated": "2008",
            "dateDeleted": "2020.0",
            "dateMissing": [],
            "observation": "",
            "regle_gestion": "",
            "type_oracle": "string"
        },
        {
            "name": "SOR_MOI",
            "description": "Mois de sortie",
            "type": "date",
            "length": "2",
            "format": "default",
            "nomenclature": "-",
            "dateCreated": "2008",
            "dateDeleted": "2020.0",
            "dateMissing": [],
            "observation": "",
            "regle_gestion": "",
            "type_oracle": "string"
        }
    ],
    "title": "ACE Entete facture",
    "produit": "PMSI MCO",
    "history": {
        "dateCreated": "2007",
        "dateDeleted": "",
        "dateMissing": []
    },
    "champ": "Public",
    "observation": "",
    "foreignKeys": [
        {
            "fields": [
                "ETA_NUM"
            ],
            "reference": {
                "resource": "T_MCOaaE",
                "fields": [
                    "ETA_NUM"
                ]
            }
        }
    ]
}