{
    "name": "T_SUPaaDMI",
    "fields": [
        {
            "name": "ANN_MOI",
            "description": "Mois et ann\u00e9e",
            "type": "date",
            "length": "nan",
            "format": "default",
            "nomenclature": "-",
            "dateCreated": "2007",
            "dateDeleted": "2008",
            "dateMissing": [],
            "observation": "",
            "regle_gestion": "",
            "type_oracle": "string"
        },
        {
            "name": "ETA_NUM",
            "description": "Num\u00e9ro FINESS e-PMSI",
            "type": "string",
            "length": "nan",
            "format": "default",
            "nomenclature": "-",
            "dateCreated": "2007",
            "dateDeleted": "2008",
            "dateMissing": [],
            "observation": "",
            "regle_gestion": "",
            "type_oracle": "string"
        },
        {
            "name": "FIC_TYP",
            "description": "Type de fichier",
            "type": "string",
            "length": "nan",
            "format": "default",
            "nomenclature": "-",
            "dateCreated": "2007",
            "dateDeleted": "2008",
            "dateMissing": [],
            "observation": "",
            "regle_gestion": "",
            "type_oracle": "string"
        },
        {
            "name": "LPP_COD",
            "description": "Code LPP (attention blanc devant)",
            "type": "string",
            "length": "nan",
            "format": "default",
            "nomenclature": "-",
            "dateCreated": "2007",
            "dateDeleted": "2008",
            "dateMissing": [],
            "observation": "",
            "regle_gestion": "",
            "type_oracle": "string"
        },
        {
            "name": "LPP_NBR",
            "description": "Nombre de LPP pos\u00e9s",
            "type": "string",
            "length": "nan",
            "format": "default",
            "nomenclature": "-",
            "dateCreated": "2007",
            "dateDeleted": "2008",
            "dateMissing": [],
            "observation": "",
            "regle_gestion": "",
            "type_oracle": "string"
        },
        {
            "name": "MOY_PRI",
            "description": "Prix moyen",
            "type": "string",
            "length": "nan",
            "format": "default",
            "nomenclature": "-",
            "dateCreated": "2007",
            "dateDeleted": "2008",
            "dateMissing": [],
            "observation": "",
            "regle_gestion": "",
            "type_oracle": "string"
        }
    ],
    "title": "Dispositifs m\u00e9dicaux implantables (extension de fichier .dmi)",
    "produit": "PMSI MCO",
    "history": {
        "dateCreated": "2007",
        "dateDeleted": 2008.0,
        "dateMissing": []
    },
    "champ": "Public",
    "observation": "",
    "foreignKeys": [
        {
            "fields": [
                "ETA_NUM"
            ],
            "reference": {
                "resource": "T_MCOaaE",
                "fields": [
                    "ETA_NUM"
                ]
            }
        }
    ]
}