{
    "fields": [
      {
        "name": "DDP_SPE_COD",
        "type": "integer",
        "format": "default",
        "role": "code"
      },
      {
        "name": "DDP_SPE_LIB",
        "type": "string",
        "format": "default",
        "role": "label"
      }
    ],
    "missingValues": [],
    "name": "DDP_SPE_COD",
    "title": "Discipline de l'établissement exécutant (OPEN_DAMIR)",
    "primaryKey": "DDP_SPE_COD"
  }