{
    "name": "OPEN_LPP",
    "fields": [
        {
            "name": "TITRE",
            "description": "TITRE LPP",
            "type": "string",
            "length": "",
            "format": "default",
            "nomenclature": "-",
            "dateCreated": "",
            "dateDeleted": "",
            "dateMissing": [],
            "observation": "",
            "regle_gestion": "",
            "type_oracle": "string"
        },
        {
            "name": "L_TITRE",
            "description": "Libell\u00e9 TITRE LPP",
            "type": "string",
            "length": "",
            "format": "default",
            "nomenclature": "-",
            "dateCreated": "",
            "dateDeleted": "",
            "dateMissing": [],
            "observation": "",
            "regle_gestion": "",
            "type_oracle": "string"
        },
        {
            "name": "SC1",
            "description": "Sous-Chapitre Niveau 1",
            "type": "string",
            "length": "",
            "format": "default",
            "nomenclature": "-",
            "dateCreated": "",
            "dateDeleted": "",
            "dateMissing": [],
            "observation": "",
            "regle_gestion": "",
            "type_oracle": "string"
        },
        {
            "name": "L_SC1",
            "description": "Libell\u00e9 Sous-Chapitre Niveau 1",
            "type": "string",
            "length": "",
            "format": "default",
            "nomenclature": "-",
            "dateCreated": "",
            "dateDeleted": "",
            "dateMissing": [],
            "observation": "",
            "regle_gestion": "",
            "type_oracle": "string"
        },
        {
            "name": "SC2",
            "description": "Sous-Chapitre Niveau 2",
            "type": "string",
            "length": "",
            "format": "default",
            "nomenclature": "-",
            "dateCreated": "",
            "dateDeleted": "",
            "dateMissing": [],
            "observation": "",
            "regle_gestion": "",
            "type_oracle": "string"
        },
        {
            "name": "L_SC2",
            "description": "Libell\u00e9 Sous-Chapitre Niveau 2",
            "type": "string",
            "length": "",
            "format": "default",
            "nomenclature": "-",
            "dateCreated": "",
            "dateDeleted": "",
            "dateMissing": [],
            "observation": "",
            "regle_gestion": "",
            "type_oracle": "string"
        },
        {
            "name": "CODE_LPP",
            "description": "Code fin LPP",
            "type": "integer",
            "length": "",
            "format": "default",
            "nomenclature": "-",
            "dateCreated": "",
            "dateDeleted": "",
            "dateMissing": [],
            "observation": "",
            "regle_gestion": "",
            "type_oracle": "number"
        },
        {
            "name": "L_CODE_LPP",
            "description": "Libell\u00e9 Code fin LPP",
            "type": "string",
            "length": "",
            "format": "default",
            "nomenclature": "-",
            "dateCreated": "",
            "dateDeleted": "",
            "dateMissing": [],
            "observation": "",
            "regle_gestion": "",
            "type_oracle": "string"
        },
        {
            "name": "AGE",
            "description": "Age au moment des soins",
            "type": "integer",
            "length": "",
            "format": "default",
            "nomenclature": "-",
            "dateCreated": "",
            "dateDeleted": "",
            "dateMissing": [],
            "observation": "",
            "regle_gestion": "",
            "type_oracle": "number"
        },
        {
            "name": "SEXE",
            "description": "Sexe",
            "type": "integer",
            "length": "",
            "format": "default",
            "nomenclature": "-",
            "dateCreated": "",
            "dateDeleted": "",
            "dateMissing": [],
            "observation": "",
            "regle_gestion": "",
            "type_oracle": "number"
        },
        {
            "name": "BEN_REG",
            "description": "R\u00e9gion de R\u00e9sidence du B\u00e9n\u00e9ficiaire",
            "type": "string",
            "length": "",
            "format": "default",
            "nomenclature": "-",
            "dateCreated": "",
            "dateDeleted": "",
            "dateMissing": [],
            "observation": "",
            "regle_gestion": "",
            "type_oracle": "string"
        },
        {
            "name": "PSP_SPE",
            "description": "Prescripteur",
            "type": "integer",
            "length": "",
            "format": "default",
            "nomenclature": "-",
            "dateCreated": "",
            "dateDeleted": "",
            "dateMissing": [],
            "observation": "",
            "regle_gestion": "",
            "type_oracle": "number"
        },
        {
            "name": "REM",
            "description": "Montant Rembours\u00e9",
            "type": "integer",
            "length": "",
            "format": "default",
            "nomenclature": "-",
            "dateCreated": "",
            "dateDeleted": "",
            "dateMissing": [],
            "observation": "",
            "regle_gestion": "",
            "type_oracle": "number"
        },
        {
            "name": "BSE",
            "description": "Base de Remboursement",
            "type": "integer",
            "length": "",
            "format": "default",
            "nomenclature": "-",
            "dateCreated": "",
            "dateDeleted": "",
            "dateMissing": [],
            "observation": "",
            "regle_gestion": "",
            "type_oracle": "number"
        },
        {
            "name": "QTE",
            "description": "Quantit\u00e9 rembours\u00e9e",
            "type": "integer",
            "length": "",
            "format": "default",
            "nomenclature": "-",
            "dateCreated": "",
            "dateDeleted": "",
            "dateMissing": [],
            "observation": "",
            "regle_gestion": "",
            "type_oracle": "number"
        },
        {
            "name": "NBC",
            "description": "Nombre de consommants (disponible uniquement dans les bases type NB_)",
            "type": "integer",
            "length": "",
            "format": "default",
            "nomenclature": "-",
            "dateCreated": "",
            "dateDeleted": "",
            "dateMissing": [],
            "observation": "",
            "regle_gestion": "",
            "type_oracle": "number"
        }
    ],
    "title": "OPEN LPP (base compl\u00e8te sur les d\u00e9penses de dispositifs m\u00e9dicaux inscrits \u00e0 la liste des produits et prestations (LPP))",
    "produit": "OPEN_DATA",
    "history": {
        "dateCreated": "2014",
        "dateDeleted": "",
        "dateMissing": []
    },
    "champ": "",
    "observation": ""
}