{
    "name": "OPEN_DAMIR",
    "fields": [
        {
            "name": "AGE_BEN_SNDS",
            "description": "Tranche d'Age B\u00e9n\u00e9ficiaire au moment des soins",
            "type": "integer",
            "length": "",
            "format": "default",
            "nomenclature": "-",
            "dateCreated": "",
            "dateDeleted": "",
            "dateMissing": [],
            "observation": "",
            "regle_gestion": "",
            "type_oracle": "number"
        },
        {
            "name": "ASU_NAT",
            "description": "Nature d'Assurance",
            "type": "integer",
            "length": "",
            "format": "default",
            "nomenclature": "-",
            "dateCreated": "",
            "dateDeleted": "",
            "dateMissing": [],
            "observation": "",
            "regle_gestion": "",
            "type_oracle": "number"
        },
        {
            "name": "ATT_NAT",
            "description": "Nature de l'Accident du Travail",
            "type": "integer",
            "length": "",
            "format": "default",
            "nomenclature": "-",
            "dateCreated": "",
            "dateDeleted": "",
            "dateMissing": [],
            "observation": "",
            "regle_gestion": "",
            "type_oracle": "number"
        },
        {
            "name": "BEN_CMU_TOP",
            "description": "Top B\u00e9n\u00e9ficiaire CMU-C",
            "type": "integer",
            "length": "",
            "format": "default",
            "nomenclature": "-",
            "dateCreated": "",
            "dateDeleted": "",
            "dateMissing": [],
            "observation": "",
            "regle_gestion": "",
            "type_oracle": "number"
        },
        {
            "name": "BEN_QLT_COD",
            "description": "Qualit\u00e9 du B\u00e9n\u00e9ficiaire",
            "type": "integer",
            "length": "",
            "format": "default",
            "nomenclature": "-",
            "dateCreated": "",
            "dateDeleted": "",
            "dateMissing": [],
            "observation": "",
            "regle_gestion": "",
            "type_oracle": "number"
        },
        {
            "name": "BEN_RES_REG",
            "description": "R\u00e9gion de R\u00e9sidence du B\u00e9n\u00e9ficiaire \u00e0 partir de 2015 (tables A)",
            "type": "integer",
            "length": "",
            "format": "default",
            "nomenclature": "-",
            "dateCreated": "",
            "dateDeleted": "",
            "dateMissing": [],
            "observation": "",
            "regle_gestion": "",
            "type_oracle": "number"
        },
        {
            "name": "BEN_RES_ZEAT",
            "description": "ZEAT de R\u00e9sidence du B\u00e9n\u00e9ficiaire jusqu'\u00e0 2014 (tables P)",
            "type": "integer",
            "length": "",
            "format": "default",
            "nomenclature": "-",
            "dateCreated": "",
            "dateDeleted": "",
            "dateMissing": [],
            "observation": "",
            "regle_gestion": "",
            "type_oracle": "number"
        },
        {
            "name": "BEN_SEX_COD",
            "description": "Sexe du B\u00e9n\u00e9ficiaire",
            "type": "integer",
            "length": "",
            "format": "default",
            "nomenclature": "-",
            "dateCreated": "",
            "dateDeleted": "",
            "dateMissing": [],
            "observation": "",
            "regle_gestion": "",
            "type_oracle": "number"
        },
        {
            "name": "CPL_COD",
            "description": "Compl\u00e9ment d'Acte",
            "type": "integer",
            "length": "",
            "format": "default",
            "nomenclature": "-",
            "dateCreated": "",
            "dateDeleted": "",
            "dateMissing": [],
            "observation": "",
            "regle_gestion": "",
            "type_oracle": "number"
        },
        {
            "name": "CPT_ENV_TYP",
            "description": "Type d'Enveloppe",
            "type": "integer",
            "length": "",
            "format": "default",
            "nomenclature": "-",
            "dateCreated": "",
            "dateDeleted": "",
            "dateMissing": [],
            "observation": "",
            "regle_gestion": "",
            "type_oracle": "number"
        },
        {
            "name": "DDP_SPE_COD",
            "description": "Discipline de Prestation Etb Ex\u00e9cutant",
            "type": "integer",
            "length": "",
            "format": "default",
            "nomenclature": "-",
            "dateCreated": "",
            "dateDeleted": "",
            "dateMissing": [],
            "observation": "",
            "regle_gestion": "",
            "type_oracle": "number"
        },
        {
            "name": "DRG_AFF_NAT",
            "description": "Nature du Destinataire de R\u00e8glement affin\u00e9",
            "type": "integer",
            "length": "",
            "format": "default",
            "nomenclature": "-",
            "dateCreated": "",
            "dateDeleted": "",
            "dateMissing": [],
            "observation": "",
            "regle_gestion": "",
            "type_oracle": "number"
        },
        {
            "name": "ETE_CAT_SNDS",
            "description": "Cat\u00e9gorie Etb Ex\u00e9cutant",
            "type": "integer",
            "length": "",
            "format": "default",
            "nomenclature": "-",
            "dateCreated": "",
            "dateDeleted": "",
            "dateMissing": [],
            "observation": "",
            "regle_gestion": "",
            "type_oracle": "number"
        },
        {
            "name": "ETE_IND_TAA",
            "description": "Indicateur TAA Priv\u00e9/Public",
            "type": "integer",
            "length": "",
            "format": "default",
            "nomenclature": "-",
            "dateCreated": "",
            "dateDeleted": "",
            "dateMissing": [],
            "observation": "",
            "regle_gestion": "",
            "type_oracle": "number"
        },
        {
            "name": "ETE_REG_COD",
            "description": "R\u00e9gion d'Implantation Etb Ex\u00e9cutant \u00e0 partir de 2015 (tables A)",
            "type": "integer",
            "length": "",
            "format": "default",
            "nomenclature": "-",
            "dateCreated": "",
            "dateDeleted": "",
            "dateMissing": [],
            "observation": "",
            "regle_gestion": "",
            "type_oracle": "number"
        },
        {
            "name": "ETE_TYP_SNDS",
            "description": "Type Etb Ex\u00e9cutant",
            "type": "integer",
            "length": "",
            "format": "default",
            "nomenclature": "-",
            "dateCreated": "",
            "dateDeleted": "",
            "dateMissing": [],
            "observation": "",
            "regle_gestion": "",
            "type_oracle": "number"
        },
        {
            "name": "ETE_ZEAT_COD",
            "description": "ZEAT d'Implantation Etb Ex\u00e9cutant jusqu'\u00e0 2014 (tables P)",
            "type": "integer",
            "length": "",
            "format": "default",
            "nomenclature": "-",
            "dateCreated": "",
            "dateDeleted": "",
            "dateMissing": [],
            "observation": "",
            "regle_gestion": "",
            "type_oracle": "number"
        },
        {
            "name": "ETP_CAT_SNDS",
            "description": "Cat\u00e9gorie Etb Prescripteur",
            "type": "integer",
            "length": "",
            "format": "default",
            "nomenclature": "-",
            "dateCreated": "",
            "dateDeleted": "",
            "dateMissing": [],
            "observation": "",
            "regle_gestion": "",
            "type_oracle": "number"
        },
        {
            "name": "ETP_REG_COD",
            "description": "R\u00e9gion d'Implantation Etb Prescripteur \u00e0 partir de 2015 (tables A)",
            "type": "integer",
            "length": "",
            "format": "default",
            "nomenclature": "-",
            "dateCreated": "",
            "dateDeleted": "",
            "dateMissing": [],
            "observation": "",
            "regle_gestion": "",
            "type_oracle": "number"
        },
        {
            "name": "ETP_ZEAT_COD",
            "description": "ZEAT d'Implantation Etb Prescripteur jusqu'\u00e0 2014 (tables P)",
            "type": "integer",
            "length": "",
            "format": "default",
            "nomenclature": "-",
            "dateCreated": "",
            "dateDeleted": "",
            "dateMissing": [],
            "observation": "",
            "regle_gestion": "",
            "type_oracle": "number"
        },
        {
            "name": "EXE_INS_REG",
            "description": "R\u00e9gion du PS Ex\u00e9cutant \u00e0 partir de 2015 (tables A)",
            "type": "integer",
            "length": "",
            "format": "default",
            "nomenclature": "-",
            "dateCreated": "",
            "dateDeleted": "",
            "dateMissing": [],
            "observation": "",
            "regle_gestion": "",
            "type_oracle": "number"
        },
        {
            "name": "EXE_INS_ZEAT",
            "description": "ZEAT du PS Ex\u00e9cutant jusqu'\u00e0 2014 (tables P)",
            "type": "integer",
            "length": "",
            "format": "default",
            "nomenclature": "-",
            "dateCreated": "",
            "dateDeleted": "",
            "dateMissing": [],
            "observation": "",
            "regle_gestion": "",
            "type_oracle": "number"
        },
        {
            "name": "EXO_MTF",
            "description": "Motif d'Exon\u00e9ration du Ticket Mod\u00e9rateur",
            "type": "integer",
            "length": "",
            "format": "default",
            "nomenclature": "-",
            "dateCreated": "",
            "dateDeleted": "",
            "dateMissing": [],
            "observation": "",
            "regle_gestion": "",
            "type_oracle": "number"
        },
        {
            "name": "FLT_ACT_COG",
            "description": "Coefficient Global de la Prestation Pr\u00e9filtr\u00e9",
            "type": "integer",
            "length": "",
            "format": "default",
            "nomenclature": "-",
            "dateCreated": "",
            "dateDeleted": "",
            "dateMissing": [],
            "observation": "",
            "regle_gestion": "",
            "type_oracle": "number"
        },
        {
            "name": "FLT_ACT_NBR",
            "description": "D\u00e9nombrement de la Prestation Pr\u00e9filtr\u00e9",
            "type": "integer",
            "length": "",
            "format": "default",
            "nomenclature": "-",
            "dateCreated": "",
            "dateDeleted": "",
            "dateMissing": [],
            "observation": "",
            "regle_gestion": "",
            "type_oracle": "number"
        },
        {
            "name": "FLT_ACT_QTE",
            "description": "Quantit\u00e9 de la Prestation Pr\u00e9filtr\u00e9e",
            "type": "integer",
            "length": "",
            "format": "default",
            "nomenclature": "-",
            "dateCreated": "",
            "dateDeleted": "",
            "dateMissing": [],
            "observation": "",
            "regle_gestion": "",
            "type_oracle": "number"
        },
        {
            "name": "FLT_DEP_MNT",
            "description": "Montant du D\u00e9passement de la Prestation Pr\u00e9filtr\u00e9",
            "type": "integer",
            "length": "",
            "format": "default",
            "nomenclature": "-",
            "dateCreated": "",
            "dateDeleted": "",
            "dateMissing": [],
            "observation": "",
            "regle_gestion": "",
            "type_oracle": "number"
        },
        {
            "name": "FLT_PAI_MNT",
            "description": "Montant de la D\u00e9pense de la Prestation Pr\u00e9filtr\u00e9e",
            "type": "integer",
            "length": "",
            "format": "default",
            "nomenclature": "-",
            "dateCreated": "",
            "dateDeleted": "",
            "dateMissing": [],
            "observation": "",
            "regle_gestion": "",
            "type_oracle": "number"
        },
        {
            "name": "FLT_REM_MNT",
            "description": "Montant Vers\u00e9/Rembours\u00e9 Pr\u00e9filtr\u00e9",
            "type": "integer",
            "length": "",
            "format": "default",
            "nomenclature": "-",
            "dateCreated": "",
            "dateDeleted": "",
            "dateMissing": [],
            "observation": "",
            "regle_gestion": "",
            "type_oracle": "number"
        },
        {
            "name": "FLX_ANN_MOI",
            "description": "Ann\u00e9e et Mois de Traitement",
            "type": "date",
            "length": "",
            "format": "default",
            "nomenclature": "-",
            "dateCreated": "",
            "dateDeleted": "",
            "dateMissing": [],
            "observation": "",
            "regle_gestion": "",
            "type_oracle": "date"
        },
        {
            "name": "MDT_TYP_COD",
            "description": "Mode de Traitement Etb Ex\u00e9cutant",
            "type": "integer",
            "length": "",
            "format": "default",
            "nomenclature": "-",
            "dateCreated": "",
            "dateDeleted": "",
            "dateMissing": [],
            "observation": "",
            "regle_gestion": "",
            "type_oracle": "number"
        },
        {
            "name": "MFT_COD",
            "description": "Mode de Fixation des Tarifs Etb Ex\u00e9cutant",
            "type": "integer",
            "length": "",
            "format": "default",
            "nomenclature": "-",
            "dateCreated": "",
            "dateDeleted": "",
            "dateMissing": [],
            "observation": "",
            "regle_gestion": "",
            "type_oracle": "number"
        },
        {
            "name": "MTM_NAT",
            "description": "Modulation du Ticket Mod\u00e9rateur",
            "type": "integer",
            "length": "",
            "format": "default",
            "nomenclature": "-",
            "dateCreated": "",
            "dateDeleted": "",
            "dateMissing": [],
            "observation": "",
            "regle_gestion": "",
            "type_oracle": "number"
        },
        {
            "name": "ORG_CLE_REG",
            "description": "R\u00e9gion de l'Organisme de Liquidation \u00e0 partir de 2015 (tables A)",
            "type": "integer",
            "length": "",
            "format": "default",
            "nomenclature": "-",
            "dateCreated": "",
            "dateDeleted": "",
            "dateMissing": [],
            "observation": "",
            "regle_gestion": "",
            "type_oracle": "number"
        },
        {
            "name": "ORG_CLE_ZEAT",
            "description": "ZEAT de l'Organisme de Liquidation jusqu'\u00e0 2014 (tables P)",
            "type": "integer",
            "length": "",
            "format": "default",
            "nomenclature": "-",
            "dateCreated": "",
            "dateDeleted": "",
            "dateMissing": [],
            "observation": "",
            "regle_gestion": "",
            "type_oracle": "number"
        },
        {
            "name": "PRE_INS_REG",
            "description": "R\u00e9gion du PS Prescripteur \u00e0 partir de 2015 (tables A)",
            "type": "integer",
            "length": "",
            "format": "default",
            "nomenclature": "-",
            "dateCreated": "",
            "dateDeleted": "",
            "dateMissing": [],
            "observation": "",
            "regle_gestion": "",
            "type_oracle": "number"
        },
        {
            "name": "PRE_INS_ZEAT",
            "description": "ZEAT du PS Prescripteur jusqu'\u00e0 2014 (tables P)",
            "type": "integer",
            "length": "",
            "format": "default",
            "nomenclature": "-",
            "dateCreated": "",
            "dateDeleted": "",
            "dateMissing": [],
            "observation": "",
            "regle_gestion": "",
            "type_oracle": "number"
        },
        {
            "name": "PRS_ACT_COG",
            "description": "Coefficient Global",
            "type": "integer",
            "length": "",
            "format": "default",
            "nomenclature": "-",
            "dateCreated": "",
            "dateDeleted": "",
            "dateMissing": [],
            "observation": "",
            "regle_gestion": "",
            "type_oracle": "number"
        },
        {
            "name": "PRS_ACT_NBR",
            "description": "D\u00e9nombrement",
            "type": "integer",
            "length": "",
            "format": "default",
            "nomenclature": "-",
            "dateCreated": "",
            "dateDeleted": "",
            "dateMissing": [],
            "observation": "",
            "regle_gestion": "",
            "type_oracle": "number"
        },
        {
            "name": "PRS_ACT_QTE",
            "description": "Quantit\u00e9",
            "type": "integer",
            "length": "",
            "format": "default",
            "nomenclature": "-",
            "dateCreated": "",
            "dateDeleted": "",
            "dateMissing": [],
            "observation": "",
            "regle_gestion": "",
            "type_oracle": "number"
        },
        {
            "name": "PRS_DEP_MNT",
            "description": "Montant du D\u00e9passement",
            "type": "integer",
            "length": "",
            "format": "default",
            "nomenclature": "-",
            "dateCreated": "",
            "dateDeleted": "",
            "dateMissing": [],
            "observation": "",
            "regle_gestion": "",
            "type_oracle": "number"
        },
        {
            "name": "PRS_FJH_TYP",
            "description": "Type de Prise en Charge Forfait Journalier",
            "type": "integer",
            "length": "",
            "format": "default",
            "nomenclature": "-",
            "dateCreated": "",
            "dateDeleted": "",
            "dateMissing": [],
            "observation": "",
            "regle_gestion": "",
            "type_oracle": "number"
        },
        {
            "name": "PRS_NAT",
            "description": "Nature de Prestation",
            "type": "integer",
            "length": "",
            "format": "default",
            "nomenclature": "-",
            "dateCreated": "",
            "dateDeleted": "",
            "dateMissing": [],
            "observation": "",
            "regle_gestion": "",
            "type_oracle": "number"
        },
        {
            "name": "PRS_PAI_MNT",
            "description": "Montant de la D\u00e9pense",
            "type": "integer",
            "length": "",
            "format": "default",
            "nomenclature": "-",
            "dateCreated": "",
            "dateDeleted": "",
            "dateMissing": [],
            "observation": "",
            "regle_gestion": "",
            "type_oracle": "number"
        },
        {
            "name": "PRS_PDS_QCP",
            "description": "Code Qualificatif Parcours de Soins (sortie)",
            "type": "integer",
            "length": "",
            "format": "default",
            "nomenclature": "-",
            "dateCreated": "",
            "dateDeleted": "",
            "dateMissing": [],
            "observation": "",
            "regle_gestion": "",
            "type_oracle": "number"
        },
        {
            "name": "PRS_PPU_SEC",
            "description": "Code Secteur Priv\u00e9/Public",
            "type": "integer",
            "length": "",
            "format": "default",
            "nomenclature": "-",
            "dateCreated": "",
            "dateDeleted": "",
            "dateMissing": [],
            "observation": "",
            "regle_gestion": "",
            "type_oracle": "number"
        },
        {
            "name": "PRS_REM_BSE",
            "description": "Base de Remboursement",
            "type": "integer",
            "length": "",
            "format": "default",
            "nomenclature": "-",
            "dateCreated": "",
            "dateDeleted": "",
            "dateMissing": [],
            "observation": "",
            "regle_gestion": "",
            "type_oracle": "number"
        },
        {
            "name": "PRS_REM_MNT",
            "description": "Montant Vers\u00e9/Rembours\u00e9",
            "type": "integer",
            "length": "",
            "format": "default",
            "nomenclature": "-",
            "dateCreated": "",
            "dateDeleted": "",
            "dateMissing": [],
            "observation": "",
            "regle_gestion": "",
            "type_oracle": "number"
        },
        {
            "name": "PRS_REM_TAU",
            "description": "Taux de Remboursement",
            "type": "integer",
            "length": "",
            "format": "default",
            "nomenclature": "-",
            "dateCreated": "",
            "dateDeleted": "",
            "dateMissing": [],
            "observation": "",
            "regle_gestion": "",
            "type_oracle": "number"
        },
        {
            "name": "PRS_REM_TYP",
            "description": "Type de Remboursement",
            "type": "integer",
            "length": "",
            "format": "default",
            "nomenclature": "-",
            "dateCreated": "",
            "dateDeleted": "",
            "dateMissing": [],
            "observation": "",
            "regle_gestion": "",
            "type_oracle": "number"
        },
        {
            "name": "PSE_ACT_CAT",
            "description": "Cat\u00e9gorie de l' Ex\u00e9cutant",
            "type": "integer",
            "length": "",
            "format": "default",
            "nomenclature": "-",
            "dateCreated": "",
            "dateDeleted": "",
            "dateMissing": [],
            "observation": "",
            "regle_gestion": "",
            "type_oracle": "number"
        },
        {
            "name": "PSE_ACT_SNDS",
            "description": "Nature d'Activit\u00e9 PS Ex\u00e9cutant",
            "type": "integer",
            "length": "",
            "format": "default",
            "nomenclature": "-",
            "dateCreated": "",
            "dateDeleted": "",
            "dateMissing": [],
            "observation": "",
            "regle_gestion": "",
            "type_oracle": "number"
        },
        {
            "name": "PSE_SPE_SNDS",
            "description": "Sp\u00e9cialit\u00e9 M\u00e9dicale PS Ex\u00e9cutant",
            "type": "integer",
            "length": "",
            "format": "default",
            "nomenclature": "-",
            "dateCreated": "",
            "dateDeleted": "",
            "dateMissing": [],
            "observation": "",
            "regle_gestion": "",
            "type_oracle": "number"
        },
        {
            "name": "PSE_STJ_SNDS",
            "description": "Statut Juridique PS Ex\u00e9cutant",
            "type": "integer",
            "length": "",
            "format": "default",
            "nomenclature": "-",
            "dateCreated": "",
            "dateDeleted": "",
            "dateMissing": [],
            "observation": "",
            "regle_gestion": "",
            "type_oracle": "number"
        },
        {
            "name": "PSP_ACT_CAT",
            "description": "Cat\u00e9gorie du Prescripteur",
            "type": "integer",
            "length": "",
            "format": "default",
            "nomenclature": "-",
            "dateCreated": "",
            "dateDeleted": "",
            "dateMissing": [],
            "observation": "",
            "regle_gestion": "",
            "type_oracle": "number"
        },
        {
            "name": "PSP_ACT_SNDS",
            "description": "Nature d'Activit\u00e9 PS Prescripteur",
            "type": "integer",
            "length": "",
            "format": "default",
            "nomenclature": "-",
            "dateCreated": "",
            "dateDeleted": "",
            "dateMissing": [],
            "observation": "",
            "regle_gestion": "",
            "type_oracle": "number"
        },
        {
            "name": "PSP_SPE_SNDS",
            "description": "Sp\u00e9cialit\u00e9 M\u00e9dicale PS Ex\u00e9cutant",
            "type": "integer",
            "length": "",
            "format": "default",
            "nomenclature": "-",
            "dateCreated": "",
            "dateDeleted": "",
            "dateMissing": [],
            "observation": "",
            "regle_gestion": "",
            "type_oracle": "number"
        },
        {
            "name": "PSP_STJ_SNDS",
            "description": "Statut Juridique PS Prescripteur",
            "type": "integer",
            "length": "",
            "format": "default",
            "nomenclature": "-",
            "dateCreated": "",
            "dateDeleted": "",
            "dateMissing": [],
            "observation": "",
            "regle_gestion": "",
            "type_oracle": "number"
        },
        {
            "name": "SOI_ANN",
            "description": "Ann\u00e9e de Soins",
            "type": "integer",
            "length": "",
            "format": "default",
            "nomenclature": "-",
            "dateCreated": "",
            "dateDeleted": "",
            "dateMissing": [],
            "observation": "",
            "regle_gestion": "",
            "type_oracle": "number"
        },
        {
            "name": "SOI_MOI",
            "description": "Mois de Soins",
            "type": "date",
            "length": "",
            "format": "default",
            "nomenclature": "-",
            "dateCreated": "",
            "dateDeleted": "",
            "dateMissing": [],
            "observation": "",
            "regle_gestion": "",
            "type_oracle": "number"
        },
        {
            "name": "TOP_PS5_TRG",
            "description": "Top P\u00e9rim\u00e8tre hors CMU C et prestations pour information",
            "type": "integer",
            "length": "",
            "format": "default",
            "nomenclature": "-",
            "dateCreated": "",
            "dateDeleted": "",
            "dateMissing": [],
            "observation": "",
            "regle_gestion": "",
            "type_oracle": "number"
        }
    ],
    "title": "OPEN DAMIR (base compl\u00e8te sur les d\u00e9penses d'assurance maladie Inter-R\u00e9gimes)",
    "produit": "OPEN_DATA",
    "history": {
        "dateCreated": "2009",
        "dateDeleted": "",
        "dateMissing": []
    },
    "champ": "",
    "observation": ""
}