DCD_LIE_COD;DCD_LIE_LIB;TEC_COL
0;NON PRECISE;0
1;DOMICILE;0
2;ETABLISSEMENT PUBLIC DE SANTE;0
3;ETABLISSEMENT PRIVE DE SANTE;0
4;EHPAD, MAISON DE RETRAITE;0
5;VOIE PUBLIQUE;0
6;AUTRE LIEU OU INDETERMINE;0
7;ETABLISSEMENT PENITENTIAIRE (certificat de 2017 uniquement);0
