ORG_BSE_OLD;ORG_BSE_NEW;ORG_BSE_ORD
02A601;02A601;1
02A611;02A611;1
02A621;02A621;1
02A631;02A631;1
02A641;02A641;1
02A651;02A651;1
02A661;02A661;1
02A671;02A671;1
02A672;02A672;1
02A681;02A681;1
02A691;02A691;1
02A701;02A701;1
02A711;02A711;1
02A721;02A721;1
02A731;02A731;1
02A741;02A741;1
02A751;02A751;1
02A761;02A761;1
02A771;02A771;1
02A781;02A781;1
02A791;02A791;1
02A801;02A801;1
02A811;02A811;1
02A821;02A821;1
02A831;02A831;1
02A841;02A841;1
02A851;02A851;1
02A861;02A861;1
02A862;02A862;1
02A871;02A871;1
02A881;02A881;1
02A891;02A891;1
02A901;02A901;1
02A911;02A911;1
02A921;02A921;1
02A931;02A931;1
02A941;02A941;1
02A951;02A951;1
02A971;02A971;1
02A972;02A972;1
02A973;02A973;1
02A974;02A974;1
02A999;02A999;1
02C011;02C011;1
02C021;02C021;1
02C022;02C022;1
02C031;02C031;1
02C032;02C032;1
02C041;02C041;1
02C051;02C051;1
02C061;02C061;1
02C071;02C071;1
02C072;02C072;1
02C081;02C081;1
02C091;02C091;1
02C101;02C101;1
02C102;02C102;1
02C111;02C111;1
02C121;02C121;1
02C122;02C122;1
02C131;02C131;1
02C141;02C141;1
02C151;02C151;1
02C161;02C161;1
02C171;02C171;1
02C181;02C181;1
02C182;02C182;1
02C191;02C191;1
02C211;02C211;1
02C231;02C231;1
02C232;02C232;1
02C251;02C251;1
02C252;02C252;1
02C261;02C261;1
02C272;02C272;1
02C301;02C301;1
02C311;02C311;1
02C312;02C312;1
02C321;02C321;1
02C341;02C341;1
02C351;02C351;1
02C371;02C371;1
02C372;02C372;1
02C381;02C381;1
02C391;02C391;1
02C411;02C411;1
02C431;02C431;1
02C441;02C441;1
02C451;02C451;1
02C461;02C461;1
02C471;02C471;1
02C481;02C481;1
02C491;02C491;1
02C501;02C501;1
02C511;02C511;1
02C512;02C512;1
02C521;02C521;1
02C541;02C541;1
02C542;02C542;1
02C551;02C551;1
02C571;02C571;1
02C581;02C581;1
02C595;02C595;1
02C601;02C601;1
02C671;02C671;1
02C672;02C672;1
02C681;02C681;1
02C701;02C701;1
02C741;02C741;1
02C771;02C771;1
02C791;02C791;1
02C862;02C862;1
02C881;02C881;1
02C911;02C911;1
02C931;02C931;1
02C941;02C941;1
02C971;02C971;1
02C972;02C972;1
02C973;02C973;1
02C974;02C974;1
03A001;03A001;1
03A002;03A002;1
03A003;03A003;1
03A004;03A004;1
03A005;03A005;1
03A006;03A006;1
03A007;03A007;1
03A008;03A008;1
03A009;03A009;1
03A010;03A010;1
03A011;03A011;1
03A012;03A012;1
03A013;03A013;1
03A014;03A014;1
03A015;03A015;1
03A016;03A016;1
03A017;03A017;1
03A018;03A018;1
03A019;03A019;1
03A020;03A020;1
03A021;03A021;1
03A022;03A022;1
03A023;03A023;1
03A024;03A024;1
03A025;03A025;1
03A026;03A026;1
03A027;03A027;1
03A028;03A028;1
03A029;03A029;1
03A031;03A031;1
03A032;03A032;1
03A033;03A033;1
03A034;03A034;1
03A035;03A035;1
03A036;03A036;1
03A037;03A037;1
03A038;03A038;1
03A039;03A039;1
03A040;03A040;1
03A041;03A041;1
03A042;03A042;1
03A043;03A043;1
03A044;03A044;1
03A045;03A045;1
03A046;03A046;1
03A047;03A047;1
03A048;03A048;1
03A049;03A049;1
03A050;03A050;1
03A051;03A051;1
03A052;03A052;1
03A053;03A053;1
03A054;03A054;1
03A055;03A055;1
03A056;03A056;1
03A057;03A057;1
03A058;03A058;1
03A059;03A059;1
03A060;03A060;1
03A061;03A061;1
03A062;03A062;1
03A063;03A063;1
03A064;03A064;1
03A065;03A065;1
03A066;03A066;1
03A067;03A067;1
03A069;03A069;1
03A070;03A070;1
03A071;03A071;1
03A072;03A072;1
03A073;03A073;1
03A074;03A074;1
03A075;03A075;1
03A076;03A076;1
03A077;03A077;1
03A078;03A078;1
03A079;03A079;1
03A080;03A080;1
03A081;03A081;1
03A082;03A082;1
03A083;03A083;1
03A084;03A084;1
03A085;03A085;1
03A086;03A086;1
03A087;03A087;1
03A088;03A088;1
03A089;03A089;1
03A091;03A091;1
03A092;03A092;1
03A093;03A093;1
03A094;03A094;1
99C351;99C351;1
99C353;99C353;1
99C361;99C361;1
99C371;99C371;1
99C373;99C373;1
99C381;99C381;1
99C382;99C381;2
99C391;99C391;1
99C401;99C401;1
99C411;99C411;1
99C421;99C422;1
99C422;99C422;2
99C431;99C431;1
99C441;99C441;1
99C442;99C441;2
99C444;99C444;1
99C451;99C451;1
99C461;99C461;1
99C471;99C471;1
99C481;99C481;1
99C491;99C491;1
99C492;99C491;2
99C501;99C501;1
99C503;99C503;1
99C508;99C508;1
99C509;99C509;1
99C511;99C511;1
99C513;99C513;1
99C520;99C520;1
99C521;99C521;1
99C531;99C531;1
99C532;99C532;1
99C537;99C537;1
99C541;99C542;1
99C542;99C542;2
99C551;99C551;1
99C561;99C561;1
99C571;99C571;1
99C572;99C571;2
99C573;99C571;3
99C581;99C581;1
99C591;99C594;1
99C594;99C594;2
99C593;99C595;1
99C595;99C595;2
99C597;99C597;1
99C598;99C597;2
99C592;99C599;1
99C596;99C599;2
99C599;99C599;3
99C601;99C601;1
99C602;99C601;2
99C611;99C611;1
99C622;99C623;1
99C623;99C623;2
99C621;99C624;1
99C624;99C624;2
99C631;99C631;1
99C641;99C641;1
99C642;99C642;1
99C651;99C651;1
99C661;99C661;1
99C671;99C673;1
99C672;99C673;2
99C673;99C673;3
99C677;99C677;1
99C679;99C679;1
99C681;99C682;1
99C682;99C682;2
99C691;99C691;1
99C692;99C691;2
99C701;99C701;1
99C711;99C711;1
99C721;99C721;1
99C731;99C731;1
99C741;99C741;1
99C751;99C751;1
99C752;99C752;1
99C753;99C753;1
99C759;99C759;1
99C763;99C763;1
99C761;99C764;1
99C762;99C764;2
99C764;99C764;3
99C770;99C770;1
99C771;99C771;1
99C773;99C773;1
99C781;99C781;1
99C789;99C789;1
99C791;99C791;1
99C801;99C801;1
99C803;99C803;1
99C811;99C811;1
99C821;99C821;1
99C831;99C831;1
99C841;99C841;1
99C851;99C851;1
99C861;99C861;1
99C871;99C871;1
99C881;99C881;1
99C888;99C888;1
99C891;99C891;1
99C901;99C901;1
99C911;99C911;1
99C921;99C921;1
99C928;99C928;1
99C931;99C931;1
99C941;99C941;1
99C951;99C951;1
99C971;99C971;1
99C972;99C972;1
99C973;99C973;1
99C974;99C974;1
99C976;99C976;1
99C980;99C980;1
99C990;99C990;1
99C991;99C991;1
99C999;99C999;1
02A011;02A011;1
02A012;02A012;1
02A021;02A021;1
02A022;02A022;1
02A031;02A031;1
02A032;02A032;1
02A041;02A041;1
02A051;02A051;1
02A052;02A052;1
02A061;02A061;1
02A071;02A071;1
02A072;02A072;1
02A081;02A081;1
02A091;02A091;1
02A092;02A092;1
02A101;02A101;1
02A102;02A102;1
02A111;02A111;1
02A112;02A112;1
02A121;02A121;1
02A122;02A122;1
02A131;02A131;1
02A132;02A132;1
02A141;02A141;1
02A151;02A151;1
02A152;02A152;1
02A161;02A161;1
02A171;02A171;1
02A172;02A172;1
02A181;02A181;1
02A182;02A182;1
02A191;02A191;1
02A192;02A192;1
02A201;02A201;1
02A211;02A211;1
02A212;02A212;1
02A221;02A221;1
02A231;02A231;1
02A232;02A232;1
02A241;02A241;1
02A251;02A251;1
02A252;02A252;1
02A261;02A261;1
02A271;02A271;1
02A272;02A272;1
02A281;02A281;1
02A291;02A291;1
02A292;02A292;1
02A301;02A301;1
02A311;02A311;1
02A312;02A312;1
02A321;02A321;1
02A331;02A331;1
02A332;02A332;1
02A341;02A341;1
02A342;02A342;1
02A351;02A351;1
02A352;02A352;1
02A361;02A361;1
02A371;02A371;1
02A372;02A372;1
02A381;02A381;1
02A391;02A391;1
02A392;02A392;1
02A401;02A401;1
02A411;02A411;1
02A412;02A412;1
02A421;02A421;1
02A431;02A431;1
02A432;02A432;1
02A441;02A441;1
02A451;02A451;1
02A452;02A452;1
02A461;02A461;1
02A471;02A471;1
02A481;02A481;1
02A491;02A491;1
02A492;02A492;1
02A501;02A501;1
02A504;02A504;1
02A511;02A511;1
02A512;02A512;1
02A521;02A521;1
02A531;02A531;1
02A541;02A541;1
02A542;02A542;1
02A551;02A551;1
02A561;02A561;1
02A571;02A571;1
02A572;02A572;1
02A581;02A581;1
02A591;02A591;1
02A595;02A595;1
96C281;96C281;1
96C291;96C291;1
96C292;96C291;2
96C301;96C301;1
96C311;96C311;1
96C321;96C321;1
96C331;96C331;1
96C341;96C342;1
96C342;96C342;2
96C351;96C351;1
96C361;96C361;1
96C371;96C371;1
96C381;96C381;1
96C382;96C381;2
96C391;96C391;1
96C401;96C401;1
96C411;96C411;1
96C421;96C422;1
96C422;96C422;2
96C431;96C431;1
96C441;96C441;1
96C442;96C441;2
96C451;96C451;1
96C461;96C461;1
96C471;96C471;1
96C481;96C481;1
96C491;96C491;1
96C492;96C491;2
96C501;96C501;1
96C511;96C511;1
96C521;96C521;1
96C531;96C531;1
96C541;96C542;1
96C542;96C542;2
96C551;96C551;1
96C561;96C561;1
96C571;96C571;1
96C572;96C571;2
96C573;96C571;3
96C581;96C581;1
96C591;96C594;1
96C594;96C594;2
96C593;96C595;1
96C595;96C595;2
96C597;96C597;1
96C598;96C597;2
96C592;96C599;1
96C596;96C599;2
96C599;96C599;3
96C601;96C601;1
96C602;96C601;2
96C611;96C611;1
96C622;96C623;1
96C623;96C623;2
96C621;96C624;1
96C624;96C624;2
96C631;96C631;1
96C641;96C641;1
96C642;96C642;1
96C651;96C651;1
96C661;96C661;1
96C671;96C673;1
96C672;96C673;2
96C673;96C673;3
96C681;96C682;1
96C682;96C682;2
96C691;96C691;1
96C692;96C691;2
96C701;96C701;1
96C711;96C711;1
96C721;96C721;1
96C731;96C731;1
96C741;96C741;1
96C751;96C751;1
96C752;96C752;1
96C759;96C759;1
96C763;96C763;1
96C761;96C764;1
96C762;96C764;2
96C764;96C764;3
96C770;96C770;1
96C771;96C771;1
96C781;96C781;1
96C789;96C789;1
96C791;96C791;1
96C801;96C801;1
96C811;96C811;1
96C821;96C821;1
96C831;96C831;1
96C841;96C841;1
96C851;96C851;1
96C861;96C861;1
96C871;96C871;1
96C881;96C881;1
96C888;96C888;1
96C891;96C891;1
96C901;96C901;1
96C911;96C911;1
96C921;96C921;1
96C928;96C928;1
96C931;96C931;1
96C941;96C941;1
96C951;96C951;1
96C971;96C971;1
96C972;96C972;1
96C973;96C973;1
96C974;96C974;1
96C976;96C976;1
96C980;96C980;1
96C990;96C990;1
96C991;96C991;1
96C999;96C999;1
99C000;99C000;1
99C001;99C001;1
99C002;99C002;1
99C003;99C003;1
99C004;99C004;1
99C005;99C005;1
99C006;99C006;1
99C007;99C007;1
99C008;99C008;1
99C010;99C010;1
99C011;99C011;1
99C012;99C012;1
99C014;99C014;1
99C015;99C015;1
99C016;99C016;1
99C017;99C017;1
99C018;99C018;1
99C020;99C020;1
99C021;99C021;1
99C022;99C021;2
99C023;99C023;1
99C024;99C024;1
99C025;99C025;1
99C026;99C026;1
99C027;99C027;1
99C028;99C028;1
99C031;99C031;1
99C032;99C032;1
99C033;99C033;1
99C034;99C034;1
99C036;99C036;1
99C038;99C038;1
99C039;99C039;1
99C041;99C041;1
99C042;99C042;1
99C046;99C046;1
99C047;99C047;1
99C049;99C049;1
99C051;99C051;1
99C053;99C053;1
99C054;99C054;1
99C057;99C057;1
99C058;99C058;1
99C059;99C059;1
99C061;99C061;1
99C062;99C062;1
99C063;99C063;1
99C064;99C064;1
99C065;99C065;1
99C066;99C066;1
99C067;99C067;1
99C068;99C068;1
99C069;99C069;1
99C071;99C072;1
99C072;99C072;2
99C074;99C074;1
99C081;99C081;1
99C082;99C082;1
99C083;99C083;1
99C091;99C091;1
99C100;99C100;1
99C101;99C101;1
99C106;99C106;1
99C107;99C107;1
99C108;99C108;1
99C111;99C111;1
99C114;99C114;1
99C119;99C119;1
99C121;99C121;1
99C124;99C124;1
99C126;99C126;1
99C131;99C131;1
99C141;99C141;1
99C142;99C142;1
99C151;99C151;1
99C161;99C161;1
99C171;99C171;1
99C181;99C181;1
99C191;99C191;1
99C201;99C201;1
99C202;99C202;1
99C211;99C211;1
99C221;99C221;1
99C231;99C231;1
99C241;99C241;1
99C251;99C251;1
99C252;99C251;2
99C261;99C261;1
99C271;99C271;1
99C281;99C281;1
99C291;99C291;1
99C292;99C291;2
99C301;99C301;1
99C311;99C311;1
99C312;99C312;1
99C321;99C321;1
99C331;99C331;1
99C341;99C342;1
99C342;99C342;2
94C771;94C771;1
94C781;94C781;1
94C789;94C789;1
94C791;94C791;1
94C801;94C801;1
94C811;94C811;1
94C821;94C821;1
94C831;94C831;1
94C841;94C841;1
94C851;94C851;1
94C861;94C861;1
94C871;94C871;1
94C881;94C881;1
94C888;94C888;1
94C891;94C891;1
94C901;94C901;1
94C911;94C911;1
94C921;94C921;1
94C928;94C928;1
94C931;94C931;1
94C941;94C941;1
94C951;94C951;1
94C971;94C971;1
94C972;94C972;1
94C973;94C973;1
94C974;94C974;1
94C976;94C976;1
94C980;94C980;1
94C990;94C990;1
94C991;94C991;1
94C999;94C999;1
95C000;95C000;1
95C011;95C011;1
95C012;95C012;1
95C021;95C021;1
95C022;95C021;2
95C031;95C031;1
95C041;95C041;1
95C051;95C051;1
95C061;95C061;1
95C071;95C072;1
95C072;95C072;2
95C081;95C081;1
95C091;95C091;1
95C100;95C100;1
95C101;95C101;1
95C111;95C111;1
95C121;95C121;1
95C131;95C131;1
95C141;95C141;1
95C151;95C151;1
95C161;95C161;1
95C171;95C171;1
95C181;95C181;1
95C191;95C191;1
95C201;95C201;1
95C202;95C202;1
95C211;95C211;1
95C221;95C221;1
95C231;95C231;1
95C241;95C241;1
95C251;95C251;1
95C252;95C251;2
95C261;95C261;1
95C271;95C271;1
95C281;95C281;1
95C291;95C291;1
95C292;95C291;2
95C301;95C301;1
95C311;95C311;1
95C321;95C321;1
95C331;95C331;1
95C341;95C342;1
95C342;95C342;2
95C351;95C351;1
95C361;95C361;1
95C371;95C371;1
95C381;95C381;1
95C382;95C381;2
95C391;95C391;1
95C401;95C401;1
95C411;95C411;1
95C421;95C422;1
95C422;95C422;2
95C431;95C431;1
95C441;95C441;1
95C442;95C441;2
95C451;95C451;1
95C461;95C461;1
95C471;95C471;1
95C481;95C481;1
95C491;95C491;1
95C492;95C491;2
95C501;95C501;1
95C511;95C511;1
95C521;95C521;1
95C531;95C531;1
95C541;95C542;1
95C542;95C542;2
95C551;95C551;1
95C561;95C561;1
95C571;95C571;1
95C572;95C571;2
95C573;95C571;3
95C581;95C581;1
95C591;95C594;1
95C594;95C594;2
95C593;95C595;1
95C595;95C595;2
95C597;95C597;1
95C598;95C597;2
95C592;95C599;1
95C596;95C599;2
95C599;95C599;3
95C601;95C601;1
95C602;95C601;2
95C611;95C611;1
95C622;95C623;1
95C623;95C623;2
95C621;95C624;1
95C624;95C624;2
95C631;95C631;1
95C641;95C641;1
95C642;95C642;1
95C651;95C651;1
95C661;95C661;1
95C671;95C673;1
95C672;95C673;2
95C673;95C673;3
95C681;95C682;1
95C682;95C682;2
95C691;95C691;1
95C692;95C691;2
95C701;95C701;1
95C711;95C711;1
95C721;95C721;1
95C731;95C731;1
95C741;95C741;1
95C751;95C751;1
95C752;95C752;1
95C759;95C759;1
95C763;95C763;1
95C761;95C764;1
95C762;95C764;2
95C764;95C764;3
95C770;95C770;1
95C771;95C771;1
95C781;95C781;1
95C789;95C789;1
95C791;95C791;1
95C801;95C801;1
95C811;95C811;1
95C821;95C821;1
95C831;95C831;1
95C841;95C841;1
95C851;95C851;1
95C861;95C861;1
95C871;95C871;1
95C881;95C881;1
95C888;95C888;1
95C891;95C891;1
95C901;95C901;1
95C911;95C911;1
95C921;95C921;1
95C928;95C928;1
95C931;95C931;1
95C941;95C941;1
95C951;95C951;1
95C971;95C971;1
95C972;95C972;1
95C973;95C973;1
95C974;95C974;1
95C976;95C976;1
95C980;95C980;1
95C990;95C990;1
95C991;95C991;1
95C999;95C999;1
96C000;96C000;1
96C011;96C011;1
96C012;96C012;1
96C021;96C021;1
96C022;96C021;2
96C031;96C031;1
96C041;96C041;1
96C051;96C051;1
96C061;96C061;1
96C071;96C072;1
96C072;96C072;2
96C081;96C081;1
96C091;96C091;1
96C100;96C100;1
96C101;96C101;1
96C111;96C111;1
96C121;96C121;1
96C131;96C131;1
96C141;96C141;1
96C151;96C151;1
96C161;96C161;1
96C171;96C171;1
96C181;96C181;1
96C191;96C191;1
96C201;96C201;1
96C202;96C202;1
96C211;96C211;1
96C221;96C221;1
96C231;96C231;1
96C241;96C241;1
96C251;96C251;1
96C252;96C251;2
96C261;96C261;1
96C271;96C271;1
93C451;93C451;1
93C461;93C461;1
93C471;93C471;1
93C481;93C481;1
93C491;93C491;1
93C492;93C491;2
93C501;93C501;1
93C511;93C511;1
93C521;93C521;1
93C531;93C531;1
93C536;93C536;1
93C537;93C537;1
93C541;93C542;1
93C542;93C542;2
93C551;93C551;1
93C561;93C561;1
93C571;93C571;1
93C572;93C571;2
93C573;93C571;3
93C581;93C581;1
93C591;93C594;1
93C594;93C594;2
93C593;93C595;1
93C595;93C595;2
93C597;93C597;1
93C598;93C597;2
93C592;93C599;1
93C596;93C599;2
93C599;93C599;3
93C601;93C601;1
93C602;93C601;2
93C611;93C611;1
93C622;93C623;1
93C623;93C623;2
93C621;93C624;1
93C624;93C624;2
93C631;93C631;1
93C641;93C641;1
93C642;93C642;1
93C651;93C651;1
93C661;93C661;1
93C671;93C673;1
93C672;93C673;2
93C673;93C673;3
93C681;93C682;1
93C682;93C682;2
93C691;93C691;1
93C692;93C691;2
93C701;93C701;1
93C711;93C711;1
93C721;93C721;1
93C731;93C731;1
93C741;93C741;1
93C751;93C751;1
93C752;93C752;1
93C759;93C759;1
93C763;93C763;1
93C761;93C764;1
93C762;93C764;2
93C764;93C764;3
93C770;93C770;1
93C771;93C771;1
93C781;93C781;1
93C789;93C789;1
93C791;93C791;1
93C801;93C801;1
93C811;93C811;1
93C821;93C821;1
93C831;93C831;1
93C841;93C841;1
93C851;93C851;1
93C861;93C861;1
93C871;93C871;1
93C881;93C881;1
93C888;93C888;1
93C891;93C891;1
93C901;93C901;1
93C911;93C911;1
93C921;93C921;1
93C928;93C928;1
93C931;93C931;1
93C941;93C941;1
93C951;93C951;1
93C971;93C971;1
93C972;93C972;1
93C973;93C973;1
93C974;93C974;1
93C976;93C976;1
93C980;93C980;1
93C990;93C990;1
93C991;93C991;1
93C999;93C999;1
94C000;94C000;1
94C011;94C011;1
94C012;94C012;1
94C021;94C021;1
94C022;94C021;2
94C031;94C031;1
94C041;94C041;1
94C051;94C051;1
94C061;94C061;1
94C071;94C072;1
94C072;94C072;2
94C081;94C081;1
94C091;94C091;1
94C100;94C100;1
94C101;94C101;1
94C111;94C111;1
94C121;94C121;1
94C131;94C131;1
94C141;94C141;1
94C151;94C151;1
94C161;94C161;1
94C171;94C171;1
94C181;94C181;1
94C191;94C191;1
94C201;94C201;1
94C202;94C202;1
94C211;94C211;1
94C221;94C221;1
94C231;94C231;1
94C241;94C241;1
94C251;94C251;1
94C252;94C251;2
94C261;94C261;1
94C271;94C271;1
94C281;94C281;1
94C291;94C291;1
94C292;94C291;2
94C301;94C301;1
94C311;94C311;1
94C321;94C321;1
94C331;94C331;1
94C341;94C342;1
94C342;94C342;2
94C351;94C351;1
94C361;94C361;1
94C371;94C371;1
94C381;94C381;1
94C382;94C381;2
94C391;94C391;1
94C401;94C401;1
94C411;94C411;1
94C421;94C422;1
94C422;94C422;2
94C431;94C431;1
94C441;94C441;1
94C442;94C441;2
94C451;94C451;1
94C461;94C461;1
94C471;94C471;1
94C481;94C481;1
94C491;94C491;1
94C492;94C491;2
94C501;94C501;1
94C507;94C507;1
94C511;94C511;1
94C521;94C521;1
94C523;94C523;1
94C527;94C527;1
94C531;94C531;1
94C532;94C532;1
94C541;94C542;1
94C542;94C542;2
94C551;94C551;1
94C561;94C561;1
94C571;94C571;1
94C572;94C571;2
94C573;94C571;3
94C581;94C581;1
94C591;94C594;1
94C594;94C594;2
94C593;94C595;1
94C595;94C595;2
94C597;94C597;1
94C598;94C597;2
94C592;94C599;1
94C596;94C599;2
94C599;94C599;3
94C601;94C601;1
94C602;94C601;2
94C611;94C611;1
94C622;94C623;1
94C623;94C623;2
94C621;94C624;1
94C624;94C624;2
94C631;94C631;1
94C641;94C641;1
94C642;94C642;1
94C651;94C651;1
94C661;94C661;1
94C671;94C673;1
94C672;94C673;2
94C673;94C673;3
94C681;94C682;1
94C682;94C682;2
94C691;94C691;1
94C692;94C691;2
94C701;94C701;1
94C711;94C711;1
94C721;94C721;1
94C731;94C731;1
94C741;94C741;1
94C751;94C751;1
94C752;94C752;1
94C759;94C759;1
94C763;94C763;1
94C761;94C764;1
94C762;94C764;2
94C764;94C764;3
94C770;94C770;1
91C971;91C971;1
91C972;91C972;1
91C973;91C973;1
91C974;91C974;1
91C976;91C976;1
91C980;91C980;1
91C990;91C990;1
91C991;91C991;1
91C999;91C999;1
92C000;92C000;1
92C011;92C011;1
92C012;92C012;1
92C021;92C021;1
92C022;92C021;2
92C031;92C031;1
92C041;92C041;1
92C051;92C051;1
92C061;92C061;1
92C071;92C072;1
92C072;92C072;2
92C081;92C081;1
92C091;92C091;1
92C100;92C100;1
92C101;92C101;1
92C111;92C111;1
92C121;92C121;1
92C131;92C131;1
92C141;92C141;1
92C151;92C151;1
92C161;92C161;1
92C171;92C171;1
92C181;92C181;1
92C191;92C191;1
92C201;92C201;1
92C202;92C202;1
92C211;92C211;1
92C221;92C221;1
92C231;92C231;1
92C241;92C241;1
92C251;92C251;1
92C252;92C251;2
92C261;92C261;1
92C271;92C271;1
92C281;92C281;1
92C291;92C291;1
92C292;92C291;2
92C301;92C301;1
92C311;92C311;1
92C321;92C321;1
92C331;92C331;1
92C341;92C342;1
92C342;92C342;2
92C351;92C351;1
92C361;92C361;1
92C371;92C371;1
92C381;92C381;1
92C382;92C381;2
92C391;92C391;1
92C401;92C401;1
92C411;92C411;1
92C421;92C422;1
92C422;92C422;2
92C431;92C431;1
92C441;92C441;1
92C442;92C441;2
92C451;92C451;1
92C461;92C461;1
92C471;92C471;1
92C481;92C481;1
92C491;92C491;1
92C492;92C491;2
92C501;92C501;1
92C511;92C511;1
92C521;92C521;1
92C531;92C531;1
92C541;92C542;1
92C542;92C542;2
92C551;92C551;1
92C561;92C561;1
92C571;92C571;1
92C572;92C571;2
92C573;92C571;3
92C581;92C581;1
92C591;92C594;1
92C594;92C594;2
92C593;92C595;1
92C595;92C595;2
92C597;92C597;1
92C598;92C597;2
92C592;92C599;1
92C596;92C599;2
92C599;92C599;3
92C601;92C601;1
92C602;92C601;2
92C611;92C611;1
92C622;92C623;1
92C623;92C623;2
92C621;92C624;1
92C624;92C624;2
92C631;92C631;1
92C641;92C641;1
92C642;92C642;1
92C651;92C651;1
92C661;92C661;1
92C671;92C673;1
92C672;92C673;2
92C673;92C673;3
92C681;92C682;1
92C682;92C682;2
92C691;92C691;1
92C692;92C691;2
92C701;92C701;1
92C711;92C711;1
92C721;92C721;1
92C731;92C731;1
92C741;92C741;1
92C751;92C751;1
92C752;92C752;1
92C759;92C759;1
92C763;92C763;1
92C761;92C764;1
92C762;92C764;2
92C764;92C764;3
92C770;92C770;1
92C771;92C771;1
92C781;92C781;1
92C789;92C789;1
92C791;92C791;1
92C801;92C801;1
92C811;92C811;1
92C821;92C821;1
92C831;92C831;1
92C841;92C841;1
92C851;92C851;1
92C861;92C861;1
92C871;92C871;1
92C881;92C881;1
92C888;92C888;1
92C891;92C891;1
92C901;92C901;1
92C911;92C911;1
92C921;92C921;1
92C928;92C928;1
92C931;92C931;1
92C941;92C941;1
92C951;92C951;1
92C971;92C971;1
92C972;92C972;1
92C973;92C973;1
92C974;92C974;1
92C976;92C976;1
92C980;92C980;1
92C990;92C990;1
92C991;92C991;1
92C999;92C999;1
93C000;93C000;1
93C011;93C011;1
93C012;93C012;1
93C021;93C021;1
93C022;93C021;2
93C031;93C031;1
93C041;93C041;1
93C051;93C051;1
93C061;93C061;1
93C071;93C072;1
93C072;93C072;2
93C081;93C081;1
93C091;93C091;1
93C100;93C100;1
93C101;93C101;1
93C111;93C111;1
93C121;93C121;1
93C131;93C131;1
93C141;93C141;1
93C151;93C151;1
93C161;93C161;1
93C171;93C171;1
93C181;93C181;1
93C191;93C191;1
93C201;93C201;1
93C202;93C202;1
93C211;93C211;1
93C221;93C221;1
93C231;93C231;1
93C241;93C241;1
93C251;93C251;1
93C252;93C251;2
93C261;93C261;1
93C271;93C271;1
93C281;93C281;1
93C291;93C291;1
93C292;93C291;2
93C301;93C301;1
93C311;93C311;1
93C321;93C321;1
93C331;93C331;1
93C341;93C342;1
93C342;93C342;2
93C351;93C351;1
93C361;93C361;1
93C371;93C371;1
93C381;93C381;1
93C382;93C381;2
93C391;93C391;1
93C401;93C401;1
93C411;93C411;1
93C421;93C422;1
93C422;93C422;2
93C431;93C431;1
93C441;93C441;1
93C442;93C441;2
01M492;01M491;2
01M501;01M501;1
01M511;01M511;1
01M521;01M521;1
01M531;01M531;1
01M541;01M542;1
01M542;01M542;2
01M551;01M551;1
01M561;01M561;1
01M571;01M571;1
01M572;01M571;2
01M573;01M571;3
01M581;01M581;1
01M591;01M594;1
01M594;01M594;2
01M593;01M595;1
01M595;01M595;2
01M597;01M597;1
01M598;01M597;2
01M592;01M599;1
01M596;01M599;2
01M599;01M599;3
01M601;01M601;1
01M602;01M601;2
01M611;01M611;1
01M622;01M623;1
01M623;01M623;2
01M621;01M624;1
01M624;01M624;2
01M631;01M631;1
01M641;01M641;1
01M642;01M642;1
01M651;01M651;1
01M661;01M661;1
01M671;01M673;1
01M672;01M673;2
01M673;01M673;3
01M681;01M682;1
01M682;01M682;2
01M691;01M691;1
01M701;01M701;1
01M711;01M711;1
01M721;01M721;1
01M731;01M731;1
01M741;01M741;1
01M751;01M751;1
01M763;01M763;1
01M761;01M764;1
01M762;01M764;2
01M764;01M764;3
01M771;01M771;1
01M781;01M781;1
01M791;01M791;1
01M801;01M801;1
01M811;01M811;1
01M821;01M821;1
01M831;01M831;1
01M841;01M841;1
01M851;01M851;1
01M861;01M861;1
01M871;01M871;1
01M881;01M881;1
01M891;01M891;1
01M901;01M901;1
01M911;01M911;1
01M921;01M921;1
01M931;01M931;1
01M941;01M941;1
01M951;01M951;1
01M971;01M971;1
01M972;01M972;1
01M973;01M973;1
01M974;01M974;1
91A661;91A661;1
91C000;91C000;1
91C011;91C011;1
91C012;91C012;1
91C021;91C021;1
91C022;91C021;2
91C031;91C031;1
91C041;91C041;1
91C051;91C051;1
91C061;91C061;1
91C071;91C072;1
91C072;91C072;2
91C081;91C081;1
91C091;91C091;1
91C100;91C100;1
91C101;91C101;1
91C111;91C111;1
91C121;91C121;1
91C131;91C131;1
91C141;91C141;1
91C151;91C151;1
91C161;91C161;1
91C171;91C171;1
91C181;91C181;1
91C191;91C191;1
91C201;91C201;1
91C202;91C202;1
91C211;91C211;1
91C221;91C221;1
91C231;91C231;1
91C241;91C241;1
91C251;91C251;1
91C252;91C251;2
91C261;91C261;1
91C271;91C271;1
91C281;91C281;1
91C291;91C291;1
91C292;91C291;2
91C301;91C301;1
91C311;91C311;1
91C321;91C321;1
91C331;91C331;1
91C341;91C342;1
91C342;91C342;2
91C351;91C351;1
91C361;91C361;1
91C371;91C371;1
91C381;91C381;1
91C382;91C381;2
91C391;91C391;1
91C401;91C401;1
91C411;91C411;1
91C421;91C422;1
91C422;91C422;2
91C431;91C431;1
91C441;91C441;1
91C442;91C441;2
91C451;91C451;1
91C461;91C461;1
91C471;91C471;1
91C481;91C481;1
91C491;91C491;1
91C492;91C491;2
91C501;91C501;1
91C511;91C511;1
91C521;91C521;1
91C531;91C531;1
91C541;91C542;1
91C542;91C542;2
91C551;91C551;1
91C561;91C561;1
91C571;91C571;1
91C572;91C571;2
91C573;91C571;3
91C581;91C581;1
91C591;91C594;1
91C594;91C594;2
91C593;91C595;1
91C595;91C595;2
91C597;91C597;1
91C598;91C597;2
91C592;91C599;1
91C596;91C599;2
91C599;91C599;3
91C601;91C601;1
91C602;91C601;2
91C611;91C611;1
91C622;91C623;1
91C623;91C623;2
91C621;91C624;1
91C624;91C624;2
91C631;91C631;1
91C641;91C641;1
91C642;91C642;1
91C651;91C651;1
91C661;91C661;1
91C671;91C673;1
91C672;91C673;2
91C673;91C673;3
91C681;91C682;1
91C682;91C682;2
91C691;91C691;1
91C692;91C691;2
91C701;91C701;1
91C711;91C711;1
91C721;91C721;1
91C731;91C731;1
91C741;91C741;1
91C751;91C751;1
91C752;91C752;1
91C759;91C759;1
91C763;91C763;1
91C761;91C764;1
91C762;91C764;2
91C764;91C764;3
91C770;91C770;1
91C771;91C771;1
91C781;91C781;1
91C789;91C789;1
91C791;91C791;1
91C801;91C801;1
91C811;91C811;1
91C821;91C821;1
91C831;91C831;1
91C841;91C841;1
91C851;91C851;1
91C861;91C861;1
91C871;91C871;1
91C881;91C881;1
91C888;91C888;1
91C891;91C891;1
91C901;91C901;1
91C911;91C911;1
91C921;91C921;1
91C928;91C928;1
91C931;91C931;1
91C941;91C941;1
91C951;91C951;1
01A011;01A011;1
01A101;01A101;1
01A331;01A331;1
01A551;01A551;1
01A661;01A661;1
01A972;01A972;1
01A999;01A999;1
01C000;01C000;1
01C011;01C011;1
01C012;01C012;1
01C021;01C021;1
01C022;01C021;2
01C031;01C031;1
01C041;01C041;1
01C051;01C051;1
01C061;01C061;1
01C071;01C072;1
01C072;01C072;2
01C081;01C081;1
01C091;01C091;1
01C100;01C100;1
01C101;01C101;1
01C111;01C111;1
01C121;01C121;1
01C131;01C131;1
01C141;01C141;1
01C151;01C151;1
01C161;01C161;1
01C171;01C171;1
01C181;01C181;1
01C191;01C191;1
01C201;01C201;1
01C202;01C202;1
01C211;01C211;1
01C221;01C221;1
01C231;01C231;1
01C241;01C241;1
01C251;01C251;1
01C252;01C251;2
01C261;01C261;1
01C271;01C271;1
01C281;01C281;1
01C291;01C291;1
01C292;01C291;2
01C301;01C301;1
01C311;01C311;1
01C321;01C321;1
01C331;01C331;1
01C341;01C342;1
01C342;01C342;2
01C351;01C351;1
01C361;01C361;1
01C371;01C371;1
01C381;01C381;1
01C382;01C381;2
01C391;01C391;1
01C401;01C401;1
01C411;01C411;1
01C421;01C422;1
01C422;01C422;2
01C431;01C431;1
01C441;01C441;1
01C442;01C441;2
01C451;01C451;1
01C461;01C461;1
01C471;01C471;1
01C481;01C481;1
01C491;01C491;1
01C492;01C491;2
01C501;01C501;1
01C511;01C511;1
01C521;01C521;1
01C531;01C531;1
01C541;01C542;1
01C542;01C542;2
01C551;01C551;1
01C561;01C561;1
01C571;01C571;1
01C572;01C571;2
01C573;01C571;3
01C581;01C581;1
01C591;01C594;1
01C594;01C594;2
01C593;01C595;1
01C595;01C595;2
01C597;01C597;1
01C598;01C597;2
01C592;01C599;1
01C596;01C599;2
01C599;01C599;3
01C601;01C601;1
01C602;01C601;2
01C611;01C611;1
01C622;01C623;1
01C623;01C623;2
01C621;01C624;1
01C624;01C624;2
01C631;01C631;1
01C641;01C641;1
01C642;01C642;1
01C651;01C651;1
01C661;01C661;1
01C671;01C673;1
01C672;01C673;2
01C673;01C673;3
01C681;01C682;1
01C682;01C682;2
01C691;01C691;1
01C692;01C691;2
01C701;01C701;1
01C711;01C711;1
01C721;01C721;1
01C731;01C731;1
01C741;01C741;1
01C751;01C751;1
01C752;01C752;1
01C759;01C759;1
01C763;01C763;1
01C761;01C764;1
01C762;01C764;2
01C764;01C764;3
01C770;01C770;1
01C771;01C771;1
01C781;01C781;1
01C789;01C789;1
01C791;01C791;1
01C801;01C801;1
01C811;01C811;1
01C821;01C821;1
01C831;01C831;1
01C841;01C841;1
01C851;01C851;1
01C861;01C861;1
01C871;01C871;1
01C881;01C881;1
01C888;01C888;1
01C891;01C891;1
01C901;01C901;1
01C911;01C911;1
01C921;01C921;1
01C928;01C928;1
01C931;01C931;1
01C941;01C941;1
01C951;01C951;1
01C971;01C971;1
01C972;01C972;1
01C973;01C973;1
01C974;01C974;1
01C976;01C976;1
01C980;01C980;1
01C990;01C990;1
01C991;01C991;1
01C999;01C999;1
01M011;01M011;1
01M021;01M021;1
01M022;01M021;2
01M031;01M031;1
01M041;01M041;1
01M051;01M051;1
01M061;01M061;1
01M071;01M072;1
01M072;01M072;2
01M081;01M081;1
01M091;01M091;1
01M101;01M101;1
01M111;01M111;1
01M121;01M121;1
01M131;01M131;1
01M141;01M141;1
01M151;01M151;1
01M161;01M161;1
01M171;01M171;1
01M181;01M181;1
01M191;01M191;1
01M201;01M201;1
01M202;01M202;1
01M211;01M211;1
01M221;01M221;1
01M231;01M231;1
01M241;01M241;1
01M251;01M251;1
01M252;01M251;2
01M261;01M261;1
01M271;01M271;1
01M281;01M281;1
01M291;01M291;1
01M292;01M291;2
01M301;01M301;1
01M311;01M311;1
01M321;01M321;1
01M331;01M331;1
01M341;01M342;1
01M342;01M342;2
01M351;01M351;1
01M361;01M361;1
01M371;01M371;1
01M381;01M381;1
01M382;01M381;2
01M391;01M391;1
01M401;01M401;1
01M411;01M411;1
01M421;01M422;1
01M422;01M422;2
01M431;01M431;1
01M441;01M441;1
01M442;01M441;2
01M451;01M451;1
01M461;01M461;1
01M471;01M471;1
01M481;01M481;1
01M491;01M491;1
03A095;03A095;1
03A096;03A096;1
03A097;03A097;1
03A098;03A098;1
03A099;03A099;1
03A100;03A100;1
03A101;03A101;1
03A102;03A102;1
03A103;03A103;1
03A104;03A104;1
03A105;03A105;1
03A106;03A106;1
03A107;03A107;1
03A108;03A108;1
03A109;03A109;1
03A110;03A110;1
03A111;03A111;1
03A112;03A112;1
03A113;03A113;1
03A114;03A114;1
03A115;03A115;1
03A116;03A116;1
03A117;03A117;1
03A118;03A118;1
03A119;03A119;1
03A120;03A120;1
03A121;03A121;1
03A123;03A123;1
03A124;03A124;1
03A125;03A125;1
03A126;03A126;1
03A127;03A127;1
03A128;03A128;1
03A129;03A129;1
03A130;03A130;1
03A131;03A131;1
03A132;03A132;1
03A134;03A134;1
03A135;03A135;1
03A136;03A136;1
03A140;03A140;1
03A141;03A141;1
03A142;03A142;1
03A143;03A143;1
03A144;03A144;1
03A145;03A145;1
03A146;03A146;1
03A147;03A147;1
03A148;03A148;1
03A149;03A149;1
03A150;03A150;1
03A151;03A151;1
03A152;03A152;1
03A154;03A154;1
03A155;03A155;1
03A158;03A158;1
03A159;03A159;1
03A160;03A160;1
03A161;03A161;1
03A163;03A163;1
03A164;03A164;1
03A165;03A165;1
03A166;03A166;1
03A167;03A167;1
03A168;03A168;1
03A169;03A169;1
03A170;03A170;1
03A171;03A171;1
03A172;03A172;1
03A173;03A173;1
03A174;03A174;1
03A175;03A175;1
03A176;03A176;1
03A177;03A177;1
03A178;03A178;1
03A190;03A190;1
03A210;03A210;1
03A221;03A221;1
03A230;03A230;1
03A250;03A250;1
03A261;03A261;1
03A270;03A270;1
03A281;03A281;1
03A290;03A290;1
03A291;03A291;1
03A292;03A292;1
03A301;03A301;1
03A303;03A303;1
03A309;03A309;1
03A310;03A310;1
03A311;03A311;1
03A330;03A330;1
03A331;03A331;1
03A342;03A342;1
03A350;03A350;1
03A370;03A370;1
03A371;03A371;1
03A381;03A381;1
03A390;03A390;1
03A401;03A401;1
03A410;03A410;1
03A430;03A430;1
03A441;03A441;1
03A442;03A442;1
03A450;03A450;1
03A451;03A451;1
03A470;03A470;1
03A500;03A500;1
03A501;03A501;1
03A504;03A504;1
03A505;03A505;1
03A509;03A509;1
03A511;03A511;1
03A521;03A521;1
03A530;03A530;1
03A531;03A531;1
03A540;03A540;1
03A550;03A550;1
03A570;03A570;1
03A580;03A580;1
03A590;03A590;1
03A595;03A595;1
03A599;03A599;1
03A601;03A601;1
03A611;03A611;1
03A622;03A622;1
03A623;03A623;1
03A631;03A631;1
03A641;03A641;1
03A661;03A661;1
03A671;03A671;1
03A691;03A691;1
03A701;03A701;1
03A703;03A703;1
03A705;03A705;1
03A709;03A709;1
03A711;03A711;1
03A741;03A741;1
03A751;03A751;1
03A763;03A763;1
03A764;03A764;1
03A771;03A771;1
03A781;03A781;1
03A801;03A801;1
03A821;03A821;1
03A831;03A831;1
03A841;03A841;1
03A851;03A851;1
03A861;03A861;1
03A891;03A891;1
03A901;03A901;1
03A903;03A903;1
03A905;03A905;1
03A909;03A909;1
03A911;03A911;1
03A921;03A921;1
03A931;03A931;1
03A941;03A941;1
03A951;03A951;1
03A974;03A974;1
03A999;03A999;1
03C001;03C001;1
03C002;03C002;1
03C003;03C003;1
03C004;03C004;1
03C005;03C005;1
03C006;03C006;1
03C007;03C007;1
03C008;03C008;1
03C009;03C009;1
03C010;03C010;1
03C011;03C011;1
03C012;03C012;1
03C013;03C013;1
03C014;03C014;1
03C015;03C015;1
03C016;03C016;1
03C017;03C017;1
03C018;03C018;1
03C019;03C019;1
03C020;03C020;1
03C021;03C021;1
03C022;03C022;1
03C023;03C023;1
03C024;03C024;1
03C025;03C025;1
03C026;03C026;1
03C027;03C027;1
03C028;03C028;1
03C029;03C029;1
03C031;03C031;1
03C032;03C032;1
03C033;03C033;1
03C034;03C034;1
03C035;03C035;1
03C036;03C036;1
03C037;03C037;1
03C038;03C038;1
03C039;03C039;1
03C040;03C040;1
03C041;03C041;1
03C042;03C042;1
03C043;03C043;1
03C044;03C044;1
03C045;03C045;1
03C046;03C046;1
03C047;03C047;1
03C048;03C048;1
03C049;03C049;1
03C050;03C050;1
03C051;03C051;1
03C052;03C052;1
03C053;03C053;1
03C054;03C054;1
03C055;03C055;1
03C056;03C056;1
03C057;03C057;1
03C058;03C058;1
03C059;03C059;1
03C060;03C060;1
03C061;03C061;1
03C062;03C062;1
03C063;03C063;1
03C064;03C064;1
03C065;03C065;1
03C066;03C066;1
03C067;03C067;1
03C069;03C069;1
03C070;03C070;1
03C071;03C071;1
03C072;03C072;1
03C073;03C073;1
03C074;03C074;1
03C075;03C075;1
03C076;03C076;1
03C077;03C077;1
03C078;03C078;1
03C079;03C079;1
03C080;03C080;1
03C081;03C081;1
03C082;03C082;1
03C083;03C083;1
03C084;03C084;1
03C085;03C085;1
03C086;03C086;1
03C087;03C087;1
03C088;03C088;1
03C089;03C089;1
03C091;03C091;1
03C092;03C092;1
03C093;03C093;1
03C094;03C094;1
03C095;03C095;1
03C096;03C096;1
03C097;03C097;1
03C098;03C098;1
03C099;03C099;1
03C100;03C100;1
03C101;03C101;1
03C102;03C102;1
03C105;03C105;1
03C106;03C106;1
03C107;03C107;1
03C108;03C108;1
03C109;03C109;1
03C110;03C110;1
03C111;03C111;1
03C112;03C112;1
03C113;03C113;1
03C114;03C114;1
03C115;03C115;1
03C116;03C116;1
03C117;03C117;1
03C118;03C118;1
03C119;03C119;1
03C120;03C120;1
03C121;03C121;1
03C123;03C123;1
03C124;03C124;1
03C125;03C125;1
03C126;03C126;1
03C127;03C127;1
03C128;03C128;1
03C129;03C129;1
03C130;03C130;1
03C131;03C131;1
03C132;03C132;1
03C134;03C134;1
03C135;03C135;1
03C136;03C136;1
03C140;03C140;1
03C141;03C141;1
03C142;03C142;1
03C143;03C143;1
03C144;03C144;1
03C145;03C145;1
03C146;03C146;1
03C147;03C147;1
03C148;03C148;1
03C149;03C149;1
03C150;03C150;1
03C151;03C151;1
03C152;03C152;1
03C154;03C154;1
03C155;03C155;1
03C158;03C158;1
03C159;03C159;1
03C160;03C160;1
03C161;03C161;1
03C163;03C163;1
03C164;03C164;1
03C165;03C165;1
03C166;03C166;1
03C167;03C167;1
03C168;03C168;1
03C169;03C169;1
03C170;03C170;1
03C171;03C171;1
03C172;03C172;1
03C173;03C173;1
03C174;03C174;1
03C175;03C175;1
03C176;03C176;1
03C177;03C177;1
03C178;03C178;1
03C221;03C221;1
03C261;03C261;1
03C281;03C281;1
03C291;03C291;1
03C292;03C292;1
03C301;03C301;1
03C311;03C311;1
03C331;03C331;1
03C342;03C342;1
03C371;03C371;1
03C401;03C401;1
03C441;03C441;1
03C442;03C442;1
03C451;03C451;1
03C501;03C501;1
03C511;03C511;1
03C521;03C521;1
03C531;03C531;1
03C595;03C595;1
03C599;03C599;1
03C601;03C601;1
03C611;03C611;1
03C622;03C622;1
03C623;03C623;1
03C631;03C631;1
03C641;03C641;1
03C661;03C661;1
03C671;03C671;1
03C691;03C691;1
03C741;03C741;1
03C751;03C751;1
03C763;03C763;1
03C764;03C764;1
03C771;03C771;1
03C781;03C781;1
03C801;03C801;1
03C821;03C821;1
03C831;03C831;1
03C841;03C841;1
03C851;03C851;1
03C861;03C861;1
03C891;03C891;1
03C911;03C911;1
03C921;03C921;1
03C931;03C931;1
03C941;03C941;1
03C951;03C951;1
03C974;03C974;1
04A051;04A051;1
04A081;04A081;1
04A110;04A110;1
04A120;04A120;1
04A130;04A130;1
04A220;04A220;1
04A400;04A400;1
04A671;04A671;1
04A771;04A771;1
04A911;04A911;1
04A931;04A931;1
04A941;04A941;1
04A999;04A999;1
04C051;04C051;1
04C081;04C081;1
04C110;04C110;1
04C671;04C671;1
04C771;04C771;1
04C911;04C911;1
04C931;04C931;1
04C941;04C941;1
05A005;05A005;1
05A051;05A051;1
05A053;05A053;1
05A771;05A771;1
05A911;05A911;1
05A931;05A931;1
05A941;05A941;1
05A999;05A999;1
05C051;05C051;1
05C053;05C053;1
05C771;05C771;1
05C911;05C911;1
05C931;05C931;1
05C941;05C941;1
06A000;06A000;1
06A001;06A001;1
06A061;06A061;1
06A107;06A107;1
06A111;06A111;1
06A112;06A112;1
06A131;06A131;1
06A138;06A138;1
06A139;06A139;1
06A171;06A171;1
06A200;06A200;1
06A201;06A201;1
06A202;06A202;1
06A203;06A203;1
06A204;06A204;1
06A205;06A205;1
06A206;06A206;1
06A207;06A207;1
06A208;06A208;1
06A209;06A209;1
06A211;06A211;1
06A212;06A212;1
06A215;06A215;1
06A216;06A216;1
06A217;06A217;1
06A218;06A218;1
06A219;06A219;1
06A220;06A220;1
06A221;06A221;1
06A222;06A222;1
06A225;06A225;1
06A226;06A226;1
06A227;06A227;1
06A228;06A228;1
06A229;06A229;1
06A230;06A230;1
06A231;06A231;1
06A232;06A232;1
06A233;06A233;1
06A234;06A234;1
06A235;06A235;1
06A236;06A236;1
06A237;06A237;1
06A238;06A238;1
06A239;06A239;1
06A240;06A240;1
06A241;06A241;1
06A242;06A242;1
06A243;06A243;1
06A244;06A244;1
06A245;06A245;1
06A248;06A248;1
06A249;06A249;1
06A250;06A250;1
06A251;06A251;1
06A280;06A280;1
06A290;06A290;1
06A299;06A299;1
06A301;06A301;1
06A331;06A331;1
06A342;06A342;1
06A401;06A401;1
06A402;06A402;1
06A403;06A403;1
06A404;06A404;1
06A405;06A405;1
06A406;06A406;1
06A407;06A407;1
06A408;06A408;1
06A409;06A409;1
06A411;06A411;1
06A412;06A412;1
06A415;06A415;1
06A416;06A416;1
06A417;06A417;1
06A418;06A418;1
06A419;06A419;1
06A420;06A420;1
06A421;06A421;1
06A422;06A422;1
06A425;06A425;1
06A426;06A426;1
06A427;06A427;1
06A428;06A428;1
06A429;06A429;1
06A430;06A430;1
06A431;06A431;1
06A432;06A432;1
06A433;06A433;1
06A434;06A434;1
06A435;06A435;1
06A436;06A436;1
06A437;06A437;1
06A438;06A438;1
06A439;06A439;1
06A440;06A440;1
06A441;06A441;1
06A442;06A442;1
06A443;06A443;1
06A444;06A444;1
06A445;06A445;1
06A448;06A448;1
06A449;06A449;1
06A450;06A450;1
06A451;06A451;1
06A480;06A480;1
06A490;06A490;1
06A499;06A499;1
06A501;06A501;1
06A502;06A502;1
06A503;06A503;1
06A504;06A504;1
06A505;06A505;1
06A506;06A506;1
06A507;06A507;1
06A508;06A508;1
06A509;06A509;1
06A511;06A511;1
06A512;06A512;1
06A515;06A515;1
06A516;06A516;1
06A517;06A517;1
06A518;06A518;1
06A519;06A519;1
06A520;06A520;1
06A521;06A521;1
06A522;06A522;1
06A525;06A525;1
06A526;06A526;1
06A527;06A527;1
06A528;06A528;1
06A529;06A529;1
06A530;06A530;1
06A531;06A531;1
06A532;06A532;1
06A533;06A533;1
06A534;06A534;1
06A535;06A535;1
06A536;06A536;1
06A537;06A537;1
06A538;06A538;1
06A539;06A539;1
06A540;06A540;1
06A541;06A541;1
06A542;06A542;1
06A543;06A543;1
06A544;06A544;1
06A545;06A545;1
06A548;06A548;1
06A549;06A549;1
06A550;06A550;1
06A551;06A551;1
06A580;06A580;1
06A590;06A590;1
06A599;06A599;1
06A622;06A622;1
06A641;06A641;1
06A642;06A642;1
06A661;06A661;1
06A701;06A701;1
06A702;06A702;1
06A703;06A703;1
06A704;06A704;1
06A705;06A705;1
06A706;06A706;1
06A707;06A707;1
06A708;06A708;1
06A709;06A709;1
06A711;06A711;1
06A712;06A712;1
06A715;06A715;1
06A716;06A716;1
06A717;06A717;1
06A718;06A718;1
06A719;06A719;1
06A720;06A720;1
06A721;06A721;1
06A722;06A722;1
06A725;06A725;1
06A726;06A726;1
06A727;06A727;1
06A728;06A728;1
06A729;06A729;1
06A730;06A730;1
06A731;06A731;1
06A732;06A732;1
06A733;06A733;1
06A734;06A734;1
06A735;06A735;1
06A736;06A736;1
06A737;06A737;1
06A738;06A738;1
06A739;06A739;1
06A740;06A740;1
06A741;06A741;1
06A742;06A742;1
06A743;06A743;1
06A744;06A744;1
06A745;06A745;1
06A748;06A748;1
06A749;06A749;1
06A750;06A750;1
06A751;06A751;1
06A752;06A752;1
06A763;06A763;1
06A764;06A764;1
06A780;06A780;1
06A781;06A781;1
06A790;06A790;1
06A799;06A799;1
06A801;06A801;1
06A802;06A802;1
06A803;06A803;1
06A804;06A804;1
06A805;06A805;1
06A806;06A806;1
06A807;06A807;1
06A808;06A808;1
06A809;06A809;1
06A811;06A811;1
06A812;06A812;1
06A815;06A815;1
06A816;06A816;1
06A817;06A817;1
06A818;06A818;1
06A819;06A819;1
06A820;06A820;1
06A821;06A821;1
06A822;06A822;1
06A825;06A825;1
06A826;06A826;1
06A827;06A827;1
06A828;06A828;1
06A829;06A829;1
06A830;06A830;1
06A831;06A831;1
06A832;06A832;1
06A833;06A833;1
06A834;06A834;1
06A835;06A835;1
06A836;06A836;1
06A837;06A837;1
06A838;06A838;1
06A839;06A839;1
06A840;06A840;1
06A841;06A841;1
06A842;06A842;1
06A843;06A843;1
06A844;06A844;1
06A845;06A845;1
06A848;06A848;1
06A849;06A849;1
06A850;06A850;1
06A851;06A851;1
06A852;06A852;1
06A880;06A880;1
06A890;06A890;1
06A899;06A899;1
06A901;06A901;1
06A902;06A902;1
06A905;06A905;1
06A907;06A907;1
06A909;06A909;1
06A911;06A911;1
06A915;06A915;1
06A920;06A920;1
06A922;06A922;1
06A925;06A925;1
06A929;06A929;1
06A931;06A931;1
06A932;06A932;1
06A935;06A935;1
06A936;06A936;1
06A940;06A940;1
06A948;06A948;1
06A949;06A949;1
06A950;06A950;1
06A951;06A951;1
06A952;06A952;1
06A980;06A980;1
06A999;06A999;1
06C000;06C000;1
06C001;06C001;1
06C061;06C061;1
06C131;06C131;1
06C171;06C171;1
06C301;06C301;1
06C331;06C331;1
06C342;06C342;1
06C441;06C441;1
06C622;06C622;1
06C641;06C641;1
06C661;06C661;1
06C763;06C763;1
06C781;06C781;1
06C831;06C831;1
07A041;07A041;1
07A051;07A051;1
07A100;07A100;1
07A101;07A101;1
07A110;07A110;1
07A112;07A112;1
07A200;07A200;1
07A215;07A215;1
07A220;07A220;1
07A225;07A225;1
07A226;07A226;1
07A300;07A300;1
07A328;07A328;1
07A330;07A330;1
07A332;07A332;1
07A400;07A400;1
07A433;07A433;1
07A437;07A437;1
07A440;07A440;1
07A500;07A500;1
07A538;07A538;1
07A543;07A543;1
07A544;07A544;1
07A550;07A550;1
07A600;07A600;1
07A647;07A647;1
07A649;07A649;1
07A660;07A660;1
07A671;07A671;1
07A700;07A700;1
07A752;07A752;1
07A770;07A770;1
07A911;07A911;1
07A999;07A999;1
07C041;07C041;1
07C051;07C051;1
07C101;07C101;1
07C112;07C112;1
07C215;07C215;1
07C225;07C225;1
07C226;07C226;1
07C543;07C543;1
07C671;07C671;1
07C911;07C911;1
08A000;08A000;1
08A021;08A021;1
08A022;08A022;1
08A031;08A031;1
08A041;08A041;1
08A051;08A051;1
08A061;08A061;1
08A131;08A131;1
08A141;08A141;1
08A171;08A171;1
08A201;08A201;1
08A202;08A202;1
08A241;08A241;1
08A252;08A252;1
08A301;08A301;1
08A311;08A311;1
08A321;08A321;1
08A331;08A331;1
08A341;08A341;1
08A342;08A342;1
08A371;08A371;1
08A381;08A381;1
08A401;08A401;1
08A471;08A471;1
08A501;08A501;1
08A521;08A521;1
08A551;08A551;1
08A592;08A592;1
08A595;08A595;1
08A599;08A599;1
08A601;08A601;1
08A611;08A611;1
08A621;08A621;1
08A631;08A631;1
08A641;08A641;1
08A642;08A642;1
08A651;08A651;1
08A661;08A661;1
08A701;08A701;1
08A741;08A741;1
08A756;08A756;1
08A758;08A758;1
08A763;08A763;1
08A764;08A764;1
08A771;08A771;1
08A801;08A801;1
08A831;08A831;1
08A841;08A841;1
08A851;08A851;1
08A861;08A861;1
08A881;08A881;1
08A911;08A911;1
08A931;08A931;1
08A941;08A941;1
08A972;08A972;1
08A999;08A999;1
08C011;08C011;1
08C021;08C021;1
08C022;08C022;1
08C031;08C031;1
08C041;08C041;1
08C051;08C051;1
08C061;08C061;1
08C131;08C131;1
08C141;08C141;1
08C171;08C171;1
08C201;08C201;1
08C202;08C202;1
08C211;08C211;1
08C221;08C221;1
08C251;08C251;1
08C252;08C252;1
08C291;08C291;1
08C292;08C292;1
08C301;08C301;1
08C311;08C311;1
08C321;08C321;1
08C331;08C331;1
08C341;08C341;1
08C342;08C342;1
08C371;08C371;1
08C381;08C381;1
08C401;08C401;1
08C441;08C441;1
08C442;08C442;1
08C471;08C471;1
08C501;08C501;1
08C521;08C521;1
08C551;08C551;1
08C561;08C561;1
08C581;08C581;1
08C592;08C592;1
08C594;08C594;1
08C595;08C595;1
08C601;08C601;1
08C611;08C611;1
08C621;08C621;1
08C631;08C631;1
08C641;08C641;1
08C642;08C642;1
08C661;08C661;1
08C691;08C691;1
08C701;08C701;1
08C741;08C741;1
08C756;08C756;1
08C758;08C758;1
08C763;08C763;1
08C764;08C764;1
08C771;08C771;1
08C801;08C801;1
08C811;08C811;1
08C831;08C831;1
08C841;08C841;1
08C851;08C851;1
08C861;08C861;1
08C881;08C881;1
08C891;08C891;1
08C911;08C911;1
08C931;08C931;1
08C941;08C941;1
08C972;08C972;1
09A200;09A200;1
09A999;09A999;1
09C200;09C200;1
10A061;10A061;1
10A131;10A131;1
10A171;10A171;1
10A301;10A301;1
10A492;10A492;1
10A595;10A595;1
10A599;10A599;1
10A711;10A711;1
10A741;10A741;1
10A751;10A751;1
10A764;10A764;1
10A771;10A771;1
10A781;10A781;1
10A891;10A891;1
10A921;10A921;1
10A931;10A931;1
10A941;10A941;1
10A951;10A951;1
10A980;10A980;1
10A999;10A999;1
10C031;10C031;1
10C041;10C041;1
10C061;10C061;1
10C131;10C131;1
10C161;10C161;1
10C171;10C171;1
10C211;10C211;1
10C292;10C292;1
10C301;10C301;1
10C341;10C341;1
10C342;10C342;1
10C351;10C351;1
10C361;10C361;1
10C451;10C451;1
10C492;10C492;1
10C592;10C592;1
10C595;10C595;1
10C599;10C599;1
10C601;10C601;1
10C641;10C641;1
10C661;10C661;1
10C711;10C711;1
10C741;10C741;1
10C751;10C751;1
10C764;10C764;1
10C771;10C771;1
10C781;10C781;1
10C841;10C841;1
10C891;10C891;1
10C921;10C921;1
10C931;10C931;1
10C941;10C941;1
10C951;10C951;1
10C980;10C980;1
10C999;10C999;1
12A001;12A001;1
12A100;12A100;1
12A911;12A911;1
12A999;12A999;1
12C001;12C001;1
12C911;12C911;1
14A100;14A100;1
14A911;14A911;1
14A999;14A999;1
14C100;14C100;1
15A751;15A751;1
15A999;15A999;1
15C751;15C751;1
16A331;16A331;1
16A999;16A999;1
90A100;90A100;1
90A121;90A121;1
90A151;90A151;1
90A161;90A161;1
90A181;90A181;1
90A202;90A202;1
90A251;90A251;1
90A271;90A271;1
90A391;90A391;1
90A431;90A431;1
90A442;90A442;1
90A481;90A481;1
90A491;90A491;1
90A492;90A492;1
90A531;90A531;1
90A551;90A551;1
90A572;90A572;1
90A581;90A581;1
90A593;90A593;1
90A598;90A598;1
90A599;90A599;1
90A601;90A601;1
90A602;90A602;1
90A611;90A611;1
90A642;90A642;1
90A692;90A692;1
90A721;90A721;1
90A741;90A741;1
90A761;90A761;1
90A763;90A763;1
90A764;90A764;1
90A791;90A791;1
90A821;90A821;1
90A851;90A851;1
90A861;90A861;1
90A891;90A891;1
90A941;90A941;1
90A971;90A971;1
90A972;90A972;1
90A974;90A974;1
90A999;90A999;1
90C011;90C011;1
90C100;90C100;1
90C101;90C101;1
90C121;90C121;1
90C141;90C141;1
90C151;90C151;1
90C161;90C161;1
90C171;90C171;1
90C181;90C181;1
90C202;90C202;1
90C221;90C221;1
90C251;90C251;1
90C271;90C271;1
90C292;90C292;1
90C301;90C301;1
90C311;90C311;1
90C341;90C341;1
90C342;90C342;1
90C351;90C351;1
90C391;90C391;1
90C431;90C431;1
90C441;90C441;1
90C442;90C442;1
90C481;90C481;1
90C491;90C491;1
90C492;90C492;1
90C501;90C501;1
90C511;90C511;1
90C521;90C521;1
90C531;90C531;1
90C542;90C542;1
90C551;90C551;1
90C561;90C561;1
90C572;90C572;1
90C581;90C581;1
90C593;90C593;1
90C594;90C594;1
90C596;90C596;1
90C598;90C598;1
90C599;90C599;1
90C601;90C601;1
90C602;90C602;1
90C611;90C611;1
90C622;90C622;1
90C642;90C642;1
90C692;90C692;1
90C721;90C721;1
90C741;90C741;1
90C751;90C751;1
90C761;90C761;1
90C763;90C763;1
90C764;90C764;1
90C781;90C781;1
90C791;90C791;1
90C811;90C811;1
90C821;90C821;1
90C851;90C851;1
90C861;90C861;1
90C891;90C891;1
90C921;90C921;1
90C941;90C941;1
90C951;90C951;1
90C971;90C971;1
90C972;90C972;1
90C974;90C974;1
90C999;90C999;1
99I999;99I999;1
01M692;01M691;2
01A100;01A100;1
01A251;01A251;1
01A401;01A401;1
01A411;01A411;1
01A511;01A511;1
01A521;01A521;1
01A542;01A542;1
01A631;01A631;1
01A711;01A711;1
01A841;01A841;1
01A881;01A881;1
01A980;01A980;1
01M999;01M999;1
02C142;02C142;1
02C201;02C201;1
02C212;02C212;1
02C221;02C221;1
02C271;02C271;1
02C281;02C281;1
02C282;02C282;1
02C291;02C291;1
02C331;02C331;1
02C342;02C342;1
02C352;02C352;1
02C361;02C361;1
02C421;02C421;1
02C442;02C442;1
02C492;02C492;1
02C531;02C531;1
02C591;02C591;1
02C641;02C641;1
02C711;02C711;1
02C761;02C761;1
02C763;02C763;1
02C801;02C801;1
02C802;02C802;1
02C811;02C811;1
02C831;02C831;1
02C891;02C891;1
02C921;02C921;1
02C982;02C982;1
02C999;02C999;1
03C000;03C000;1
03C103;03C103;1
03C122;03C122;1
03C133;03C133;1
03C139;03C139;1
03C157;03C157;1
03C180;03C180;1
03C201;03C201;1
03C202;03C202;1
03C203;03C203;1
03C204;03C204;1
03C207;03C207;1
03C210;03C210;1
03C214;03C214;1
03C215;03C215;1
03C217;03C217;1
03C231;03C231;1
03C252;03C252;1
03C341;03C341;1
03C381;03C381;1
03C573;03C573;1
03C621;03C621;1
03C701;03C701;1
03C711;03C711;1
03C761;03C761;1
03C881;03C881;1
03C999;03C999;1
04C041;04C041;1
04C061;04C061;1
04C111;04C111;1
04C711;04C711;1
04C761;04C761;1
04C999;04C999;1
05C921;05C921;1
05C999;05C999;1
06A101;06A101;1
06A102;06A102;1
06A108;06A108;1
06A144;06A144;1
06A602;06A602;1
06A609;06A609;1
06A611;06A611;1
06A612;06A612;1
06C041;06C041;1
06C200;06C200;1
06C202;06C202;1
06C221;06C221;1
06C291;06C291;1
06C292;06C292;1
06C351;06C351;1
06C401;06C401;1
06C471;06C471;1
06C561;06C561;1
06C595;06C595;1
06C642;06C642;1
06C751;06C751;1
06C761;06C761;1
06C764;06C764;1
06C851;06C851;1
06C911;06C911;1
06C931;06C931;1
06C951;06C951;1
07C341;07C341;1
07C649;07C649;1
07C999;07C999;1
08C000;08C000;1
08C151;08C151;1
08C241;08C241;1
08C351;08C351;1
08C481;08C481;1
08C491;08C491;1
08C492;08C492;1
08C596;08C596;1
08C598;08C598;1
08C599;08C599;1
08C602;08C602;1
08C622;08C622;1
08C651;08C651;1
08C721;08C721;1
08C731;08C731;1
08C781;08C781;1
08C999;08C999;1
09C051;09C051;1
12C061;12C061;1
12C101;12C101;1
14C573;14C573;1
14C911;14C911;1
14C921;14C921;1
15C999;15C999;1
94C533;94C533;1
96A291;96A291;1
99A999;99A999;1
08C624;08C624;1
04C091;04C091;1
02C951;02C951;1
02C241;02C241;1
12C921;12C921;1
03C308;03C308;1
06C141;06C141;1
08C571;08C571;1
03C491;03C491;1
02C592;02C592;1
04C141;04C141;1
12C491;12C491;1
06C311;06C311;1
08C072;08C072;1
06C611;06C611;1
07C542;07C542;1
06C501;06C501;1
04C542;04C542;1
03C206;03C206;1
02C892;02C892;1
02C222;02C222;1
03C542;03C542;1
06C201;06C201;1
07C201;07C201;1
02C631;02C631;1
15C921;15C921;1
08C181;08C181;1
07C771;07C771;1
02C764;02C764;1
02C841;02C841;1
02C691;02C691;1
06C682;06C682;1
07C711;07C711;1
04C763;04C763;1
03C211;03C211;1
07C781;07C781;1
01C459;01C459;1
02C821;02C821;1
07C764;07C764;1
07C171;07C171;1
01M459;01M459;1
06C631;06C631;1
07C974;07C974;1
07C751;07C751;1
15C021;15C021;1
07C331;07C331;1
02C851;02C851;1
04C201;04C201;1
02C422;02C422;1
07C972;07C972;1
07C673;07C673;1
07C571;07C571;1
03A206;03A206;1
03A201;03A201;1
06A291;06A291;1
07A781;07A781;1
07A072;07A072;1
10A601;10A601;1
02A976;02A976;1
07A771;07A771;1
03A212;03A212;1
06A471;06A471;1
06A561;06A561;1
03A542;03A542;1
07A974;07A974;1
03A202;03A202;1
01C512;01C512;1
10A661;10A661;1
02A623;02A623;1
03A133;03A133;1
02A422;02A422;1
03A213;03A213;1
02A624;02A624;1
03A491;03A491;1
04A542;04A542;1
05A371;05A371;1
02A599;02A599;1
07A701;07A701;1
03A304;03A304;1
06A971;06A971;1
08A781;08A781;1
08A682;08A682;1
07A972;07A972;1
06A623;06A623;1
08A351;08A351;1
08A461;08A461;1
08A161;08A161;1
08A973;08A973;1
08A971;08A971;1
07A571;07A571;1
10A342;10A342;1
02A592;02A592;1
03A204;03A204;1
95C459;95C459;1
03A138;03A138;1
03A208;03A208;1
07A542;07A542;1
10A841;10A841;1
03A302;03A302;1
02A802;02A802;1
06A141;06A141;1
03A215;03A215;1
92C512;92C512;1
08A673;08A673;1
02A892;02A892;1
03A214;03A214;1
06A400;06A400;1
06A800;06A800;1
04A141;04A141;1
01M512;01M512;1
03A323;03A323;1
03A211;03A211;1
08A835;08A835;1
05A141;05A141;1
07A141;07A141;1
08A921;08A921;1
04A201;04A201;1
94C194;94C194;1
96C196;96C196;1
07A599;07A599;1
07A624;07A624;1
07A401;07A401;1
08A751;08A751;1
01M928;01M928;1
03A207;03A207;1
07A171;07A171;1
07A061;07A061;1
01M909;01M909;1
07A641;07A641;1
07A261;07A261;1
01M752;01M752;1
07A311;07A311;1
03A229;03A229;1
03A306;03A306;1
07A441;07A441;1
14A301;14A301;1
07A651;07A651;1
07A121;07A121;1
07A511;07A511;1
90A342;90A342;1
02A977;02A977;1
07A691;07A691;1
07A291;07A291;1
07A661;07A661;1
01M991;01M991;1
07A871;07A871;1
10A351;10A351;1
03A205;03A205;1
07A471;07A471;1
04A871;04A871;1
07A342;07A342;1
05A511;05A511;1
01M990;01M990;1
10A211;10A211;1
04A741;04A741;1
05A351;05A351;1
04A351;04A351;1
07A161;07A161;1
08A542;08A542;1
07A241;07A241;1
14A631;14A631;1
90A561;90A561;1
08A561;08A561;1
04A561;04A561;1
08A211;08A211;1
01C609;01C609;1
03A308;03A308;1
06A041;06A041;1
10A451;10A451;1
01M609;01M609;1
10A041;10A041;1
10A641;10A641;1
01C194;01C194;1
01C196;01C196;1
03A139;03A139;1
08A731;08A731;1
03A871;03A871;1
05A201;05A201;1
03A481;03A481;1
01M194;01M194;1
08A624;08A624;1
01C909;01C909;1
01M196;01M196;1
07A422;07A422;1
07A811;07A811;1
08A951;08A951;1
07A597;07A597;1
07A131;07A131;1
08A072;08A072;1
08A511;08A511;1
07A711;07A711;1
01M976;01M976;1
07A682;07A682;1
90A781;90A781;1
07A381;07A381;1
08A871;08A871;1
07A595;07A595;1
07A673;07A673;1
08A571;08A571;1
07A642;07A642;1
03A217;03A217;1
01M789;01M789;1
07A831;07A831;1
03A561;03A561;1
07A251;07A251;1
06A351;06A351;1
07A531;07A531;1
07A451;07A451;1
07A631;07A631;1
03A305;03A305;1
05A331;05A331;1
07A941;07A941;1
08A422;08A422;1
08A974;08A974;1
04A631;04A631;1
10A361;10A361;1
06A921;06A921;1
04A571;04A571;1
03A314;03A314;1
03A327;03A327;1
06A771;06A771;1
10A161;10A161;1
04A331;04A331;1
07A751;07A751;1
07A741;07A741;1
06A600;06A600;1
08A261;08A261;1
03A241;03A241;1
08A391;08A391;1
07A371;07A371;1
07A851;07A851;1
03A219;03A219;1
04A511;04A511;1
07A841;07A841;1
08A623;08A623;1
07A491;07A491;1
07A763;07A763;1
07A861;07A861;1
07A361;07A361;1
07A331;07A331;1
02A764;02A764;1
04A241;04A241;1
06A631;06A631;1
06A624;06A624;1
05A781;05A781;1
