{
    "fields": [
        {
            "name": "AMC_ECL_TOP",
            "type": "string",
            "format": "default",
            "role": "code"
        },
        {
            "name": "AMC_ECL_LIB",
            "type": "string",
            "format": "default"
        },
        {
            "name": "TEC_COL",
            "type": "integer",
            "format": "default"
        }
    ],
    "missingValues": [
        ""
    ],
    "name": "IR_JDC_V",
    "title": "Justification des droits AMC",
    "primaryKey": ["AMC_ECL_TOP"]
}