{
    "fields": [
        {
            "name": "PRS_NAT",
            "type": "integer",
            "format": "default",
            "role": "code"
        },
        {
            "name": "PRS_NAT_STA",
            "type": "integer",
            "format": "default"
        },
        {
            "name": "PRS_NAT_CB2",
            "type": "string",
            "format": "default"
        },
        {
            "name": "PRS_NAT_LIB",
            "type": "string",
            "format": "default",
            "role": "label"
        },
        {
            "name": "TDM_NAT_AFF",
            "type": "integer",
            "format": "default"
        },
        {
            "name": "PRS_NAT_TDM",
            "type": "integer",
            "format": "default"
        },
        {
            "name": "NAT_CPL_ACT",
            "type": "integer",
            "format": "default"
        },
        {
            "name": "CCA_CPL_COD",
            "type": "integer",
            "format": "default"
        },
        {
            "name": "PRN_AID_TOP",
            "type": "integer",
            "format": "default"
        },
        {
            "name": "PRS_SPP_TOP",
            "type": "integer",
            "format": "default"
        },
        {
            "name": "TOP_SNI",
            "type": "integer",
            "format": "default"
        },
        {
            "name": "TYA_COD",
            "type": "string",
            "format": "default"
        },
        {
            "name": "CEL_TYP",
            "type": "integer",
            "format": "default"
        },
        {
            "name": "TOP_PRS_SOI",
            "type": "integer",
            "format": "default"
        },
        {
            "name": "PRS_NAT_RGT",
            "type": "integer",
            "format": "default"
        },
        {
            "name": "TOP_TRF_OPP",
            "type": "integer",
            "format": "default"
        },
        {
            "name": "PRS_NAT_OBS",
            "type": "string",
            "format": "default"
        },
        {
            "name": "TEC_COL",
            "type": "integer",
            "format": "default"
        }
    ],
    "missingValues": [
        ""
    ],
    "name": "IR_NAT_V",
    "title": "Nature Prestation",
    "primaryKey":["PRS_NAT"]
}