BEN_QLT_COD;RGM_GRG_COD;RGM_COD
4;4;405
4;4;406
4;4;407
4;4;408
4;4;409
4;4;410
4;4;411
4;4;412
4;4;413
4;4;414
4;4;415
4;4;416
4;4;417
4;4;418
4;4;419
4;4;420
4;4;421
4;4;422
4;4;423
4;4;424
4;4;425
4;4;426
4;4;427
4;4;428
4;4;429
4;4;430
4;4;431
4;4;432
4;4;433
4;4;434
4;4;435
4;4;436
4;4;437
4;4;438
4;4;439
4;4;440
4;4;441
4;4;442
4;4;443
4;4;444
4;4;445
4;4;446
4;4;447
4;4;448
4;4;449
4;4;450
4;4;451
4;4;452
4;4;453
4;4;454
4;4;455
4;4;456
4;4;457
4;4;458
4;4;459
4;4;460
4;4;461
4;4;462
4;4;463
4;4;464
4;4;465
4;4;466
4;4;467
4;4;468
4;4;469
4;4;470
4;4;471
4;4;472
4;4;473
4;4;474
4;4;475
4;4;476
4;4;477
4;4;478
4;4;479
4;4;480
4;4;481
4;4;482
4;4;483
4;4;484
4;4;485
4;4;486
4;4;487
4;4;488
4;4;489
4;4;490
4;4;491
4;4;492
4;4;493
4;4;494
4;4;495
4;4;496
4;4;497
4;4;498
4;4;499
4;4;500
4;4;501
4;4;502
4;4;503
4;4;504
4;4;505
4;4;506
4;4;507
4;4;508
4;4;509
4;4;510
4;4;511
4;4;512
4;4;513
4;4;514
4;4;515
4;4;516
4;4;517
4;4;518
4;4;519
4;4;520
4;4;521
4;4;522
4;4;523
4;4;524
4;4;525
4;4;526
4;4;527
4;4;528
4;4;529
4;4;530
4;4;531
4;4;532
4;4;533
4;4;534
4;4;535
4;4;536
4;4;537
4;4;538
4;4;539
4;4;540
4;4;541
4;4;542
4;4;543
4;4;544
4;4;545
4;4;546
4;4;547
4;4;548
4;4;549
4;4;550
4;4;551
4;4;552
4;4;553
4;4;554
4;4;555
4;4;556
4;4;557
4;4;558
4;4;559
4;4;560
4;4;561
4;4;562
4;4;563
4;4;564
4;4;565
4;4;566
4;4;567
4;4;568
4;4;569
4;4;570
4;4;571
4;4;572
4;4;573
4;4;574
4;4;575
4;4;576
4;4;577
4;4;578
4;4;579
4;4;580
4;4;581
4;4;582
4;4;583
4;4;584
4;4;585
4;4;586
4;4;587
4;4;588
4;4;589
4;4;590
4;4;591
4;4;592
4;4;593
4;4;594
4;4;595
4;4;596
4;4;597
4;4;598
4;4;599
4;4;600
4;4;601
4;4;602
4;4;603
4;4;604
4;4;605
4;4;606
4;4;607
4;4;608
4;4;609
4;4;610
4;4;611
4;4;612
4;4;613
4;4;614
4;4;615
4;4;616
4;4;617
4;4;618
4;4;619
4;4;620
4;4;621
4;4;622
4;4;623
4;4;624
4;4;625
4;4;626
4;4;627
4;4;628
4;4;629
4;4;630
4;4;631
4;4;632
4;4;633
4;4;634
4;4;635
4;4;636
4;4;637
4;4;638
4;4;639
4;4;640
4;4;641
4;4;642
4;4;643
4;4;644
4;4;645
4;4;646
4;4;647
4;4;648
4;4;649
4;4;650
4;4;651
4;4;652
4;4;653
4;4;654
4;4;655
4;4;656
4;4;657
4;4;658
4;4;659
4;4;660
4;4;661
4;4;662
4;4;663
4;4;664
4;4;665
4;4;666
4;4;667
4;4;668
4;4;669
4;4;670
4;4;671
4;4;672
4;4;673
4;4;674
4;4;675
4;4;676
4;4;677
4;4;678
4;4;679
4;4;680
4;4;681
4;4;682
4;4;683
4;4;684
4;4;685
4;4;686
4;4;687
4;4;688
4;4;689
4;4;690
4;4;691
4;4;692
4;4;693
4;4;694
4;4;695
4;4;696
4;4;697
4;4;698
4;4;699
4;4;700
4;4;701
4;4;702
4;4;703
4;4;704
4;4;705
4;4;706
4;4;707
4;4;708
4;4;709
4;4;710
4;4;711
4;4;712
4;4;713
4;4;714
4;4;715
4;4;716
4;4;717
4;4;718
4;4;719
4;4;720
4;4;721
4;4;722
4;4;723
4;4;724
4;4;725
4;4;726
4;4;727
4;4;728
4;4;729
4;4;730
4;4;731
4;4;732
4;4;733
4;4;734
4;4;735
4;4;736
4;4;737
4;4;738
4;4;739
4;4;740
4;4;741
4;4;742
4;4;743
4;4;744
4;4;745
4;4;746
4;4;747
4;4;748
4;4;749
4;4;750
4;4;751
4;4;752
4;4;753
4;4;754
4;4;755
4;4;756
4;4;757
4;4;758
4;4;759
4;4;760
4;4;761
4;4;762
4;4;763
4;4;764
4;4;765
4;4;766
4;4;767
4;4;768
4;4;769
4;4;770
4;4;771
4;4;772
4;4;773
4;4;774
4;4;775
4;4;776
4;4;777
4;4;778
4;4;779
4;4;780
4;4;781
4;4;782
4;4;783
4;4;784
4;4;785
4;4;786
4;4;787
4;4;788
4;4;789
4;4;790
4;4;791
4;4;792
4;4;793
4;4;794
4;4;795
4;4;796
4;4;797
4;4;798
4;4;799
4;4;800
4;4;801
4;4;802
4;4;803
4;4;804
4;4;805
4;4;806
4;4;807
4;4;808
4;4;809
4;4;810
4;4;811
4;4;812
4;4;813
4;4;814
4;4;815
4;4;816
4;4;817
4;4;818
4;4;819
4;4;820
4;4;821
4;4;822
4;4;823
4;4;824
4;4;825
4;4;826
4;4;827
4;4;828
4;4;829
4;4;830
4;4;831
4;4;832
4;4;833
4;4;834
4;4;835
4;4;836
4;4;837
4;4;838
4;4;839
4;4;840
4;4;841
4;4;842
4;4;843
4;4;844
4;4;845
4;4;846
4;4;847
4;4;848
4;4;849
4;4;850
4;4;851
4;4;852
4;4;853
4;4;854
4;4;855
4;4;856
4;4;857
4;4;858
4;4;859
4;4;860
4;4;861
4;4;862
4;4;863
4;4;864
4;4;865
4;4;866
4;4;867
4;4;868
4;4;869
4;4;870
4;4;871
4;4;872
4;4;873
4;4;874
4;4;875
4;4;876
4;4;877
4;4;878
4;4;879
4;4;880
4;4;881
4;4;882
4;4;883
4;4;884
4;4;885
4;4;886
4;4;887
4;4;888
4;4;889
4;4;890
4;4;891
4;4;892
4;4;893
4;4;894
4;4;895
4;4;896
4;4;897
4;4;898
4;4;899
4;4;900
4;4;901
4;4;902
4;4;903
4;4;904
4;4;905
4;4;906
4;4;907
4;4;908
4;4;909
4;4;910
4;4;911
4;4;912
4;4;913
4;4;914
4;4;915
4;4;916
4;4;917
4;4;918
4;4;919
4;4;920
4;4;921
4;4;922
4;4;923
4;4;924
4;4;925
4;4;926
4;4;927
4;4;928
4;4;929
4;4;930
4;4;931
4;4;932
4;4;933
4;4;934
4;4;935
4;4;936
4;4;937
4;4;938
4;4;939
4;4;940
4;4;941
4;4;942
4;4;943
4;4;944
4;4;945
4;4;946
4;4;947
4;4;948
4;4;949
4;4;950
4;4;951
4;4;952
4;4;953
4;4;954
4;4;955
4;4;956
4;4;957
4;4;958
4;4;959
4;4;960
4;4;961
4;4;962
4;4;963
4;4;964
4;4;965
4;4;966
4;4;967
4;4;968
4;4;969
4;4;970
4;4;971
4;4;972
4;4;973
4;4;974
4;4;975
4;4;976
4;4;977
4;4;978
4;4;979
4;4;980
4;4;981
4;4;982
4;4;983
4;4;984
4;4;985
4;4;986
4;4;987
4;4;988
4;4;989
4;4;990
4;4;991
4;4;992
4;4;993
4;4;994
4;4;995
4;4;996
4;4;997
4;4;998
4;4;999
4;5;51
4;5;52
4;5;53
4;5;97
4;5;115
4;6;1
4;6;11
4;6;12
4;6;21
4;6;34
4;6;48
4;6;70
4;6;90
4;6;97
4;6;100
4;6;101
4;6;102
4;6;103
4;6;110
4;6;115
4;6;120
4;6;140
4;6;150
4;6;161
4;6;162
4;6;180
4;6;181
4;6;200
4;6;201
4;6;202
4;6;241
4;6;242
4;6;380
4;6;530
4;6;659
4;6;701
4;6;702
4;6;710
4;6;721
4;6;722
4;6;730
4;6;802
4;6;856
4;7;1
4;7;13
4;7;97
4;7;115
4;7;142
4;7;152
4;7;202
4;7;203
4;7;222
4;7;223
4;7;760
4;7;802
4;7;856
4;8;97
4;8;108
4;8;109
4;8;111
4;8;115
4;8;116
4;8;121
4;8;122
4;8;123
4;8;231
4;8;802
4;8;856
4;9;1
4;9;97
4;9;115
4;10;97
4;10;101
4;10;110
4;10;115
4;10;120
4;10;150
4;10;206
4;10;207
4;10;208
4;10;280
4;10;340
4;10;530
4;10;560
4;10;802
4;10;856
4;12;97
4;12;101
4;12;110
4;12;115
4;12;120
4;12;530
4;14;1
4;14;97
4;14;115
4;15;1
4;15;97
4;15;115
4;16;1
4;16;97
4;16;115
4;17;9
4;17;97
4;17;115
4;17;500
4;17;501
4;17;502
4;17;503
4;17;504
4;17;505
4;17;506
4;17;507
4;17;520
4;17;550
4;17;570
4;17;580
4;17;581
4;90;97
4;90;110
4;90;115
4;90;280
4;90;530
4;90;671
4;90;672
4;90;673
4;90;674
4;90;675
4;90;676
4;90;677
4;90;802
4;90;856
1;1;1
1;1;2
1;1;3
1;1;4
1;1;5
1;1;6
1;1;7
1;1;8
1;1;9
1;1;10
1;1;11
1;1;15
1;1;16
1;1;20
1;1;30
1;1;40
1;1;44
1;1;45
1;1;46
1;1;47
1;1;50
1;1;60
1;1;70
1;1;90
1;1;91
1;1;92
1;1;94
1;1;95
1;1;96
1;1;97
1;1;100
1;1;101
1;1;102
1;1;103
1;1;104
1;1;105
1;1;106
1;1;107
1;1;108
1;1;110
1;1;112
1;1;114
1;1;115
1;1;119
1;1;120
1;1;129
1;1;130
1;1;140
1;1;144
1;1;150
1;1;154
1;1;159
1;1;160
1;1;170
1;1;180
1;1;181
1;1;188
1;1;189
1;1;191
1;1;200
1;1;201
1;1;205
1;1;209
1;1;210
1;1;211
1;1;220
1;1;224
1;1;230
1;1;232
1;1;235
1;1;236
1;1;243
1;1;244
1;1;245
1;1;250
1;1;260
1;1;270
1;1;280
1;1;290
1;1;291
1;1;300
1;1;310
1;1;311
1;1;312
1;1;320
1;1;330
1;1;340
1;1;350
1;1;360
1;1;370
1;1;374
1;1;390
1;1;400
1;1;405
1;1;415
1;1;425
1;1;435
1;1;440
1;1;445
1;1;480
1;1;485
1;1;490
1;1;495
1;1;530
1;1;534
1;1;539
1;1;540
1;1;550
1;1;560
1;1;620
1;1;630
1;1;652
1;1;655
1;1;656
1;1;657
1;1;658
1;1;660
1;1;669
1;1;670
1;1;701
1;1;710
1;1;720
1;1;721
1;1;730
1;1;740
1;1;741
1;1;742
1;1;750
1;1;800
1;1;801
1;1;802
1;1;803
1;1;804
1;1;805
1;1;806
1;1;808
1;1;809
1;1;810
1;1;815
1;1;816
1;1;817
1;1;818
1;1;820
1;1;825
1;1;826
1;1;827
1;1;830
1;1;831
1;1;832
1;1;833
1;1;840
1;1;850
1;1;856
1;1;857
1;1;860
1;1;870
1;1;880
1;1;888
1;1;890
1;1;900
1;1;910
1;1;920
1;1;930
1;1;940
1;1;950
1;1;960
1;1;970
1;1;980
1;1;990
1;2;1
1;2;2
1;2;3
1;2;4
1;2;5
1;2;6
1;2;7
1;2;10
1;2;11
1;2;20
1;2;30
1;2;40
1;2;97
1;2;115
1;3;1
1;3;2
1;3;3
1;3;4
1;3;5
1;3;6
1;3;97
1;3;115
1;4;97
1;4;100
1;4;101
1;4;102
1;4;103
1;4;104
1;4;105
1;4;106
1;4;107
1;4;108
1;4;109
1;4;110
1;4;111
1;4;112
1;4;113
1;4;114
1;4;115
1;4;116
1;4;117
1;4;118
1;4;119
1;4;120
1;4;121
1;4;122
1;4;123
1;4;124
1;4;125
1;4;126
1;4;127
1;4;128
1;4;129
1;4;130
1;4;131
1;4;132
1;4;133
1;4;134
1;4;135
1;4;136
1;4;137
1;4;138
1;4;139
1;4;140
1;4;141
1;4;142
1;4;143
1;4;144
1;4;145
1;4;146
1;4;147
1;4;148
1;4;149
1;4;150
1;4;151
1;4;152
1;4;153
1;4;154
1;4;155
1;4;156
1;4;157
1;4;158
1;4;159
1;4;160
1;4;161
1;4;162
1;4;163
1;4;164
1;4;165
1;4;166
1;4;167
1;4;168
1;4;169
1;4;170
1;4;171
1;4;172
1;4;173
1;4;174
1;4;175
1;4;176
1;4;177
1;4;178
1;4;179
1;4;180
1;4;181
1;4;182
1;4;183
1;4;184
1;4;185
1;4;186
1;4;187
1;4;188
1;4;189
1;4;190
1;4;191
1;4;192
1;4;193
1;4;194
1;4;195
1;4;196
1;4;197
1;4;198
1;4;199
1;4;200
1;4;201
1;4;202
1;4;203
1;4;204
1;4;205
1;4;206
1;4;207
1;4;208
1;4;209
1;4;210
1;4;211
1;4;212
1;4;213
1;4;214
1;4;215
1;4;216
1;4;217
1;4;218
1;4;219
1;4;220
1;4;221
1;4;222
1;4;223
1;4;224
1;4;225
1;4;226
1;4;227
1;4;228
1;4;229
1;4;230
1;4;231
1;4;232
1;4;233
1;4;234
1;4;235
1;4;236
1;4;237
1;4;238
1;4;239
1;4;240
1;4;241
1;4;242
1;4;243
1;4;244
1;4;245
1;4;246
1;4;247
1;4;248
1;4;249
1;4;250
1;4;251
1;4;252
1;4;253
1;4;254
1;4;255
1;4;256
1;4;257
1;4;258
1;4;259
1;4;260
1;4;261
1;4;262
1;4;263
1;4;264
1;4;265
1;4;266
1;4;267
1;4;268
1;4;269
1;4;270
1;4;271
1;4;272
1;4;273
1;4;274
1;4;275
1;4;276
1;4;277
1;4;278
1;4;279
1;4;280
1;4;281
1;4;282
1;4;283
1;4;284
1;4;285
1;4;286
1;4;287
1;4;288
1;4;289
1;4;290
1;4;291
1;4;292
1;4;293
1;4;294
1;4;295
1;4;296
1;4;297
1;4;298
1;4;299
1;4;300
1;4;301
1;4;302
1;4;303
1;4;304
1;4;305
1;4;306
1;4;307
1;4;308
1;4;309
1;4;310
1;4;311
1;4;312
1;4;313
1;4;314
1;4;315
1;4;316
1;4;317
1;4;318
1;4;319
1;4;320
1;4;321
1;4;322
1;4;323
1;4;324
1;4;325
1;4;326
1;4;327
1;4;328
1;4;329
1;4;330
1;4;331
1;4;332
1;4;333
1;4;334
1;4;335
1;4;336
1;4;337
1;4;338
1;4;339
1;4;340
1;4;341
1;4;342
1;4;343
1;4;344
1;4;345
1;4;346
1;4;347
1;4;348
1;4;349
1;4;350
1;4;351
1;4;352
1;4;353
1;4;354
1;4;355
1;4;356
1;4;357
1;4;358
1;4;359
1;4;360
1;4;361
1;4;362
1;4;363
1;4;364
1;4;365
1;4;366
1;4;367
1;4;368
1;4;369
1;4;370
1;4;371
1;4;372
1;4;373
1;4;374
1;4;375
1;4;376
1;4;377
1;4;378
1;4;379
1;4;380
1;4;381
1;4;382
1;4;383
1;4;384
1;4;385
1;4;386
1;4;387
1;4;388
1;4;389
1;4;390
1;4;391
1;4;392
1;4;393
1;4;394
1;4;395
1;4;396
1;4;397
1;4;398
1;4;399
1;4;400
1;4;401
1;4;402
1;4;403
1;4;404
1;4;405
1;4;406
1;4;407
1;4;408
1;4;409
1;4;410
1;4;411
1;4;412
1;4;413
1;4;414
1;4;415
1;4;416
1;4;417
1;4;418
1;4;419
1;4;420
1;4;421
1;4;422
1;4;423
1;4;424
1;4;425
1;4;426
1;4;427
1;4;428
1;4;429
1;4;430
1;4;431
1;4;432
1;4;433
1;4;434
1;4;435
1;4;436
1;4;437
1;4;438
1;4;439
1;4;440
1;4;441
1;4;442
1;4;443
1;4;444
1;4;445
1;4;446
1;4;447
1;4;448
1;4;449
1;4;450
1;4;451
1;4;452
1;4;453
1;4;454
1;4;455
1;4;456
1;4;457
1;4;458
1;4;459
1;4;460
1;4;461
1;4;462
1;4;463
1;4;464
1;4;465
1;4;466
1;4;467
1;4;468
1;4;469
1;4;470
1;4;471
1;4;472
1;4;473
1;4;474
1;4;475
1;4;476
1;4;477
1;4;478
1;4;479
1;4;480
1;4;481
1;4;482
1;4;483
1;4;484
1;4;485
1;4;486
1;4;487
1;4;488
1;4;489
1;4;490
1;4;491
1;4;492
1;4;493
1;4;494
1;4;495
1;4;496
1;4;497
1;4;498
1;4;499
1;4;500
1;4;501
1;4;502
1;4;503
1;4;504
1;4;505
1;4;506
1;4;507
1;4;508
1;4;509
1;4;510
1;4;511
1;4;512
1;4;513
1;4;514
1;4;515
1;4;516
1;4;517
1;4;518
1;4;519
1;4;520
1;4;521
1;4;522
1;4;523
1;4;524
1;4;525
1;4;526
1;4;527
1;4;528
1;4;529
1;4;530
1;4;531
1;4;532
1;4;533
1;4;534
1;4;535
1;4;536
1;4;537
1;4;538
1;4;539
1;4;540
1;4;541
1;4;542
1;4;543
1;4;544
1;4;545
1;4;546
1;4;547
1;4;548
1;4;549
1;4;550
1;4;551
1;4;552
1;4;553
1;4;554
1;4;555
1;4;556
1;4;557
1;4;558
1;4;559
1;4;560
1;4;561
1;4;562
1;4;563
1;4;564
1;4;565
1;4;566
1;4;567
1;4;568
1;4;569
1;4;570
1;4;571
1;4;572
1;4;573
1;4;574
1;4;575
1;4;576
1;4;577
1;4;578
1;4;579
1;4;580
1;4;581
1;4;582
1;4;583
1;4;584
1;4;585
1;4;586
1;4;587
1;4;588
1;4;589
1;4;590
1;4;591
1;4;592
1;4;593
1;4;594
1;4;595
1;4;596
1;4;597
1;4;598
1;4;599
1;4;600
1;4;601
1;4;602
1;4;603
1;4;604
1;4;605
1;4;606
1;4;607
1;4;608
1;4;609
1;4;610
1;4;611
1;4;612
1;4;613
1;4;614
1;4;615
1;4;616
1;4;617
1;4;618
1;4;619
1;4;620
1;4;621
1;4;622
1;4;623
1;4;624
1;4;625
1;4;626
1;4;627
1;4;628
1;4;629
1;4;630
1;4;631
1;4;632
1;4;633
1;4;634
1;4;635
1;4;636
1;4;637
1;4;638
1;4;639
1;4;640
1;4;641
1;4;642
1;4;643
1;4;644
1;4;645
1;4;646
1;4;647
1;4;648
1;4;649
1;4;650
1;4;651
1;4;652
1;4;653
1;4;654
1;4;655
1;4;656
1;4;657
1;4;658
1;4;659
1;4;660
1;4;661
1;4;662
1;4;663
1;4;664
1;4;665
1;4;666
1;4;667
1;4;668
1;4;669
1;4;670
1;4;671
1;4;672
1;4;673
1;4;674
1;4;675
1;4;676
1;4;677
1;4;678
1;4;679
1;4;680
1;4;681
1;4;682
1;4;683
1;4;684
1;4;685
1;4;686
1;4;687
1;4;688
1;4;689
1;4;690
1;4;691
1;4;692
1;4;693
1;4;694
1;4;695
1;4;696
1;4;697
1;4;698
1;4;699
1;4;700
1;4;701
1;4;702
1;4;703
1;4;704
1;4;705
1;4;706
1;4;707
1;4;708
1;4;709
1;4;710
1;4;711
1;4;712
1;4;713
1;4;714
1;4;715
1;4;716
1;4;717
1;4;718
1;4;719
1;4;720
1;4;721
1;4;722
1;4;723
1;4;724
1;4;725
1;4;726
1;4;727
1;4;728
1;4;729
1;4;730
1;4;731
1;4;732
1;4;733
1;4;734
1;4;735
1;4;736
1;4;737
1;4;738
1;4;739
1;4;740
1;4;741
1;4;742
1;4;743
1;4;744
1;4;745
1;4;746
1;4;747
1;4;748
1;4;749
1;4;750
1;4;751
1;4;752
1;4;753
1;4;754
1;4;755
1;4;756
1;4;757
1;4;758
1;4;759
1;4;760
1;4;761
1;4;762
1;4;763
1;4;764
1;4;765
1;4;766
1;4;767
1;4;768
1;4;769
1;4;770
1;4;771
1;4;772
1;4;773
1;4;774
1;4;775
1;4;776
1;4;777
1;4;778
1;4;779
1;4;780
1;4;781
1;4;782
1;4;783
1;4;784
1;4;785
1;4;786
1;4;787
1;4;788
1;4;789
1;4;790
1;4;791
1;4;792
1;4;793
1;4;794
1;4;795
1;4;796
1;4;797
1;4;798
1;4;799
1;4;800
1;4;801
1;4;802
1;4;803
1;4;804
1;4;805
1;4;806
1;4;807
1;4;808
1;4;809
1;4;810
1;4;811
1;4;812
1;4;813
1;4;814
1;4;815
1;4;816
1;4;817
1;4;818
1;4;819
1;4;820
1;4;821
1;4;822
1;4;823
1;4;824
1;4;825
1;4;826
1;4;827
1;4;828
1;4;829
1;4;830
1;4;831
1;4;832
1;4;833
1;4;834
1;4;835
1;4;836
1;4;837
1;4;838
1;4;839
1;4;840
1;4;841
1;4;842
1;4;843
1;4;844
1;4;845
1;4;846
1;4;847
1;4;848
1;4;849
1;4;850
1;4;851
1;4;852
1;4;853
1;4;854
1;4;855
1;4;856
1;4;857
1;4;858
1;4;859
1;4;860
1;4;861
1;4;862
1;4;863
1;4;864
1;4;865
1;4;866
1;4;867
1;4;868
1;4;869
1;4;870
1;4;871
1;4;872
1;4;873
1;4;874
1;4;875
1;4;876
1;4;877
1;4;878
1;4;879
1;4;880
1;4;881
1;4;882
1;4;883
1;4;884
1;4;885
1;4;886
1;4;887
1;4;888
1;4;889
1;4;890
1;4;891
1;4;892
1;4;893
1;4;894
1;4;895
1;4;896
1;4;897
1;4;898
1;4;899
1;4;900
1;4;901
1;4;902
1;4;903
1;4;904
1;4;905
1;4;906
1;4;907
1;4;908
1;4;909
1;4;910
1;4;911
1;4;912
1;4;913
1;4;914
1;4;915
1;4;916
1;4;917
1;4;918
1;4;919
1;4;920
1;4;921
1;4;922
1;4;923
1;4;924
1;4;925
1;4;926
1;4;927
1;4;928
1;4;929
1;4;930
1;4;931
1;4;932
1;4;933
1;4;934
1;4;935
1;4;936
1;4;937
1;4;938
1;4;939
1;4;940
1;4;941
1;4;942
1;4;943
1;4;944
1;4;945
1;4;946
1;4;947
1;4;948
1;4;949
1;4;950
1;4;951
1;4;952
1;4;953
1;4;954
1;4;955
1;4;956
1;4;957
1;4;958
1;4;959
1;4;960
1;4;961
1;4;962
1;4;963
1;4;964
1;4;965
1;4;966
1;4;967
1;4;968
1;4;969
1;4;970
1;4;971
1;4;972
1;4;973
1;4;974
1;4;975
1;4;976
1;4;977
1;4;978
1;4;979
1;4;980
1;4;981
1;4;982
1;4;983
1;4;984
1;4;985
1;4;986
1;4;987
1;4;988
1;4;989
1;4;990
1;4;991
1;4;992
1;4;993
1;4;994
1;4;995
1;4;996
1;4;997
1;4;998
1;4;999
1;5;51
1;5;52
1;5;53
1;5;97
1;5;115
1;6;1
1;6;11
1;6;12
1;6;15
1;6;21
1;6;34
1;6;48
1;6;70
1;6;90
1;6;97
1;6;100
1;6;101
1;6;102
1;6;103
1;6;110
1;6;115
1;6;120
1;6;140
1;6;150
1;6;161
1;6;162
1;6;180
1;6;181
1;6;200
1;6;201
1;6;202
1;6;241
1;6;242
1;6;301
1;6;302
1;6;380
1;6;530
1;6;659
1;6;701
1;6;702
1;6;710
1;6;721
1;6;722
1;6;730
1;6;802
1;6;856
1;6;857
1;7;1
1;7;13
1;7;97
1;7;115
1;7;142
1;7;152
1;7;202
1;7;203
1;7;222
1;7;223
1;7;760
1;7;802
1;7;856
1;7;857
1;8;97
1;8;108
1;8;109
1;8;111
1;8;115
1;8;116
1;8;121
1;8;122
1;8;123
1;8;124
1;8;125
1;8;231
1;8;721
1;8;802
1;8;856
1;8;857
1;9;1
1;9;97
1;9;115
1;10;97
1;10;101
1;10;110
1;10;115
1;10;120
1;10;150
1;10;206
1;10;207
1;10;208
1;10;280
1;10;340
1;10;530
1;10;560
1;10;802
1;10;856
1;10;857
1;12;97
1;12;101
1;12;110
1;12;115
1;12;120
1;12;530
1;14;1
1;14;97
1;14;115
1;15;1
1;15;97
1;15;115
1;16;1
1;16;97
1;16;115
1;17;9
1;17;97
1;17;115
1;17;500
1;17;501
1;17;502
1;17;503
1;17;504
1;17;505
1;17;506
1;17;507
1;17;520
1;17;550
1;17;570
1;17;580
1;17;581
1;90;97
1;90;110
1;90;115
1;90;120
1;90;280
1;90;330
1;90;530
1;90;671
1;90;672
1;90;673
1;90;674
1;90;675
1;90;676
1;90;677
1;90;802
1;90;856
1;90;857
1;93;857
1;95;857
2;1;10
2;1;11
2;1;20
2;1;30
2;1;40
2;1;45
2;1;46
2;1;47
2;1;50
2;1;60
2;1;70
2;1;90
2;1;91
2;1;92
2;1;95
2;1;96
2;1;97
2;1;100
2;1;101
2;1;102
2;1;103
2;1;105
2;1;106
2;1;107
2;1;108
2;1;110
2;1;112
2;1;114
2;1;115
2;1;119
2;1;120
2;1;129
2;1;130
2;1;140
2;1;144
2;1;150
2;1;154
2;1;159
2;1;160
2;1;170
2;1;180
2;1;181
2;1;188
2;1;189
2;1;200
2;1;201
2;1;209
2;1;210
2;1;211
2;1;230
2;1;232
2;1;235
2;1;243
2;1;244
2;1;245
2;1;250
2;1;260
2;1;270
2;1;280
2;1;290
2;1;291
2;1;300
2;1;310
2;1;311
2;1;312
2;1;320
2;1;330
2;1;340
2;1;350
2;1;360
2;1;370
2;1;374
2;1;400
2;1;405
2;1;440
2;1;445
2;1;480
2;1;485
2;1;490
2;1;495
2;1;530
2;1;534
2;1;539
2;1;540
2;1;550
2;1;560
2;1;620
2;1;630
2;1;655
2;1;660
2;1;669
2;1;670
2;1;701
2;1;710
2;1;720
2;1;721
2;1;730
2;1;740
2;1;741
2;1;742
2;1;750
2;1;800
2;1;801
2;1;802
2;1;803
2;1;804
2;1;805
2;1;806
2;1;808
2;1;809
2;1;810
2;1;815
2;1;816
2;1;817
2;1;818
2;1;820
2;1;825
2;1;826
2;1;827
2;1;830
2;1;831
2;1;832
2;1;833
2;1;840
2;1;850
2;1;860
2;1;870
2;1;880
2;1;888
2;1;890
2;1;900
2;1;910
2;1;920
2;1;930
2;1;940
2;1;950
2;1;960
2;1;970
2;1;980
2;1;990
2;2;1
2;2;2
2;2;3
2;2;4
2;2;6
2;2;7
2;2;10
2;2;11
2;2;20
2;2;30
2;2;40
2;2;97
2;2;115
2;3;1
2;3;2
2;3;3
2;3;4
2;3;5
2;3;6
2;3;97
2;3;115
2;4;97
2;4;100
2;4;101
2;4;102
2;4;103
2;4;104
2;4;105
2;4;106
2;4;107
2;4;108
2;4;109
2;4;110
2;4;111
2;4;112
2;4;113
2;4;114
2;4;115
2;4;116
2;4;117
2;4;118
2;4;119
2;4;120
2;4;121
2;4;122
2;4;123
2;4;124
2;4;125
2;4;126
2;4;127
2;4;128
2;4;129
2;4;130
2;4;131
2;4;132
2;4;133
2;4;134
2;4;135
2;4;136
2;4;137
2;4;138
2;4;139
2;4;140
2;4;141
2;4;142
2;4;143
2;4;144
2;4;145
2;4;146
2;4;147
2;4;148
2;4;149
2;4;150
2;4;151
2;4;152
2;4;153
2;4;154
2;4;155
2;4;156
2;4;157
2;4;158
2;4;159
2;4;160
2;4;161
2;4;162
2;4;163
2;4;164
2;4;165
2;4;166
2;4;167
2;4;168
2;4;169
2;4;170
2;4;171
2;4;172
2;4;173
2;4;174
2;4;175
2;4;176
2;4;177
2;4;178
2;4;179
2;4;180
2;4;181
2;4;182
2;4;183
2;4;184
2;4;185
2;4;186
2;4;187
2;4;188
2;4;189
2;4;190
2;4;191
2;4;192
2;4;193
2;4;194
2;4;195
2;4;196
2;4;197
2;4;198
2;4;199
2;4;200
2;4;201
2;4;202
2;4;203
2;4;204
2;4;205
2;4;206
2;4;207
2;4;208
2;4;209
2;4;210
2;4;211
2;4;212
2;4;213
2;4;214
2;4;215
2;4;216
2;4;217
2;4;218
2;4;219
2;4;220
2;4;221
2;4;222
2;4;223
2;4;224
2;4;225
2;4;226
2;4;227
2;4;228
2;4;229
2;4;230
2;4;231
2;4;232
2;4;233
2;4;234
2;4;235
2;4;236
2;4;237
2;4;238
2;4;239
2;4;240
2;4;241
2;4;242
2;4;243
2;4;244
2;4;245
2;4;246
2;4;247
2;4;248
2;4;249
2;4;250
2;4;251
2;4;252
2;4;253
2;4;254
2;4;255
2;4;256
2;4;257
2;4;258
2;4;259
2;4;260
2;4;261
2;4;262
2;4;263
2;4;264
2;4;265
2;4;266
2;4;267
2;4;268
2;4;269
2;4;270
2;4;271
2;4;272
2;4;273
2;4;274
2;4;275
2;4;276
2;4;277
2;4;278
2;4;279
2;4;280
2;4;281
2;4;282
2;4;283
2;4;284
2;4;285
2;4;286
2;4;287
2;4;288
2;4;289
2;4;290
2;4;291
2;4;292
2;4;293
2;4;294
2;4;295
2;4;296
2;4;297
2;4;298
2;4;299
2;4;300
2;4;301
2;4;302
2;4;303
2;4;304
2;4;305
2;4;306
2;4;307
2;4;308
2;4;309
2;4;310
2;4;311
2;4;312
2;4;313
2;4;314
2;4;315
2;4;316
2;4;317
2;4;318
2;4;319
2;4;320
2;4;321
2;4;322
2;4;323
2;4;324
2;4;325
2;4;326
2;4;327
2;4;328
2;4;329
2;4;330
2;4;331
2;4;332
2;4;333
2;4;334
2;4;335
2;4;336
2;4;337
2;4;338
2;4;339
2;4;340
2;4;341
2;4;342
2;4;343
2;4;344
2;4;345
2;4;346
2;4;347
2;4;348
2;4;349
2;4;350
2;4;351
2;4;352
2;4;353
2;4;354
2;4;355
2;4;356
2;4;357
2;4;358
2;4;359
2;4;360
2;4;361
2;4;362
2;4;363
2;4;364
2;4;365
2;4;366
2;4;367
2;4;368
2;4;369
2;4;370
2;4;371
2;4;372
2;4;373
2;4;374
2;4;375
2;4;376
2;4;377
2;4;378
2;4;379
2;4;380
2;4;381
2;4;382
2;4;383
2;4;384
2;4;385
2;4;386
2;4;387
2;4;388
2;4;389
2;4;390
2;4;391
2;4;392
2;4;393
2;4;394
2;4;395
2;4;396
2;4;397
2;4;398
2;4;399
2;4;400
2;4;401
2;4;402
2;4;403
2;4;404
2;4;405
2;4;406
2;4;407
2;4;408
2;4;409
2;4;410
2;4;411
2;4;412
2;4;413
2;4;414
2;4;415
2;4;416
2;4;417
2;4;418
2;4;419
2;4;420
2;4;421
2;4;422
2;4;423
2;4;424
2;4;425
2;4;426
2;4;427
2;4;428
2;4;429
2;4;430
2;4;431
2;4;432
2;4;433
2;4;434
2;4;435
2;4;436
2;4;437
2;4;438
2;4;439
2;4;440
2;4;441
2;4;442
2;4;443
2;4;444
2;4;445
2;4;446
2;4;447
2;4;448
2;4;449
2;4;450
2;4;451
2;4;452
2;4;453
2;4;454
2;4;455
2;4;456
2;4;457
2;4;458
2;4;459
2;4;460
2;4;461
2;4;462
2;4;463
2;4;464
2;4;465
2;4;466
2;4;467
2;4;468
2;4;469
2;4;470
2;4;471
2;4;472
2;4;473
2;4;474
2;4;475
2;4;476
2;4;477
2;4;478
2;4;479
2;4;480
2;4;481
2;4;482
2;4;483
2;4;484
2;4;485
2;4;486
2;4;487
2;4;488
2;4;489
2;4;490
2;4;491
2;4;492
2;4;493
2;4;494
2;4;495
2;4;496
2;4;497
2;4;498
2;4;499
2;4;500
2;4;501
2;4;502
2;4;503
2;4;504
2;4;505
2;4;506
2;4;507
2;4;508
2;4;509
2;4;510
2;4;511
2;4;512
2;4;513
2;4;514
2;4;515
2;4;516
2;4;517
2;4;518
2;4;519
2;4;520
2;4;521
2;4;522
2;4;523
2;4;524
2;4;525
2;4;526
2;4;527
2;4;528
2;4;529
2;4;530
2;4;531
2;4;532
2;4;533
2;4;534
2;4;535
2;4;536
2;4;537
2;4;538
2;4;539
2;4;540
2;4;541
2;4;542
2;4;543
2;4;544
2;4;545
2;4;546
2;4;547
2;4;548
2;4;549
2;4;550
2;4;551
2;4;552
2;4;553
2;4;554
2;4;555
2;4;556
2;4;557
2;4;558
2;4;559
2;4;560
2;4;561
2;4;562
2;4;563
2;4;564
2;4;565
2;4;566
2;4;567
2;4;568
2;4;569
2;4;570
2;4;571
2;4;572
2;4;573
2;4;574
2;4;575
2;4;576
2;4;577
2;4;578
2;4;579
2;4;580
2;4;581
2;4;582
2;4;583
2;4;584
2;4;585
2;4;586
2;4;587
2;4;588
2;4;589
2;4;590
2;4;591
2;4;592
2;4;593
2;4;594
2;4;595
2;4;596
2;4;597
2;4;598
2;4;599
2;4;600
2;4;601
2;4;602
2;4;603
2;4;604
2;4;605
2;4;606
2;4;607
2;4;608
2;4;609
2;4;610
2;4;611
2;4;612
2;4;613
2;4;614
2;4;615
2;4;616
2;4;617
2;4;618
2;4;619
2;4;620
2;4;621
2;4;622
2;4;623
2;4;624
2;4;625
2;4;626
2;4;627
2;4;628
2;4;629
2;4;630
2;4;631
2;4;632
2;4;633
2;4;634
2;4;635
2;4;636
2;4;637
2;4;638
2;4;639
2;4;640
2;4;641
2;4;642
2;4;643
2;4;644
2;4;645
2;4;646
2;4;647
2;4;648
2;4;649
2;4;650
2;4;651
2;4;652
2;4;653
2;4;654
2;4;655
2;4;656
2;4;657
2;4;658
2;4;659
2;4;660
2;4;661
2;4;662
2;4;663
2;4;664
2;4;665
2;4;666
2;4;667
2;4;668
2;4;669
2;4;670
2;4;671
2;4;672
2;4;673
2;4;674
2;4;675
2;4;676
2;4;677
2;4;678
2;4;679
2;4;680
2;4;681
2;4;682
2;4;683
2;4;684
2;4;685
2;4;686
2;4;687
2;4;688
2;4;689
2;4;690
2;4;691
2;4;692
2;4;693
2;4;694
2;4;695
2;4;696
2;4;697
2;4;698
2;4;699
2;4;700
2;4;701
2;4;702
2;4;703
2;4;704
2;4;705
2;4;706
2;4;707
2;4;708
2;4;709
2;4;710
2;4;711
2;4;712
2;4;713
2;4;714
2;4;715
2;4;716
2;4;717
2;4;718
2;4;719
2;4;720
2;4;721
2;4;722
2;4;723
2;4;724
2;4;725
2;4;726
2;4;727
2;4;728
2;4;729
2;4;730
2;4;731
2;4;732
2;4;733
2;4;734
2;4;735
2;4;736
2;4;737
2;4;738
2;4;739
2;4;740
2;4;741
2;4;742
2;4;743
2;4;744
2;4;745
2;4;746
2;4;747
2;4;748
2;4;749
2;4;750
2;4;751
2;4;752
2;4;753
2;4;754
2;4;755
2;4;756
2;4;757
2;4;758
2;4;759
2;4;760
2;4;761
2;4;762
2;4;763
2;4;764
2;4;765
2;4;766
2;4;767
2;4;768
2;4;769
2;4;770
2;4;771
2;4;772
2;4;773
2;4;774
2;4;775
2;4;776
2;4;777
2;4;778
2;4;779
2;4;780
2;4;781
2;4;782
2;4;783
2;4;784
2;4;785
2;4;786
2;4;787
2;4;788
2;4;789
2;4;790
2;4;791
2;4;792
2;4;793
2;4;794
2;4;795
2;4;796
2;4;797
2;4;798
2;4;799
2;4;800
2;4;801
2;4;802
2;4;803
2;4;804
2;4;805
2;4;806
2;4;807
2;4;808
2;4;809
2;4;810
2;4;811
2;4;812
2;4;813
2;4;814
2;4;815
2;4;816
2;4;817
2;4;818
2;4;819
2;4;820
2;4;821
2;4;822
2;4;823
2;4;824
2;4;825
2;4;826
2;4;827
2;4;828
2;4;829
2;4;830
2;4;831
2;4;832
2;4;833
2;4;834
2;4;835
2;4;836
2;4;837
2;4;838
2;4;839
2;4;840
2;4;841
2;4;842
2;4;843
2;4;844
2;4;845
2;4;846
2;4;847
2;4;848
2;4;849
2;4;850
2;4;851
2;4;852
2;4;853
2;4;854
2;4;855
2;4;856
2;4;857
2;4;858
2;4;859
2;4;860
2;4;861
2;4;862
2;4;863
2;4;864
2;4;865
2;4;866
2;4;867
2;4;868
2;4;869
2;4;870
2;4;871
2;4;872
2;4;873
2;4;874
2;4;875
2;4;876
2;4;877
2;4;878
2;4;879
2;4;880
2;4;881
2;4;882
2;4;883
2;4;884
2;4;885
2;4;886
2;4;887
2;4;888
2;4;889
2;4;890
2;4;891
2;4;892
2;4;893
2;4;894
2;4;895
2;4;896
2;4;897
2;4;898
2;4;899
2;4;900
2;4;901
2;4;902
2;4;903
2;4;904
2;4;905
2;4;906
2;4;907
2;4;908
2;4;909
2;4;910
2;4;911
2;4;912
2;4;913
2;4;914
2;4;915
2;4;916
2;4;917
2;4;918
2;4;919
2;4;920
2;4;921
2;4;922
2;4;923
2;4;924
2;4;925
2;4;926
2;4;927
2;4;928
2;4;929
2;4;930
2;4;931
2;4;932
2;4;933
2;4;934
2;4;935
2;4;936
2;4;937
2;4;938
2;4;939
2;4;940
2;4;941
2;4;942
2;4;943
2;4;944
2;4;945
2;4;946
2;4;947
2;4;948
2;4;949
2;4;950
2;4;951
2;4;952
2;4;953
2;4;954
2;4;955
2;4;956
2;4;957
2;4;958
2;4;959
2;4;960
2;4;961
2;4;962
2;4;963
2;4;964
2;4;965
2;4;966
2;4;967
2;4;968
2;4;969
2;4;970
2;4;971
2;4;972
2;4;973
2;4;974
2;4;975
2;4;976
2;4;977
2;4;978
2;4;979
2;4;980
2;4;981
2;4;982
2;4;983
2;4;984
2;4;985
2;4;986
2;4;987
2;4;988
2;4;989
2;4;990
2;4;991
2;4;992
2;4;993
2;4;994
2;4;995
2;4;996
2;4;997
2;4;998
2;4;999
2;5;51
2;5;52
2;5;53
2;5;97
2;5;115
2;6;1
2;6;11
2;6;12
2;6;21
2;6;34
2;6;48
2;6;70
2;6;90
2;6;97
2;6;100
2;6;101
2;6;102
2;6;103
2;6;110
2;6;115
2;6;120
2;6;140
2;6;150
2;6;161
2;6;162
2;6;180
2;6;181
2;6;200
2;6;201
2;6;202
2;6;241
2;6;242
2;6;380
2;6;530
2;6;659
2;6;701
2;6;702
2;6;710
2;6;721
2;6;722
2;6;730
2;6;802
2;7;1
2;7;13
2;7;97
2;7;115
2;7;142
2;7;152
2;7;202
2;7;203
2;7;222
2;7;223
2;7;760
2;7;802
2;8;97
2;8;108
2;8;109
2;8;111
2;8;115
2;8;116
2;8;121
2;8;122
2;8;123
2;8;231
2;8;721
2;8;802
2;9;1
2;9;97
2;9;115
2;10;97
2;10;101
2;10;110
2;10;115
2;10;120
2;10;150
2;10;206
2;10;207
2;10;208
2;10;280
2;10;340
2;10;530
2;10;560
2;10;802
2;12;97
2;12;101
2;12;110
2;12;115
2;12;120
2;12;530
2;14;1
2;14;97
2;14;115
2;15;1
2;15;97
2;15;115
2;16;1
2;16;97
2;16;115
2;17;9
2;17;97
2;17;115
2;17;500
2;17;501
2;17;502
2;17;503
2;17;504
2;17;505
2;17;506
2;17;507
2;17;520
2;17;550
2;17;570
2;17;580
2;17;581
2;90;97
2;90;110
2;90;115
2;90;280
2;90;530
2;90;671
2;90;672
2;90;673
2;90;674
2;90;675
2;90;676
2;90;677
2;90;802
3;1;10
3;1;11
3;1;20
3;1;30
3;1;40
3;1;45
3;1;46
3;1;47
3;1;50
3;1;60
3;1;70
3;1;90
3;1;91
3;1;92
3;1;95
3;1;96
3;1;97
3;1;100
3;1;101
3;1;102
3;1;103
3;1;105
3;1;106
3;1;107
3;1;108
3;1;110
3;1;112
3;1;114
3;1;115
3;1;119
3;1;120
3;1;129
3;1;130
3;1;140
3;1;144
3;1;150
3;1;154
3;1;159
3;1;160
3;1;170
3;1;180
3;1;181
3;1;188
3;1;189
3;1;200
3;1;201
3;1;209
3;1;210
3;1;211
3;1;230
3;1;232
3;1;235
3;1;243
3;1;244
3;1;245
3;1;250
3;1;260
3;1;270
3;1;280
3;1;290
3;1;291
3;1;300
3;1;310
3;1;311
3;1;312
3;1;320
3;1;330
3;1;340
3;1;350
3;1;360
3;1;370
3;1;374
3;1;400
3;1;405
3;1;440
3;1;445
3;1;480
3;1;485
3;1;490
3;1;495
3;1;530
3;1;534
3;1;539
3;1;540
3;1;550
3;1;560
3;1;620
3;1;630
3;1;652
3;1;655
3;1;656
3;1;657
3;1;658
3;1;660
3;1;669
3;1;670
3;1;701
3;1;710
3;1;720
3;1;721
3;1;730
3;1;740
3;1;741
3;1;742
3;1;750
3;1;800
3;1;801
3;1;802
3;1;803
3;1;804
3;1;805
3;1;806
3;1;808
3;1;809
3;1;810
3;1;815
3;1;816
3;1;817
3;1;818
3;1;820
3;1;825
3;1;826
3;1;827
3;1;830
3;1;831
3;1;832
3;1;833
3;1;840
3;1;850
3;1;856
3;1;857
3;1;860
3;1;870
3;1;880
3;1;888
3;1;890
3;1;900
3;1;910
3;1;920
3;1;930
3;1;940
3;1;950
3;1;960
3;1;970
3;1;980
3;1;990
3;2;1
3;2;2
3;2;3
3;2;4
3;2;5
3;2;6
3;2;7
3;2;10
3;2;11
3;2;20
3;2;30
3;2;40
3;2;97
3;2;115
3;3;1
3;3;2
3;3;3
3;3;4
3;3;5
3;3;6
3;3;97
3;3;115
3;4;97
3;4;100
3;4;101
3;4;102
3;4;103
3;4;104
3;4;105
3;4;106
3;4;107
3;4;108
3;4;109
3;4;110
3;4;111
3;4;112
3;4;113
3;4;114
3;4;115
3;4;116
3;4;117
3;4;118
3;4;119
3;4;120
3;4;121
3;4;122
3;4;123
3;4;124
3;4;125
3;4;126
3;4;127
3;4;128
3;4;129
3;4;130
3;4;131
3;4;132
3;4;133
3;4;134
3;4;135
3;4;136
3;4;137
3;4;138
3;4;139
3;4;140
3;4;141
3;4;142
3;4;143
3;4;144
3;4;145
3;4;146
3;4;147
3;4;148
3;4;149
3;4;150
3;4;151
3;4;152
3;4;153
3;4;154
3;4;155
3;4;156
3;4;157
3;4;158
3;4;159
3;4;160
3;4;161
3;4;162
3;4;163
3;4;164
3;4;165
3;4;166
3;4;167
3;4;168
3;4;169
3;4;170
3;4;171
3;4;172
3;4;173
3;4;174
3;4;175
3;4;176
3;4;177
3;4;178
3;4;179
3;4;180
3;4;181
3;4;182
3;4;183
3;4;184
3;4;185
3;4;186
3;4;187
3;4;188
3;4;189
3;4;190
3;4;191
3;4;192
3;4;193
3;4;194
3;4;195
3;4;196
3;4;197
3;4;198
3;4;199
3;4;200
3;4;201
3;4;202
3;4;203
3;4;204
3;4;205
3;4;206
3;4;207
3;4;208
3;4;209
3;4;210
3;4;211
3;4;212
3;4;213
3;4;214
3;4;215
3;4;216
3;4;217
3;4;218
3;4;219
3;4;220
3;4;221
3;4;222
3;4;223
3;4;224
3;4;225
3;4;226
3;4;227
3;4;228
3;4;229
3;4;230
3;4;231
3;4;232
3;4;233
3;4;234
3;4;235
3;4;236
3;4;237
3;4;238
3;4;239
3;4;240
3;4;241
3;4;242
3;4;243
3;4;244
3;4;245
3;4;246
3;4;247
3;4;248
3;4;249
3;4;250
3;4;251
3;4;252
3;4;253
3;4;254
3;4;255
3;4;256
3;4;257
3;4;258
3;4;259
3;4;260
3;4;261
3;4;262
3;4;263
3;4;264
3;4;265
3;4;266
3;4;267
3;4;268
3;4;269
3;4;270
3;4;271
3;4;272
3;4;273
3;4;274
3;4;275
3;4;276
3;4;277
3;4;278
3;4;279
3;4;280
3;4;281
3;4;282
3;4;283
3;4;284
3;4;285
3;4;286
3;4;287
3;4;288
3;4;289
3;4;290
3;4;291
3;4;292
3;4;293
3;4;294
3;4;295
3;4;296
3;4;297
3;4;298
3;4;299
3;4;300
3;4;301
3;4;302
3;4;303
3;4;304
3;4;305
3;4;306
3;4;307
3;4;308
3;4;309
3;4;310
3;4;311
3;4;312
3;4;313
3;4;314
3;4;315
3;4;316
3;4;317
3;4;318
3;4;319
3;4;320
3;4;321
3;4;322
3;4;323
3;4;324
3;4;325
3;4;326
3;4;327
3;4;328
3;4;329
3;4;330
3;4;331
3;4;332
3;4;333
3;4;334
3;4;335
3;4;336
3;4;337
3;4;338
3;4;339
3;4;340
3;4;341
3;4;342
3;4;343
3;4;344
3;4;345
3;4;346
3;4;347
3;4;348
3;4;349
3;4;350
3;4;351
3;4;352
3;4;353
3;4;354
3;4;355
3;4;356
3;4;357
3;4;358
3;4;359
3;4;360
3;4;361
3;4;362
3;4;363
3;4;364
3;4;365
3;4;366
3;4;367
3;4;368
3;4;369
3;4;370
3;4;371
3;4;372
3;4;373
3;4;374
3;4;375
3;4;376
3;4;377
3;4;378
3;4;379
3;4;380
3;4;381
3;4;382
3;4;383
3;4;384
3;4;385
3;4;386
3;4;387
3;4;388
3;4;389
3;4;390
3;4;391
3;4;392
3;4;393
3;4;394
3;4;395
3;4;396
3;4;397
3;4;398
3;4;399
3;4;400
3;4;401
3;4;402
3;4;403
3;4;404
3;4;405
3;4;406
3;4;407
3;4;408
3;4;409
3;4;410
3;4;411
3;4;412
3;4;413
3;4;414
3;4;415
3;4;416
3;4;417
3;4;418
3;4;419
3;4;420
3;4;421
3;4;422
3;4;423
3;4;424
3;4;425
3;4;426
3;4;427
3;4;428
3;4;429
3;4;430
3;4;431
3;4;432
3;4;433
3;4;434
3;4;435
3;4;436
3;4;437
3;4;438
3;4;439
3;4;440
3;4;441
3;4;442
3;4;443
3;4;444
3;4;445
3;4;446
3;4;447
3;4;448
3;4;449
3;4;450
3;4;451
3;4;452
3;4;453
3;4;454
3;4;455
3;4;456
3;4;457
3;4;458
3;4;459
3;4;460
3;4;461
3;4;462
3;4;463
3;4;464
3;4;465
3;4;466
3;4;467
3;4;468
3;4;469
3;4;470
3;4;471
3;4;472
3;4;473
3;4;474
3;4;475
3;4;476
3;4;477
3;4;478
3;4;479
3;4;480
3;4;481
3;4;482
3;4;483
3;4;484
3;4;485
3;4;486
3;4;487
3;4;488
3;4;489
3;4;490
3;4;491
3;4;492
3;4;493
3;4;494
3;4;495
3;4;496
3;4;497
3;4;498
3;4;499
3;4;500
3;4;501
3;4;502
3;4;503
3;4;504
3;4;505
3;4;506
3;4;507
3;4;508
3;4;509
3;4;510
3;4;511
3;4;512
3;4;513
3;4;514
3;4;515
3;4;516
3;4;517
3;4;518
3;4;519
3;4;520
3;4;521
3;4;522
3;4;523
3;4;524
3;4;525
3;4;526
3;4;527
3;4;528
3;4;529
3;4;530
3;4;531
3;4;532
3;4;533
3;4;534
3;4;535
3;4;536
3;4;537
3;4;538
3;4;539
3;4;540
3;4;541
3;4;542
3;4;543
3;4;544
3;4;545
3;4;546
3;4;547
3;4;548
3;4;549
3;4;550
3;4;551
3;4;552
3;4;553
3;4;554
3;4;555
3;4;556
3;4;557
3;4;558
3;4;559
3;4;560
3;4;561
3;4;562
3;4;563
3;4;564
3;4;565
3;4;566
3;4;567
3;4;568
3;4;569
3;4;570
3;4;571
3;4;572
3;4;573
3;4;574
3;4;575
3;4;576
3;4;577
3;4;578
3;4;579
3;4;580
3;4;581
3;4;582
3;4;583
3;4;584
3;4;585
3;4;586
3;4;587
3;4;588
3;4;589
3;4;590
3;4;591
3;4;592
3;4;593
3;4;594
3;4;595
3;4;596
3;4;597
3;4;598
3;4;599
3;4;600
3;4;601
3;4;602
3;4;603
3;4;604
3;4;605
3;4;606
3;4;607
3;4;608
3;4;609
3;4;610
3;4;611
3;4;612
3;4;613
3;4;614
3;4;615
3;4;616
3;4;617
3;4;618
3;4;619
3;4;620
3;4;621
3;4;622
3;4;623
3;4;624
3;4;625
3;4;626
3;4;627
3;4;628
3;4;629
3;4;630
3;4;631
3;4;632
3;4;633
3;4;634
3;4;635
3;4;636
3;4;637
3;4;638
3;4;639
3;4;640
3;4;641
3;4;642
3;4;643
3;4;644
3;4;645
3;4;646
3;4;647
3;4;648
3;4;649
3;4;650
3;4;651
3;4;652
3;4;653
3;4;654
3;4;655
3;4;656
3;4;657
3;4;658
3;4;659
3;4;660
3;4;661
3;4;662
3;4;663
3;4;664
3;4;665
3;4;666
3;4;667
3;4;668
3;4;669
3;4;670
3;4;671
3;4;672
3;4;673
3;4;674
3;4;675
3;4;676
3;4;677
3;4;678
3;4;679
3;4;680
3;4;681
3;4;682
3;4;683
3;4;684
3;4;685
3;4;686
3;4;687
3;4;688
3;4;689
3;4;690
3;4;691
3;4;692
3;4;693
3;4;694
3;4;695
3;4;696
3;4;697
3;4;698
3;4;699
3;4;700
3;4;701
3;4;702
3;4;703
3;4;704
3;4;705
3;4;706
3;4;707
3;4;708
3;4;709
3;4;710
3;4;711
3;4;712
3;4;713
3;4;714
3;4;715
3;4;716
3;4;717
3;4;718
3;4;719
3;4;720
3;4;721
3;4;722
3;4;723
3;4;724
3;4;725
3;4;726
3;4;727
3;4;728
3;4;729
3;4;730
3;4;731
3;4;732
3;4;733
3;4;734
3;4;735
3;4;736
3;4;737
3;4;738
3;4;739
3;4;740
3;4;741
3;4;742
3;4;743
3;4;744
3;4;745
3;4;746
3;4;747
3;4;748
3;4;749
3;4;750
3;4;751
3;4;752
3;4;753
3;4;754
3;4;755
3;4;756
3;4;757
3;4;758
3;4;759
3;4;760
3;4;761
3;4;762
3;4;763
3;4;764
3;4;765
3;4;766
3;4;767
3;4;768
3;4;769
3;4;770
3;4;771
3;4;772
3;4;773
3;4;774
3;4;775
3;4;776
3;4;777
3;4;778
3;4;779
3;4;780
3;4;781
3;4;782
3;4;783
3;4;784
3;4;785
3;4;786
3;4;787
3;4;788
3;4;789
3;4;790
3;4;791
3;4;792
3;4;793
3;4;794
3;4;795
3;4;796
3;4;797
3;4;798
3;4;799
3;4;800
3;4;801
3;4;802
3;4;803
3;4;804
3;4;805
3;4;806
3;4;807
3;4;808
3;4;809
3;4;810
3;4;811
3;4;812
3;4;813
3;4;814
3;4;815
3;4;816
3;4;817
3;4;818
3;4;819
3;4;820
3;4;821
3;4;822
3;4;823
3;4;824
3;4;825
3;4;826
3;4;827
3;4;828
3;4;829
3;4;830
3;4;831
3;4;832
3;4;833
3;4;834
3;4;835
3;4;836
3;4;837
3;4;838
3;4;839
3;4;840
3;4;841
3;4;842
3;4;843
3;4;844
3;4;845
3;4;846
3;4;847
3;4;848
3;4;849
3;4;850
3;4;851
3;4;852
3;4;853
3;4;854
3;4;855
3;4;856
3;4;857
3;4;858
3;4;859
3;4;860
3;4;861
3;4;862
3;4;863
3;4;864
3;4;865
3;4;866
3;4;867
3;4;868
3;4;869
3;4;870
3;4;871
3;4;872
3;4;873
3;4;874
3;4;875
3;4;876
3;4;877
3;4;878
3;4;879
3;4;880
3;4;881
3;4;882
3;4;883
3;4;884
3;4;885
3;4;886
3;4;887
3;4;888
3;4;889
3;4;890
3;4;891
3;4;892
3;4;893
3;4;894
3;4;895
3;4;896
3;4;897
3;4;898
3;4;899
3;4;900
3;4;901
3;4;902
3;4;903
3;4;904
3;4;905
3;4;906
3;4;907
3;4;908
3;4;909
3;4;910
3;4;911
3;4;912
3;4;913
3;4;914
3;4;915
3;4;916
3;4;917
3;4;918
3;4;919
3;4;920
3;4;921
3;4;922
3;4;923
3;4;924
3;4;925
3;4;926
3;4;927
3;4;928
3;4;929
3;4;930
3;4;931
3;4;932
3;4;933
3;4;934
3;4;935
3;4;936
3;4;937
3;4;938
3;4;939
3;4;940
3;4;941
3;4;942
3;4;943
3;4;944
3;4;945
3;4;946
3;4;947
3;4;948
3;4;949
3;4;950
3;4;951
3;4;952
3;4;953
3;4;954
3;4;955
3;4;956
3;4;957
3;4;958
3;4;959
3;4;960
3;4;961
3;4;962
3;4;963
3;4;964
3;4;965
3;4;966
3;4;967
3;4;968
3;4;969
3;4;970
3;4;971
3;4;972
3;4;973
3;4;974
3;4;975
3;4;976
3;4;977
3;4;978
3;4;979
3;4;980
3;4;981
3;4;982
3;4;983
3;4;984
3;4;985
3;4;986
3;4;987
3;4;988
3;4;989
3;4;990
3;4;991
3;4;992
3;4;993
3;4;994
3;4;995
3;4;996
3;4;997
3;4;998
3;4;999
3;5;51
3;5;52
3;5;53
3;5;97
3;5;115
3;6;1
3;6;11
3;6;12
3;6;21
3;6;34
3;6;48
3;6;70
3;6;90
3;6;97
3;6;100
3;6;101
3;6;102
3;6;103
3;6;110
3;6;115
3;6;120
3;6;140
3;6;150
3;6;161
3;6;162
3;6;180
3;6;181
3;6;200
3;6;201
3;6;202
3;6;241
3;6;242
3;6;380
3;6;530
3;6;659
3;6;701
3;6;702
3;6;710
3;6;721
3;6;722
3;6;730
3;6;802
3;6;856
3;6;857
3;7;1
3;7;13
3;7;97
3;7;115
3;7;142
3;7;152
3;7;202
3;7;203
3;7;222
3;7;223
3;7;760
3;7;802
3;7;856
3;7;857
3;8;97
3;8;108
3;8;109
3;8;111
3;8;115
3;8;116
3;8;121
3;8;122
3;8;123
3;8;231
3;8;721
3;8;802
3;8;856
3;8;857
3;9;1
3;9;97
3;9;115
3;10;97
3;10;101
3;10;110
3;10;115
3;10;120
3;10;150
3;10;206
3;10;207
3;10;208
3;10;280
3;10;340
3;10;530
3;10;560
3;10;802
3;10;856
3;10;857
3;12;97
3;12;101
3;12;110
3;12;115
3;12;120
3;12;530
3;14;1
3;14;97
3;14;115
3;15;1
3;15;97
3;15;115
3;16;1
3;16;97
3;16;115
3;17;9
3;17;97
3;17;115
3;17;500
3;17;501
3;17;502
3;17;503
3;17;504
3;17;505
3;17;506
3;17;507
3;17;520
3;17;550
3;17;570
3;17;580
3;17;581
3;90;97
3;90;110
3;90;115
3;90;280
3;90;530
3;90;671
3;90;672
3;90;673
3;90;674
3;90;675
3;90;676
3;90;677
3;90;802
3;90;856
3;90;857
3;93;857
3;95;857
4;1;10
4;1;11
4;1;20
4;1;30
4;1;40
4;1;45
4;1;46
4;1;47
4;1;50
4;1;60
4;1;70
4;1;90
4;1;91
4;1;92
4;1;95
4;1;96
4;1;97
4;1;100
4;1;101
4;1;102
4;1;103
4;1;108
4;1;110
4;1;112
4;1;114
4;1;115
4;1;119
4;1;120
4;1;129
4;1;130
4;1;140
4;1;144
4;1;150
4;1;154
4;1;159
4;1;160
4;1;170
4;1;180
4;1;181
4;1;188
4;1;189
4;1;200
4;1;201
4;1;209
4;1;210
4;1;211
4;1;230
4;1;232
4;1;235
4;1;243
4;1;244
4;1;245
4;1;250
4;1;260
4;1;270
4;1;280
4;1;290
4;1;291
4;1;300
4;1;310
4;1;311
4;1;312
4;1;320
4;1;330
4;1;340
4;1;350
4;1;370
4;1;374
4;1;400
4;1;405
4;1;440
4;1;445
4;1;480
4;1;490
4;1;495
4;1;530
4;1;534
4;1;539
4;1;540
4;1;550
4;1;560
4;1;620
4;1;630
4;1;655
4;1;669
4;1;670
4;1;701
4;1;710
4;1;720
4;1;721
4;1;730
4;1;740
4;1;741
4;1;742
4;1;750
4;1;800
4;1;801
4;1;802
4;1;803
4;1;804
4;1;805
4;1;806
4;1;808
4;1;809
4;1;810
4;1;815
4;1;816
4;1;817
4;1;818
4;1;820
4;1;825
4;1;826
4;1;827
4;1;830
4;1;831
4;1;832
4;1;833
4;1;840
4;1;850
4;1;856
4;1;860
4;1;870
4;1;880
4;1;888
4;1;890
4;1;900
4;1;910
4;1;920
4;1;930
4;1;940
4;1;950
4;1;960
4;1;970
4;1;980
4;1;990
4;2;1
4;2;2
4;2;3
4;2;4
4;2;7
4;2;10
4;2;11
4;2;20
4;2;30
4;2;40
4;2;97
4;2;115
4;3;1
4;3;2
4;3;3
4;3;4
4;3;5
4;3;6
4;3;97
4;3;115
4;4;97
4;4;100
4;4;101
4;4;102
4;4;103
4;4;104
4;4;105
4;4;106
4;4;107
4;4;108
4;4;109
4;4;110
4;4;111
4;4;112
4;4;113
4;4;114
4;4;115
4;4;116
4;4;117
4;4;118
4;4;119
4;4;120
4;4;121
4;4;122
4;4;123
4;4;124
4;4;125
4;4;126
4;4;127
4;4;128
4;4;129
4;4;130
4;4;131
4;4;132
4;4;133
4;4;134
4;4;135
4;4;136
4;4;137
4;4;138
4;4;139
4;4;140
4;4;141
4;4;142
4;4;143
4;4;144
4;4;145
4;4;146
4;4;147
4;4;148
4;4;149
4;4;150
4;4;151
4;4;152
4;4;153
4;4;154
4;4;155
4;4;156
4;4;157
4;4;158
4;4;159
4;4;160
4;4;161
4;4;162
4;4;163
4;4;164
4;4;165
4;4;166
4;4;167
4;4;168
4;4;169
4;4;170
4;4;171
4;4;172
4;4;173
4;4;174
4;4;175
4;4;176
4;4;177
4;4;178
4;4;179
4;4;180
4;4;181
4;4;182
4;4;183
4;4;184
4;4;185
4;4;186
4;4;187
4;4;188
4;4;189
4;4;190
4;4;191
4;4;192
4;4;193
4;4;194
4;4;195
4;4;196
4;4;197
4;4;198
4;4;199
4;4;200
4;4;201
4;4;202
4;4;203
4;4;204
4;4;205
4;4;206
4;4;207
4;4;208
4;4;209
4;4;210
4;4;211
4;4;212
4;4;213
4;4;214
4;4;215
4;4;216
4;4;217
4;4;218
4;4;219
4;4;220
4;4;221
4;4;222
4;4;223
4;4;224
4;4;225
4;4;226
4;4;227
4;4;228
4;4;229
4;4;230
4;4;231
4;4;232
4;4;233
4;4;234
4;4;235
4;4;236
4;4;237
4;4;238
4;4;239
4;4;240
4;4;241
4;4;242
4;4;243
4;4;244
4;4;245
4;4;246
4;4;247
4;4;248
4;4;249
4;4;250
4;4;251
4;4;252
4;4;253
4;4;254
4;4;255
4;4;256
4;4;257
4;4;258
4;4;259
4;4;260
4;4;261
4;4;262
4;4;263
4;4;264
4;4;265
4;4;266
4;4;267
4;4;268
4;4;269
4;4;270
4;4;271
4;4;272
4;4;273
4;4;274
4;4;275
4;4;276
4;4;277
4;4;278
4;4;279
4;4;280
4;4;281
4;4;282
4;4;283
4;4;284
4;4;285
4;4;286
4;4;287
4;4;288
4;4;289
4;4;290
4;4;291
4;4;292
4;4;293
4;4;294
4;4;295
4;4;296
4;4;297
4;4;298
4;4;299
4;4;300
4;4;301
4;4;302
4;4;303
4;4;304
4;4;305
4;4;306
4;4;307
4;4;308
4;4;309
4;4;310
4;4;311
4;4;312
4;4;313
4;4;314
4;4;315
4;4;316
4;4;317
4;4;318
4;4;319
4;4;320
4;4;321
4;4;322
4;4;323
4;4;324
4;4;325
4;4;326
4;4;327
4;4;328
4;4;329
4;4;330
4;4;331
4;4;332
4;4;333
4;4;334
4;4;335
4;4;336
4;4;337
4;4;338
4;4;339
4;4;340
4;4;341
4;4;342
4;4;343
4;4;344
4;4;345
4;4;346
4;4;347
4;4;348
4;4;349
4;4;350
4;4;351
4;4;352
4;4;353
4;4;354
4;4;355
4;4;356
4;4;357
4;4;358
4;4;359
4;4;360
4;4;361
4;4;362
4;4;363
4;4;364
4;4;365
4;4;366
4;4;367
4;4;368
4;4;369
4;4;370
4;4;371
4;4;372
4;4;373
4;4;374
4;4;375
4;4;376
4;4;377
4;4;378
4;4;379
4;4;380
4;4;381
4;4;382
4;4;383
4;4;384
4;4;385
4;4;386
4;4;387
4;4;388
4;4;389
4;4;390
4;4;391
4;4;392
4;4;393
4;4;394
4;4;395
4;4;396
4;4;397
4;4;398
4;4;399
4;4;400
4;4;401
4;4;402
4;4;403
4;4;404
