{
    "fields": [
        {
            "name": "ENT_MOD_COD",
            "type": "integer",
            "format": "default",
            "role": "code"
        },
        {
            "name": "PRV_COD",
            "type": "integer",
            "format": "default"
        }
    ],
    "missingValues": [
        ""
    ],
    "name": "MS_ENT_PRV_C",
    "title": "Compatibilité mode d Entree du champ -  Provenance",
    "primaryKey": [
        "ENT_MOD_COD", "PRV_COD"
    ]
}